team specificity_interval_12_18_NIV specificity_interval_12_18_PEG specificity_interval_12_18_DEATH specificity_interval_12_18_NONE specificity_interval_12_18_CENSORED recall_interval_12_18_NIV recall_interval_12_18_PEG recall_interval_12_18_DEATH recall_interval_12_18_NONE recall_interval_12_18_CENSORED specificity_interval_18_24_NIV specificity_interval_18_24_PEG specificity_interval_18_24_DEATH specificity_interval_18_24_NONE specificity_interval_18_24_CENSORED recall_interval_18_24_NIV recall_interval_18_24_PEG recall_interval_18_24_DEATH recall_interval_18_24_NONE recall_interval_18_24_CENSORED specificity_interval_24_30_NIV specificity_interval_24_30_PEG specificity_interval_24_30_DEATH specificity_interval_24_30_NONE specificity_interval_24_30_CENSORED recall_interval_24_30_NIV recall_interval_24_30_PEG recall_interval_24_30_DEATH recall_interval_24_30_NONE recall_interval_24_30_CENSORED specificity_interval_30_36_NIV specificity_interval_30_36_PEG specificity_interval_30_36_DEATH specificity_interval_30_36_NONE specificity_interval_30_36_CENSORED recall_interval_30_36_NIV recall_interval_30_36_PEG recall_interval_30_36_DEATH recall_interval_30_36_NONE recall_interval_30_36_CENSORED specificity_label_NIV specificity_label_PEG specificity_label_DEATH specificity_label_NONE specificity_label_CENSORED recall_label_NIV recall_label_PEG recall_label_DEATH recall_label_NONE recall_label_CENSORED
compbiomed-unito_T2a_M6_DSM_survival_time 0.868778280542986 1 0.899082568807339 0.547169811320755 0.943089430894309 0.08 NA 0.142857142857143 0.782383419689119 NA 0.869822485207101 1 0.884848484848485 0.75 0.777777777777778 0.2 NA 0.0833333333333333 0.613793103448276 NA 0.8984375 1 0.930232558139535 0.870967741935484 0.611111111111111 0.3125 NA 0 0.504424778761062 NA 0.969387755102041 1 0.952380952380952 0.761904761904762 0.5 0.214285714285714 NA 0.142857142857143 0.428571428571429 NA 0.657894736842105 1 0.53125 1 1 0.53125 NA 0.657894736842105 NA NA
compbiomed-unito_T2a_M6_ME-GBSA-64 0.733031674208145 1 0.844036697247706 0.886792452830189 0.83739837398374 0.4 NA 0.357142857142857 0.450777202072539 NA 0.72189349112426 1 0.884848484848485 1 0.444444444444444 0.25 NA 0.0833333333333333 0.0758620689655172 NA 0.953125 1 0.968992248062015 1 0.0763888888888889 0 NA 0 0.00884955752212389 NA 0.989795918367347 1 1 1 0.00892857142857143 0 NA 0 0 NA 0.289473684210526 1 0.75 1 1 0.75 NA 0.289473684210526 NA NA
compbiomed-unito_T2a_M6_ME-GBSA-79 0.895927601809955 1 0.935779816513762 0.471698113207547 0.939024390243902 0.2 NA 0.178571428571429 0.808290155440414 NA 0.905325443786982 1 0.884848484848485 0.704545454545455 0.80952380952381 0.35 NA 0.333333333333333 0.620689655172414 NA 0.84375 1 0.906976744186046 0.935483870967742 0.618055555555556 0.0625 NA 0.266666666666667 0.442477876106195 NA 0.86734693877551 1 0.961904761904762 0.857142857142857 0.4375 0.142857142857143 NA 0 0.296703296703297 NA 0.421052631578947 1 0.65625 1 1 0.65625 NA 0.421052631578947 NA NA
