team specificity_interval_12_18_NIV specificity_interval_12_18_PEG specificity_interval_12_18_DEATH specificity_interval_12_18_NONE specificity_interval_12_18_CENSORED recall_interval_12_18_NIV recall_interval_12_18_PEG recall_interval_12_18_DEATH recall_interval_12_18_NONE recall_interval_12_18_CENSORED specificity_interval_18_24_NIV specificity_interval_18_24_PEG specificity_interval_18_24_DEATH specificity_interval_18_24_NONE specificity_interval_18_24_CENSORED recall_interval_18_24_NIV recall_interval_18_24_PEG recall_interval_18_24_DEATH recall_interval_18_24_NONE recall_interval_18_24_CENSORED specificity_interval_24_30_NIV specificity_interval_24_30_PEG specificity_interval_24_30_DEATH specificity_interval_24_30_NONE specificity_interval_24_30_CENSORED recall_interval_24_30_NIV recall_interval_24_30_PEG recall_interval_24_30_DEATH recall_interval_24_30_NONE recall_interval_24_30_CENSORED specificity_interval_30_36_NIV specificity_interval_30_36_PEG specificity_interval_30_36_DEATH specificity_interval_30_36_NONE specificity_interval_30_36_CENSORED recall_interval_30_36_NIV recall_interval_30_36_PEG recall_interval_30_36_DEATH recall_interval_30_36_NONE recall_interval_30_36_CENSORED specificity_label_NIV specificity_label_PEG specificity_label_DEATH specificity_label_NONE specificity_label_CENSORED recall_label_NIV recall_label_PEG recall_label_DEATH recall_label_NONE recall_label_CENSORED
compbiomed-unito_T2b_M6_DSM_survival_time 1 0.913333333333333 0.947552447552448 0.51219512195122 0.925149700598802 NA 0.264705882352941 0.125 0.845238095238095 NA 1 0.872246696035242 0.928909952606635 0.518518518518518 0.841463414634146 NA 0.157894736842105 0 0.697916666666667 NA 1 0.940119760479042 0.93167701863354 0.615384615384615 0.694736842105263 NA 0.0869565217391304 0.103448275862069 0.623188405797101 NA 1 0.921875 0.967213114754098 0.818181818181818 0.617647058823529 NA 0.125 0.0714285714285714 0.56140350877193 NA 1 0.298507462686567 0.5 1 1 NA 0.5 0.298507462686567 NA NA
compbiomed-unito_T2b_M6_ME-GBSA-175 1 0.94 0.926573426573427 0.5 0.916167664670659 NA 0.294117647058824 0.145833333333333 0.829365079365079 NA 1 0.94273127753304 0.872037914691943 0.574074074074074 0.829268292682927 NA 0.0526315789473684 0.2 0.692708333333333 NA 1 0.988023952095808 0.832298136645963 0.769230769230769 0.689473684210526 NA 0.0869565217391304 0.310344827586207 0.572463768115942 NA 1 0.9765625 0.942622950819672 0.909090909090909 0.566176470588235 NA 0 0.142857142857143 0.552631578947368 NA 1 0.835820895522388 0.5 1 1 NA 0.5 0.835820895522388 NA NA
compbiomed-unito_T2b_M6_ME-GBSA-184 1 0.846666666666667 0.786713286713287 0.804878048780488 0.853293413173653 NA 0.441176470588235 0.166666666666667 0.551587301587302 NA 1 0.894273127753304 0.725118483412322 0.925925925925926 0.548780487804878 NA 0.105263157894737 0.114285714285714 0.223958333333333 NA 1 0.970059880239521 0.869565217391304 0.980769230769231 0.221052631578947 NA 0.0434782608695652 0 0.101449275362319 NA 1 0.9609375 0.942622950819672 1 0.102941176470588 NA 0 0 0.0175438596491228 NA 1 0.701492537313433 0.357142857142857 1 1 NA 0.357142857142857 0.701492537313433 NA NA
