0xe2d33655c094ef8a373c0039122d9a7e 0.8025120229936996 0 NIV compbiomed-unito_T1a_M0_survDSM
0xf529bd25b4480431bfbba5d6f2e28a74 0.7949505171222869 1 NIV compbiomed-unito_T1a_M0_survDSM
0xd3ee37821226aa86382711f993370ef8 0.7873825121719102 2 NIV compbiomed-unito_T1a_M0_survDSM
0xf302dc063ff300d32a6ee2efab28b92d 0.7791928304810533 3 NIV compbiomed-unito_T1a_M0_survDSM
0xe548fbdf7a480b6c172700c24266db93 0.7687574585544938 4 DEATH compbiomed-unito_T1a_M0_survDSM
0xfbdb5a662aec0ca496557ec37f20d219 0.7579868346713313 5 NIV compbiomed-unito_T1a_M0_survDSM
0xd99207a82b9ebf093a36d905b4104fb5 0.7567836509468068 6 NIV compbiomed-unito_T1a_M0_survDSM
0xe1243501dccecd29c201b7a93e1c3785 0.7512010446076824 7 NIV compbiomed-unito_T1a_M0_survDSM
0xd7d862d8832214c47e56f7bf814a80ab 0.7450403930250684 8 NIV compbiomed-unito_T1a_M0_survDSM
0xf5b897d01df647df2ae8611b87206c69 0.741003689424418 9 NIV compbiomed-unito_T1a_M0_survDSM
0xeb5be1e7fd6b7b2b20b9fef2b9701c76 0.7406853264083803 10 NIV compbiomed-unito_T1a_M0_survDSM
0xf7bf2541be8877afdf8a7b3b3438fc52 0.7293571406838506 11 NIV compbiomed-unito_T1a_M0_survDSM
0xd26d82e70be8a467872b4b23cd851c3a 0.7183870957990458 12 NIV compbiomed-unito_T1a_M0_survDSM
0xeae8c46d82b48cc87efccde5a796cc0 0.7054408802975978 13 NIV compbiomed-unito_T1a_M0_survDSM
0xe98b50fd5e1b71343db2db67b7e4b499 0.687648273322632 14 DEATH compbiomed-unito_T1a_M0_survDSM
0xdfd6ff34ba7f6abb38fa7ae9894d4d06 0.6870499630542808 15 NIV compbiomed-unito_T1a_M0_survDSM
0xe52cf316e1e3097536676407e4e031a0 0.6847462917300066 16 DEATH compbiomed-unito_T1a_M0_survDSM
0xeec173e09e95045435808ae11ef6a5f5 0.6792064764710234 17 NIV compbiomed-unito_T1a_M0_survDSM
0xeab860b4b293424189f429e7d089d61a 0.6715776098502241 18 NIV compbiomed-unito_T1a_M0_survDSM
0xeb8326312cceeb12d9960732cf4f5155 0.6674797456101405 19 NIV compbiomed-unito_T1a_M0_survDSM
0xf688e66f6457a8d658ff91c39e74fded 0.6643128054519133 20 NIV compbiomed-unito_T1a_M0_survDSM
0xea6e9e8593e17577e3160c2a1946d1f6 0.6567951886920557 21 NIV compbiomed-unito_T1a_M0_survDSM
0xdb5a760520e0194350467f91b656a4a4 0.6566398381969346 22 NIV compbiomed-unito_T1a_M0_survDSM
0xd31b65ca63d9b4aa65f7c18ab924189a 0.6551258227675705 23 NIV compbiomed-unito_T1a_M0_survDSM
0xfd0b34dab06d3ffbac27187fdf686edb 0.6475578922471543 24 NIV compbiomed-unito_T1a_M0_survDSM
0xfd7364d0c76517b4939aed94bf9558d 0.6429196669675812 25 NIV compbiomed-unito_T1a_M0_survDSM
0xd60c2abd7d42886e8a351fe84fa94a4 0.6405713568004938 26 NIV compbiomed-unito_T1a_M0_survDSM
0xfb313a896f03bab8c319262f69eb0cc 0.6400242945035148 27 DEATH compbiomed-unito_T1a_M0_survDSM
0xf216cafbe04caffbd7664cc23a2db83d 0.6375430263205794 28 DEATH compbiomed-unito_T1a_M0_survDSM
0xea0eff4909b5dd55afbef60ffb4e3101 0.6371840813700217 29 NIV compbiomed-unito_T1a_M0_survDSM
0xf1c610f643e2254e1e6bcd9f9fbb788f 0.6350724779145948 30 NIV compbiomed-unito_T1a_M0_survDSM
0xf103163cba9f07e058ce756b944886c1 0.6293627955335457 31 NIV compbiomed-unito_T1a_M0_survDSM
0xe95317d9ab2f9930a73d4bbc86c4c13a 0.623733694926167 32 DEATH compbiomed-unito_T1a_M0_survDSM
0xeb7bf54305340d3d8e4f280abeb7473 0.6237133844433358 33 NIV compbiomed-unito_T1a_M0_survDSM
0xf4f2553c05bed4c3641960d1326ae10b 0.6228854476093981 34 DEATH compbiomed-unito_T1a_M0_survDSM
0xfb46f742b267f2c6067298fce3e870cb 0.6226414443864344 35 DEATH compbiomed-unito_T1a_M0_survDSM
0xe97dee51285e88b33b4c0761066df1e 0.6199009837948075 36 NIV compbiomed-unito_T1a_M0_survDSM
0xd7717aa6288c4cf6ffab22bf25544fd7 0.6168495960987274 37 NIV compbiomed-unito_T1a_M0_survDSM
0xd41a3ee089ce64b7aab7b3f5ff2b08a6 0.6163528751541947 38 NIV compbiomed-unito_T1a_M0_survDSM
0xfa1fc7c435f2de6bdb7ed4fc644e5aa6 0.6104130513150345 39 DEATH compbiomed-unito_T1a_M0_survDSM
0xd2a42221873cdea520585a5d5c88969f 0.6070249460821522 40 DEATH compbiomed-unito_T1a_M0_survDSM
0xf5eeae64002862bbbe0cb0d1667ffa56 0.6060688697349937 41 NIV compbiomed-unito_T1a_M0_survDSM
0xeca63b2021a883ab075f46cf5d0c0c4c 0.6040782934102275 42 DEATH compbiomed-unito_T1a_M0_survDSM
0xee954eee6763a75b49356fd60400df96 0.6039675144573824 43 NIV compbiomed-unito_T1a_M0_survDSM
0xf4fe5de72a7b60434995feb9f494f3a8 0.6002704502929922 44 NIV compbiomed-unito_T1a_M0_survDSM
0xffb2d295bf7d88afcf7738b39ff9503d 0.6001738138420744 45 DEATH compbiomed-unito_T1a_M0_survDSM
0xf82230e4bcd875a07dc1bf0771cee5a2 0.5998983667571821 46 NIV compbiomed-unito_T1a_M0_survDSM
0xfd82b366738c82f8a704f1cac062c88b 0.5980946280146532 47 DEATH compbiomed-unito_T1a_M0_survDSM
0xfa9882c168e02e5b6a87757e6b6b9b22 0.5975077659524014 48 NIV compbiomed-unito_T1a_M0_survDSM
0xd88837402c4e93085d4cc6f7a9c24cc1 0.5921213903867226 49 NIV compbiomed-unito_T1a_M0_survDSM
0xde0743f85184390d3bc39c19bf2ea2ae 0.5901018098214297 50 NIV compbiomed-unito_T1a_M0_survDSM
0xec8f4f8e33c61d083b87631e1fc49471 0.5886690478263635 51 NIV compbiomed-unito_T1a_M0_survDSM
0xe1911c880481ae1c7ceea1c15ee76b7a 0.5854724682369342 52 DEATH compbiomed-unito_T1a_M0_survDSM
0xf9cf1b69a3cac1563c0cb355d7df83c7 0.5844335329207025 53 NIV compbiomed-unito_T1a_M0_survDSM
0xe5144e8e0dc88e7e42acc50fa0a3bd5e 0.5841977565148909 54 DEATH compbiomed-unito_T1a_M0_survDSM
0xf71142822940f1367d768de7f2c82c00 0.5805255244484147 55 DEATH compbiomed-unito_T1a_M0_survDSM
0xf27bededb6f7fb7d23de734413cc8da2 0.579406767404728 56 NIV compbiomed-unito_T1a_M0_survDSM
0xff800da9a7a2fc4a01db45e4e8bb9b63 0.5778191408161786 57 DEATH compbiomed-unito_T1a_M0_survDSM
0xeea35f2d789b18b2869b6be01a6d016b 0.5749419124393597 58 NIV compbiomed-unito_T1a_M0_survDSM
0xfe6e4b0c7e68f9f149150293ea9423a9 0.574470612516937 59 NIV compbiomed-unito_T1a_M0_survDSM
0xdd9bf04b864ca70e3747743c75fd5d15 0.5735756523148545 60 NIV compbiomed-unito_T1a_M0_survDSM
0xf94bb7a20ca8cb7706f518420785d5e0 0.5711377719636176 61 NIV compbiomed-unito_T1a_M0_survDSM
0xfeee1b962c83164cd24885a790f8f1cf 0.5708859131941048 62 NIV compbiomed-unito_T1a_M0_survDSM
0xe7414527e960338f49cb82d3cd44bf58 0.5673375026399964 63 NIV compbiomed-unito_T1a_M0_survDSM
0xdebc17bef1084afcb99a1e691bc29ae 0.5668916954237772 64 NIV compbiomed-unito_T1a_M0_survDSM
0xda3cd952705fe75d00d50ca811b8db7 0.5633085036413451 65 NIV compbiomed-unito_T1a_M0_survDSM
0xebe2c7d10de4b1f1a07007d80a59fece 0.5631149244898758 66 DEATH compbiomed-unito_T1a_M0_survDSM
0xd317b8d1717b6cde303ef3732e3cfb71 0.5621315460418047 67 NIV compbiomed-unito_T1a_M0_survDSM
0xfd1d5c688d32c592344c0b477526d572 0.5596086958037598 68 NIV compbiomed-unito_T1a_M0_survDSM
0xd718fbf5e5448b16ffb18ccaf30f844a 0.5550481843567567 69 NIV compbiomed-unito_T1a_M0_survDSM
0xd53604e8a14246f6ac13809f369bc9fe 0.5548823020375959 70 NIV compbiomed-unito_T1a_M0_survDSM
0xf9520b99fe784fd0a89627834db4ac60 0.5544835933318684 71 NIV compbiomed-unito_T1a_M0_survDSM
0xde517225b56631a6ed23488cfb0d4a54 0.5538313314984066 72 DEATH compbiomed-unito_T1a_M0_survDSM
0xf78ead80e7859b6ad13d1a038a7db8f8 0.5536230323341967 73 NIV compbiomed-unito_T1a_M0_survDSM
0xf9bbabe811e269d8cf2be964e07594bc 0.5531428048418775 74 NIV compbiomed-unito_T1a_M0_survDSM
0xff9195ae018b73c7b70024c9dbf7c8d8 0.552334370516191 75 DEATH compbiomed-unito_T1a_M0_survDSM
0xfd1b9d000bab595412ab90d849c98927 0.5510380554016591 76 NIV compbiomed-unito_T1a_M0_survDSM
0xdf43cfb79350350b0b0b4f4e9e8cc141 0.5508011174025422 77 DEATH compbiomed-unito_T1a_M0_survDSM
0xda8ab807ad39891ba8d380eae28d7301 0.5478475116117917 78 NIV compbiomed-unito_T1a_M0_survDSM
0xdd0862a04c30e83bb0603190b7f66f4e 0.544868449787792 79 NIV compbiomed-unito_T1a_M0_survDSM
0xef8a3804eb6d65718f090a1fd1cb1cfb 0.5440345100811097 80 NIV compbiomed-unito_T1a_M0_survDSM
0xee3a19f52a50ecd49188235eb57b1d72 0.5435707328157184 81 DEATH compbiomed-unito_T1a_M0_survDSM
0xec1b1fb1dcc7b585296d94f07743df75 0.5427993880783699 82 NIV compbiomed-unito_T1a_M0_survDSM
0xf3f096ee783aa5fd0723a87fb8bc12be 0.540332567594211 83 NIV compbiomed-unito_T1a_M0_survDSM
0xe6aaabecc286c2da050879aacc52273 0.5401598489412293 84 DEATH compbiomed-unito_T1a_M0_survDSM
0xf8755572377a8aec60f0daf413ccbb4b 0.5401460924117357 85 NIV compbiomed-unito_T1a_M0_survDSM
0xd3b7c5fb0c510b91174df4e6ba01f066 0.5388105971100621 86 NIV compbiomed-unito_T1a_M0_survDSM
0xf4fa7bd79c7b95cb9e90f1e80687dc56 0.5372140548663472 87 NIV compbiomed-unito_T1a_M0_survDSM
0xee8bfccacb125b541b17fdc2464757cc 0.537212795922349 88 NIV compbiomed-unito_T1a_M0_survDSM
0xeac9347ec35cb5dc7bb8c79a03b92c33 0.5370016754047691 89 NIV compbiomed-unito_T1a_M0_survDSM
0xeceb727a34f8dde7f27bbdcc70559e3c 0.5368981026509383 90 NIV compbiomed-unito_T1a_M0_survDSM
0xf34134b9e4d84f0747e1b671e7ffc77f 0.5364971416656834 91 NIV compbiomed-unito_T1a_M0_survDSM
0xd6f42694625c79b8219804527461c42 0.5354802482432558 92 NIV compbiomed-unito_T1a_M0_survDSM
0xfd2e06a25a21d1558c6bd8fdfa1d5b6f 0.5341827444225179 93 DEATH compbiomed-unito_T1a_M0_survDSM
0xf213112adb4999d5a440d900a689fb5b 0.5340540653200277 94 DEATH compbiomed-unito_T1a_M0_survDSM
0xf0cce8b217b6cece44d7c415dcc41fb0 0.5326990308238334 95 DEATH compbiomed-unito_T1a_M0_survDSM
0xf8989307a3cc4e26889fd3e10f022ed5 0.5326970447229724 96 NIV compbiomed-unito_T1a_M0_survDSM
0xe71b3e912d71806b02f8dc57534c7e5c 0.5315248626467677 97 DEATH compbiomed-unito_T1a_M0_survDSM
0xe611e0187ce0a2383d06e8b7c4bdd82d 0.5293947790124318 98 NIV compbiomed-unito_T1a_M0_survDSM
0xd5043ae62b88bbb0e6f5fde21a8a65a2 0.5266677254417625 99 NIV compbiomed-unito_T1a_M0_survDSM
0xe7bbea70b46ca3563c52cf93d7f77e6e 0.5247809874777373 100 DEATH compbiomed-unito_T1a_M0_survDSM
0xe7a85df03166d972a57667b88a86f8c 0.5241871552129997 101 NIV compbiomed-unito_T1a_M0_survDSM
0xd5792dfdb345bdca74578a5dd7e9c0fc 0.5238958856226719 102 NIV compbiomed-unito_T1a_M0_survDSM
0xf280278b67e8710e087249dad21da735 0.5234969960982593 103 NIV compbiomed-unito_T1a_M0_survDSM
0xf00d4ed29db7deec9288516fdb87da9c 0.5226154876181135 104 DEATH compbiomed-unito_T1a_M0_survDSM
0xe0020cb9777c4cfa55a538a0b30bb4fb 0.519190689678629 105 DEATH compbiomed-unito_T1a_M0_survDSM
0xf7e5cdefcee841d2b6cc6c1e60f488a1 0.5191435211858031 106 NIV compbiomed-unito_T1a_M0_survDSM
0xe1f9255fd859bedca208a17db00b5737 0.5189560563730811 107 NIV compbiomed-unito_T1a_M0_survDSM
0xd987b922e81f9eaeebb9a09c2bfa0e30 0.51890900124142 108 DEATH compbiomed-unito_T1a_M0_survDSM
0xf56f03896712bce7df54fcc6c4d4e317 0.5185970931526573 109 NIV compbiomed-unito_T1a_M0_survDSM
0xe09643fdfa382af3b615067ba53e3ec9 0.517990997380132 110 DEATH compbiomed-unito_T1a_M0_survDSM
0xd5c337472199810ecb872821d9788346 0.5171429222855731 111 DEATH compbiomed-unito_T1a_M0_survDSM
0xf7800c3c145eb89a00eec9394dbf9aa0 0.5162996617946652 112 DEATH compbiomed-unito_T1a_M0_survDSM
0xde3661c7ed3dc0a21a37fc693b75b963 0.5138417020887598 113 NIV compbiomed-unito_T1a_M0_survDSM
0xf69395f0e9f8d7696c20d803a23345bd 0.5128711290457276 114 NIV compbiomed-unito_T1a_M0_survDSM
0xea31d04befc74fc9e2fcd95610257670 0.512407881426954 115 DEATH compbiomed-unito_T1a_M0_survDSM
0xf2e4385cd98a2ef4b84b251b38f66b36 0.5120347329883691 116 DEATH compbiomed-unito_T1a_M0_survDSM
0xff0dc46026c4c7377acc0612dd14888d 0.5104920187365297 117 DEATH compbiomed-unito_T1a_M0_survDSM
0xfa239063a630e9e5929acf1f91f9a3da 0.5103450369444587 118 NIV compbiomed-unito_T1a_M0_survDSM
0xd27138ac1133341363af73b557e744f5 0.5099414273351593 119 NIV compbiomed-unito_T1a_M0_survDSM
0xfe0a4f8776ac746a638672323b26970f 0.5095419893154558 120 DEATH compbiomed-unito_T1a_M0_survDSM
0xeb98c8fbd6d496d367e7e63250ff829 0.5090108965728614 121 NIV compbiomed-unito_T1a_M0_survDSM
0xfa54e05f1e04e2ed49738336f4c3a84f 0.5086506391174028 122 DEATH compbiomed-unito_T1a_M0_survDSM
0xe5a7736524fb5fcf98c1aef549cab227 0.5085671723652546 123 DEATH compbiomed-unito_T1a_M0_survDSM
0xef2d65a03b94ad521ce01a01902cddbc 0.5074333010745172 124 NIV compbiomed-unito_T1a_M0_survDSM
0xd74b09cba6eae315293ad458e6bcc9f2 0.5069193386769921 125 NIV compbiomed-unito_T1a_M0_survDSM
0xfdb6f07f84bc999d042f37dc3450856e 0.5048427846092026 126 DEATH compbiomed-unito_T1a_M0_survDSM
0xd7bf8d698833b47c11ab207cc04b89c9 0.5032233393562652 127 NIV compbiomed-unito_T1a_M0_survDSM
0xe2459ee8b4c7c07a0c3186049b3e1d43 0.5027886473299318 128 NIV compbiomed-unito_T1a_M0_survDSM
0xea7bc1be9d79fce7043d34eee9eb3fb 0.5022084961382586 129 NIV compbiomed-unito_T1a_M0_survDSM
0xea09e79af31bf049776f88fb4dd6cfe2 0.5006690307458695 130 NIV compbiomed-unito_T1a_M0_survDSM
0xda5c46fe14bcc02dd330b6f33d4d2b69 0.5004696285460147 131 NIV compbiomed-unito_T1a_M0_survDSM
0xd5ec6e9cb0c8457b75773d5c896c97e2 0.5004052633137169 132 NIV compbiomed-unito_T1a_M0_survDSM
0xffea07026ee4819bc346649ddad2d740 0.5001146465335399 133 NIV compbiomed-unito_T1a_M0_survDSM
0xea6ee484c00cfac85c2b41b32ec3945b 0.5000769936480101 134 DEATH compbiomed-unito_T1a_M0_survDSM
0xd73f9466b0c710dde7c345775f14b3be 0.49598927446708796 135 DEATH compbiomed-unito_T1a_M0_survDSM
0xda6be9a63492d9182cb0e1ba803a99f3 0.49594302055639455 136 DEATH compbiomed-unito_T1a_M0_survDSM
0xf9a50982020767a3819aef62ef7cf85a 0.49491195281642025 137 DEATH compbiomed-unito_T1a_M0_survDSM
0xeeaef2090e6697ea49cd4754c1e7fc52 0.49480409235704886 138 NIV compbiomed-unito_T1a_M0_survDSM
0xe1b521e5c1ba0a32f7c946d8e6e45785 0.4939855197207786 139 NIV compbiomed-unito_T1a_M0_survDSM
0xd82e2ab264accdedf1746f2fff6aa04e 0.4936558894035719 140 NIV compbiomed-unito_T1a_M0_survDSM
0xd5426d42d32f8b8fde9d9c98d48db81f 0.4928655249535467 141 DEATH compbiomed-unito_T1a_M0_survDSM
0xf648b61ecd9ef2453a2e443d2ba184b3 0.492433047629295 142 NIV compbiomed-unito_T1a_M0_survDSM
0xd31520068ec294753fb4be6f9fb8ae35 0.49122925828370884 143 DEATH compbiomed-unito_T1a_M0_survDSM
0xec4bcb0a1930afa5232d2f6dc86b9177 0.49056064668617205 144 DEATH compbiomed-unito_T1a_M0_survDSM
0xf1a0c725e956c72ee92590d8dcfefb58 0.4905606319093656 145 DEATH compbiomed-unito_T1a_M0_survDSM
0xec78b838a78beb8f98adeacf43c3d646 0.49036315987195095 146 DEATH compbiomed-unito_T1a_M0_survDSM
0xfbac1c67b95ce1057128c431a2cdee75 0.48908258537742794 147 DEATH compbiomed-unito_T1a_M0_survDSM
0xfd393a5687cc418359d4af8ce52fb04 0.4874661970709407 148 DEATH compbiomed-unito_T1a_M0_survDSM
0xd947420e9d8d72f2cc88d9aa94d716de 0.4872915940191394 149 DEATH compbiomed-unito_T1a_M0_survDSM
0xdc56995bc7b7f90c80986aabdbc5ada1 0.48623205235901706 150 DEATH compbiomed-unito_T1a_M0_survDSM
0xdb66fea36c893712201bde1649b162fe 0.4858716241862779 151 DEATH compbiomed-unito_T1a_M0_survDSM
0xf10d4ea92d3f8bd97a8e97335420ec9d 0.4858629501310225 152 DEATH compbiomed-unito_T1a_M0_survDSM
0xe279e335141f1938c4902e0542794860 0.4849280683290614 153 NIV compbiomed-unito_T1a_M0_survDSM
0xf22dbd73e845b2d27907e07de22d7c29 0.4846814840567381 154 NIV compbiomed-unito_T1a_M0_survDSM
0xe8885be345a04b02b8a8086f9859e0ba 0.48391098170737834 155 DEATH compbiomed-unito_T1a_M0_survDSM
0xdab201c23fc655b741604ffff04fb576 0.483708362972153 156 DEATH compbiomed-unito_T1a_M0_survDSM
0xd417279bb6053beedd7777f2c6f35582 0.4836672589988151 157 NIV compbiomed-unito_T1a_M0_survDSM
0xe03c0e77caeee1175d806396ea7f394f 0.48315624648488553 158 DEATH compbiomed-unito_T1a_M0_survDSM
0xef1713560b9daaa3e34cb59dd8037f2f 0.48243952783274907 159 DEATH compbiomed-unito_T1a_M0_survDSM
0xfb6b11f879e8c94bc40e422f9219b39a 0.48230274368803894 160 DEATH compbiomed-unito_T1a_M0_survDSM
0xe131e2e69ff731d99b83a026c9fe5580 0.4815878076470869 161 NIV compbiomed-unito_T1a_M0_survDSM
0xff2a4d24028b93bb9f199542657cafce 0.4803898820078529 162 DEATH compbiomed-unito_T1a_M0_survDSM
0xde3ebb711c6d4dd2fc6aaed819e56904 0.4803103806272717 163 NIV compbiomed-unito_T1a_M0_survDSM
0xf950685edb82c4ec4f7a08666017a011 0.48018093137517964 164 DEATH compbiomed-unito_T1a_M0_survDSM
0xf842e0468ca5476e1ba6c4045602bff4 0.47911807313612886 165 DEATH compbiomed-unito_T1a_M0_survDSM
0xdddf585b28242c749d927d5be4bc1301 0.47881404539529343 166 DEATH compbiomed-unito_T1a_M0_survDSM
0xf8dc68d9a1c5c169583ca3d4dfa5c214 0.4776040450406895 167 DEATH compbiomed-unito_T1a_M0_survDSM
0xe9232b72bd6ea6c9e228c57744a7fc39 0.4770850364741395 168 DEATH compbiomed-unito_T1a_M0_survDSM
0xfed064f01a1708aac1ea3caca9e7aebc 0.4766056683115045 169 NIV compbiomed-unito_T1a_M0_survDSM
0xfd2274eb15b71024039d32eb1edefe55 0.4732252288998011 170 DEATH compbiomed-unito_T1a_M0_survDSM
0xe922d2f4df2427f8372559c67f9558ff 0.4724498000353477 171 DEATH compbiomed-unito_T1a_M0_survDSM
0xf45f2136fc41ad2a85fd11aa40df27c5 0.47220506233485077 172 NIV compbiomed-unito_T1a_M0_survDSM
0xf8240b7302429c49504a9230ce6a5428 0.4721455422811928 173 NIV compbiomed-unito_T1a_M0_survDSM
0xd382daa6df0dca40fa815237180121d8 0.4720979210579874 174 DEATH compbiomed-unito_T1a_M0_survDSM
0xed33bc879bc2074ac2e72632e9505f81 0.47195958424796586 175 DEATH compbiomed-unito_T1a_M0_survDSM
0xd6ceb97d4ad0065684a61fa954b61398 0.47170365169310263 176 DEATH compbiomed-unito_T1a_M0_survDSM
0xf44f6c6ed032569f224aca85ed0cbfec 0.4716376896181271 177 DEATH compbiomed-unito_T1a_M0_survDSM
0xf44e148c018f050d4bb41962d37da746 0.47149117101078725 178 NIV compbiomed-unito_T1a_M0_survDSM
0xf4ad456ae4633925638b9d86775112eb 0.4703071164061563 179 DEATH compbiomed-unito_T1a_M0_survDSM
0xd36c161f1116c89d7b96cd22a3c72459 0.4677111039506589 180 DEATH compbiomed-unito_T1a_M0_survDSM
0xeb9c9a12516b2404f03664d4ff99a05 0.46747704062073464 181 DEATH compbiomed-unito_T1a_M0_survDSM
0xe18c99ff5b5c6cab7d196a80b58cac43 0.4667999872475869 182 DEATH compbiomed-unito_T1a_M0_survDSM
0xf188774bc59c58292edda7342dde3a3a 0.4662542085819525 183 DEATH compbiomed-unito_T1a_M0_survDSM
0xefdf46113860766941eca0395f5f5a78 0.4659549345072982 184 DEATH compbiomed-unito_T1a_M0_survDSM
0xd5ffba53ba5ea58fbb117bc716014e12 0.4652975349901891 185 NIV compbiomed-unito_T1a_M0_survDSM
0xd5edb5ec1169f1a5c865ae83f0af14e8 0.4651457314846706 186 NIV compbiomed-unito_T1a_M0_survDSM
0xed10665bf8c36beb50f95ea6199c0017 0.46466313600689796 187 DEATH compbiomed-unito_T1a_M0_survDSM
0xd333c66f71dcbce577612ecbfdaac2a8 0.46461359585758616 188 DEATH compbiomed-unito_T1a_M0_survDSM
0xd756384a94be6177659d1c36c1096aa4 0.46307716806014304 189 DEATH compbiomed-unito_T1a_M0_survDSM
0xf61e73ba8eb74ccfd07eee98cc7a8a55 0.4628189536351588 190 NIV compbiomed-unito_T1a_M0_survDSM
0xdf89ee61d738c89777ac8917091d7b5f 0.462579654721287 191 NIV compbiomed-unito_T1a_M0_survDSM
0xfd70e2ffdac9d7227f1870f3b2e11fa6 0.4616031388230178 192 DEATH compbiomed-unito_T1a_M0_survDSM
0xe936c1effb682d71174c5873419f7029 0.4605525634567993 193 DEATH compbiomed-unito_T1a_M0_survDSM
0xfffd8c023601dac0ce9b21ab226b8a3d 0.45945632055283325 194 DEATH compbiomed-unito_T1a_M0_survDSM
0xe561d548069a6f943e73d3242b6ad1e 0.45902862797770244 195 DEATH compbiomed-unito_T1a_M0_survDSM
0xd32d8b8316d08d4c934e0db5b4cbbbab 0.45861643466595164 196 DEATH compbiomed-unito_T1a_M0_survDSM
0xd6863d328e70d290894ca386305b1b0a 0.45809611248080234 197 NIV compbiomed-unito_T1a_M0_survDSM
0xf99cf8d8fb1425bd6599947341f2c0a3 0.457599610911402 198 DEATH compbiomed-unito_T1a_M0_survDSM
0xff7def9ae79d9c965bf2ab55a63ab030 0.45717015884051443 199 NIV compbiomed-unito_T1a_M0_survDSM
0xd3eeae39e8592e4bc68736b593804ae0 0.45702309533480756 200 DEATH compbiomed-unito_T1a_M0_survDSM
0xe9198c51686e6b6214bdb714eaf10a2e 0.4568918431282987 201 DEATH compbiomed-unito_T1a_M0_survDSM
0xec0916bb33028ec2d073de8f7d9b72c9 0.456702525384778 202 NIV compbiomed-unito_T1a_M0_survDSM
0xfbc694fefaa0cd13396b8dc271863e35 0.4553737956261816 203 DEATH compbiomed-unito_T1a_M0_survDSM
0xd27701d9404e65f294879671f8969a3a 0.4550171937416807 204 DEATH compbiomed-unito_T1a_M0_survDSM
0xe7e58da752f329f4c502a1e99da9163e 0.4549411553333602 205 DEATH compbiomed-unito_T1a_M0_survDSM
0xfaf00e55746069b29728118912287df5 0.45118492724653936 206 DEATH compbiomed-unito_T1a_M0_survDSM
0xe60673d48d2ab455e24ddd8782f542 0.4502026284299097 207 NIV compbiomed-unito_T1a_M0_survDSM
0xd675843b3b012885484e0637ea0333f8 0.44954886982492387 208 DEATH compbiomed-unito_T1a_M0_survDSM
0xf38fdc686f3ccffbeb4d8cf31d935f5d 0.44941121912370585 209 DEATH compbiomed-unito_T1a_M0_survDSM
0xd944807f0027bf43b7786e4bd9b8e9ef 0.4481277607340524 210 DEATH compbiomed-unito_T1a_M0_survDSM
0xd36718c707a259c6cad88c5b0f12bef9 0.4474640257190701 211 DEATH compbiomed-unito_T1a_M0_survDSM
0xec63a43004d49655727a77cf1907da9b 0.4472831143454101 212 NIV compbiomed-unito_T1a_M0_survDSM
0xe24abba1dbd4bf308cc5c3edd30f3aaf 0.44504065751300753 213 DEATH compbiomed-unito_T1a_M0_survDSM
0xec869599b2d2828d526ab101d0aca22 0.444937537075974 214 DEATH compbiomed-unito_T1a_M0_survDSM
0xfb8d03bebaba360a9a6086d80513029a 0.44490815120577726 215 DEATH compbiomed-unito_T1a_M0_survDSM
0xe03eb5db3bd06ad4f2e316136029276e 0.4438776796168387 216 DEATH compbiomed-unito_T1a_M0_survDSM
0xf0f77e6f043c61c37cf0e7c3d0e3c754 0.4427109452038123 217 DEATH compbiomed-unito_T1a_M0_survDSM
0xf2487b792a8cb59a0f5c7db06196110c 0.4421347640870679 218 DEATH compbiomed-unito_T1a_M0_survDSM
0xf833a171c98fd18777becac7328377e5 0.4419810882719903 219 DEATH compbiomed-unito_T1a_M0_survDSM
0xf9079405694f19b4849f68c05e06e474 0.4416114989120934 220 NIV compbiomed-unito_T1a_M0_survDSM
0xdb5dc80f29a179038e60bbffd2c97e64 0.4410810798814511 221 NIV compbiomed-unito_T1a_M0_survDSM
0xd4b363ca424fcb5495c55e256d228dcf 0.4391382020914693 222 NIV compbiomed-unito_T1a_M0_survDSM
0xef586cf6bff28e51a5fa24ecfd7ddf76 0.4375695966472066 223 DEATH compbiomed-unito_T1a_M0_survDSM
0xfb6b88603cbfdcdccde6955a98e1f80f 0.4357947693706106 224 DEATH compbiomed-unito_T1a_M0_survDSM
0xd812ab30e47bb673fca4238f569e43fc 0.43495807118535773 225 NIV compbiomed-unito_T1a_M0_survDSM
0xdb5f9c198ddfc05cebd57e05ce1f65b0 0.4343026132619621 226 NIV compbiomed-unito_T1a_M0_survDSM
0xe75b0b6e1f9037b4c31a1752618e81b5 0.4336889851317222 227 DEATH compbiomed-unito_T1a_M0_survDSM
0xee3f8a31ebc825766c6f42a32f3d806a 0.43265542773698806 228 NIV compbiomed-unito_T1a_M0_survDSM
0xd699c91c0883d77bc456636836f4757c 0.43112660821825916 229 DEATH compbiomed-unito_T1a_M0_survDSM
0xf9a0baa40a5828cc4eb1e2c2e2381da2 0.4307492382477733 230 NIV compbiomed-unito_T1a_M0_survDSM
0xe5503eff502e4079eeb7b70a8e81624f 0.430479799154946 231 DEATH compbiomed-unito_T1a_M0_survDSM
0xebae5bb4a98b834864213f16f917dc69 0.42817097699605355 232 NIV compbiomed-unito_T1a_M0_survDSM
0xfbc8eb23a6ec1008a7c9d1ffebdf5f58 0.4276456788644201 233 NIV compbiomed-unito_T1a_M0_survDSM
0xe75da17b210d09562c2494dbe0146b54 0.4274999103152841 234 DEATH compbiomed-unito_T1a_M0_survDSM
0xf53b3ecfaf3cf0310b8679cb9332c1d 0.4272490649177206 235 DEATH compbiomed-unito_T1a_M0_survDSM
0xfc75a58392a25eac28f8eabd1693466b 0.42602311640537244 236 DEATH compbiomed-unito_T1a_M0_survDSM
0xd4d10cf490061439735b63ce33997c14 0.4251610056530735 237 DEATH compbiomed-unito_T1a_M0_survDSM
0xd2b30a43f8fb2fdf2541ce2b52411751 0.42493315722896385 238 DEATH compbiomed-unito_T1a_M0_survDSM
0xe011d3b8d1d2afa89a4f3ad809e82f61 0.42464185491258055 239 NIV compbiomed-unito_T1a_M0_survDSM
0xdca93142c5222da1fe22972387e81d8d 0.4169908250030316 240 DEATH compbiomed-unito_T1a_M0_survDSM
0xde5560cc3800f3797a36528b728b9b6f 0.4130115843446804 241 DEATH compbiomed-unito_T1a_M0_survDSM
0xefbd105005fbd4c913e67f1e04cea00b 0.40093173271378585 242 NIV compbiomed-unito_T1a_M0_survDSM
0xf09ebd675a83f3afcaaf4e64977c3b1a 0.3994426969503279 243 NIV compbiomed-unito_T1a_M0_survDSM
0xe9a50e135fe75c3fddfdc1abfc798b17 0.39938501353469685 244 DEATH compbiomed-unito_T1a_M0_survDSM
0xdd5e2c8f8a84304f9f8357bff5b5d42e 0.39916699002865447 245 DEATH compbiomed-unito_T1a_M0_survDSM
0xe50e1671eae00837186f48081823f6a 0.39589687606165436 246 DEATH compbiomed-unito_T1a_M0_survDSM
0xed67617d0fa4e6715aeb4bb060397e9a 0.3930329766506549 247 NIV compbiomed-unito_T1a_M0_survDSM
0xedaa4967a674ca7d995883be598a1a5c 0.38618444440922123 248 DEATH compbiomed-unito_T1a_M0_survDSM
0xf739a7606c240c989e91c7f80684264d 0.38381474876668786 249 NIV compbiomed-unito_T1a_M0_survDSM
0xfd825cb486e59a2700e5da7ce967f6a4 0.38380443607034165 250 DEATH compbiomed-unito_T1a_M0_survDSM
0xffa9b0a3542580ba135d03f977b3e739 0.3756592521596467 251 DEATH compbiomed-unito_T1a_M0_survDSM
0xf4b4830578cde5e21fefe4f6af242ac7 0.37458289260978006 252 DEATH compbiomed-unito_T1a_M0_survDSM
0xf82812ebdea85ea1aa475f6a802c819b 0.3725828531530538 253 NIV compbiomed-unito_T1a_M0_survDSM
0xfe27d56439d608304d62e96402d693ad 0.369124827000787 254 DEATH compbiomed-unito_T1a_M0_survDSM
0xdfb76e5655be6ec4c62c2cb98276aaa3 0.36771320562419135 255 DEATH compbiomed-unito_T1a_M0_survDSM
0xdea18430383df9271f5f954a1d7aa89f 0.36716225857999 256 DEATH compbiomed-unito_T1a_M0_survDSM
0xd47e5fd14b1f26a916ed2808c6cb0dc2 0.36293358275522986 257 DEATH compbiomed-unito_T1a_M0_survDSM
0xfecb6f4ce1d71a01be44131645701abb 0.35875597786465646 258 NIV compbiomed-unito_T1a_M0_survDSM
0xe0b8838933d9689cf370722b5475b6b2 0.3578037889933152 259 DEATH compbiomed-unito_T1a_M0_survDSM
0xf6e75b250207b024bc7a27acf84e2ea1 0.35754137130296043 260 NIV compbiomed-unito_T1a_M0_survDSM
0xd581144148304667e66df70e8913f154 0.35468192262600723 261 NIV compbiomed-unito_T1a_M0_survDSM
0xdf69e78176d39a97097368c5a5ab0aba 0.3529745630270253 262 NIV compbiomed-unito_T1a_M0_survDSM
0xed0929b7fd7230de56f15b1497383e77 0.35175691174677787 263 DEATH compbiomed-unito_T1a_M0_survDSM
0xe5c549844deda60cee96d67026b28ca7 0.3513825402146919 264 DEATH compbiomed-unito_T1a_M0_survDSM
0xfe575fd2cf4dc619ebd32287145eea83 0.35010145330260106 265 NIV compbiomed-unito_T1a_M0_survDSM
0xfb08439610a68a0e85a6eb06d412e34c 0.348616927497053 266 DEATH compbiomed-unito_T1a_M0_survDSM
0xe2da7898817d9475a66b89d99b0a6e12 0.34753802555944596 267 NIV compbiomed-unito_T1a_M0_survDSM
0xf018ff02e490ebf136e0462351c9995a 0.34293872118308566 268 NIV compbiomed-unito_T1a_M0_survDSM
0xeaed8517edbbb934b65bb5ada72c4326 0.33906505807401616 269 DEATH compbiomed-unito_T1a_M0_survDSM
0xe22e327df9138504c3ee7484a3f1dd9d 0.33864870910510425 270 DEATH compbiomed-unito_T1a_M0_survDSM
0xf8f2dec4be3bc8d3dc2a48831dd912be 0.3368841985408928 271 DEATH compbiomed-unito_T1a_M0_survDSM
0xe6899e5673718dd10ace49ea67eb434b 0.3357532276487867 272 DEATH compbiomed-unito_T1a_M0_survDSM
0xd935049213ea4ab7213df4ba9d0011bc 0.3348456678777878 273 DEATH compbiomed-unito_T1a_M0_survDSM
0xfca94c4f6ab5f79eaf0b7651c88e810b 0.3343418140918164 274 DEATH compbiomed-unito_T1a_M0_survDSM
0xe261d744e25db88b07b0a0702f5843a1 0.33293757688637754 275 DEATH compbiomed-unito_T1a_M0_survDSM
0xfba93d2e1f10b9e61d390fd5859a056a 0.32502642861685 276 NIV compbiomed-unito_T1a_M0_survDSM
0xf37c5fe1faef6a4d71371899ffeb72a8 0.3246843998248405 277 NIV compbiomed-unito_T1a_M0_survDSM
0xdeb42eb3e20ddcab47803195d2e8dd9 0.3244278493323209 278 DEATH compbiomed-unito_T1a_M0_survDSM
0xe47aab7184db16d2565593d71df14757 0.3243107169361969 279 DEATH compbiomed-unito_T1a_M0_survDSM
0xd3690d7f264d59ee3b2ebc6169757913 0.31757344929229414 280 NIV compbiomed-unito_T1a_M0_survDSM
0xfdd6cfa13f857bca9b30dd309aa93b2d 0.31568693791438884 281 DEATH compbiomed-unito_T1a_M0_survDSM
0xd9f5dd90d4a81a83ecea564806ce241b 0.31506106588186567 282 DEATH compbiomed-unito_T1a_M0_survDSM
0xd5bd3c39db0ea9ec7fe864c579a8564a 0.31473290151786354 283 DEATH compbiomed-unito_T1a_M0_survDSM
0xeecc0a28a6ea86c50224dcb2530f4706 0.3104302323123837 284 NIV compbiomed-unito_T1a_M0_survDSM
0xfcd62abf3423c170425d2a1c3c2eeb9 0.31026958604795507 285 DEATH compbiomed-unito_T1a_M0_survDSM
0xe427d2e116a2eb36221ba20ae7d44e4b 0.30334413726713133 286 DEATH compbiomed-unito_T1a_M0_survDSM
0xd5eb540595f0135ed7b2c9c3d36f4940 0.30086995920190146 287 DEATH compbiomed-unito_T1a_M0_survDSM
0xfc4fc92c9512e0a9fd0658b0ae42c093 0.28748899570597497 288 DEATH compbiomed-unito_T1a_M0_survDSM
0xd49caf56339d1ef045ea7e03950039d4 0.2874325448694354 289 DEATH compbiomed-unito_T1a_M0_survDSM
0xf2d107e07b799de2b3691edc490fcdee 0.284115354966933 290 NIV compbiomed-unito_T1a_M0_survDSM
0xd3761335574bf2556048bb99f96c4012 0.2776048667566365 291 DEATH compbiomed-unito_T1a_M0_survDSM
0xd6619d152577d2686281f82eeb8dd69d 0.27546741597379937 292 DEATH compbiomed-unito_T1a_M0_survDSM
0xdc103e9d0b714bbf9039509839a33d58 0.2731574095286983 293 NIV compbiomed-unito_T1a_M0_survDSM
0xfcaf34ef7b81ea5ab2a3ab42a06f57b8 0.27185699697801163 294 DEATH compbiomed-unito_T1a_M0_survDSM
0xfed3fdca580330c527c11e25d1bfff5 0.2707269284047486 295 DEATH compbiomed-unito_T1a_M0_survDSM
0xf5f92fa359184bb3bc4128daa09ad096 0.26803465651754455 296 DEATH compbiomed-unito_T1a_M0_survDSM
0xed99d8ce85b98ac336bfe40b81f2e926 0.2567299994476329 297 NIV compbiomed-unito_T1a_M0_survDSM
0xf50bc52bad1fb3ab9d255d2b22ef09a1 0.2524970069655124 298 DEATH compbiomed-unito_T1a_M0_survDSM
0xfd6cee8f40454120ee09c9fed24bcee1 0.24834188135721344 299 DEATH compbiomed-unito_T1a_M0_survDSM
0xfb9b007e9edd75c26a83395469cff112 0.2454553637661074 300 DEATH compbiomed-unito_T1a_M0_survDSM
0xfdc48e7bc026e1057eac3f2461cdccdc 0.23569809181136947 301 DEATH compbiomed-unito_T1a_M0_survDSM
0xf1857c0071ce51fa75db9c0ccd92b34a 0.23380720667239308 302 DEATH compbiomed-unito_T1a_M0_survDSM
0xe754c66fac138eda1909d340c552150f 0.2316016350785449 303 DEATH compbiomed-unito_T1a_M0_survDSM
0xdaac19ce7fb25ca7da5241ef8e13a995 0.22950465579524482 304 DEATH compbiomed-unito_T1a_M0_survDSM
0xdc20584b36f70c4819c9b9e7ac9b2e25 0.22901140356271346 305 DEATH compbiomed-unito_T1a_M0_survDSM
0xe3571e398dc254de7638a7937035be70 0.22591800006481547 306 NIV compbiomed-unito_T1a_M0_survDSM
0xfe68d3eaaab39e7ec05260e9f6f3b594 0.22406035582561204 307 NIV compbiomed-unito_T1a_M0_survDSM
0xfdeac27ee0e72aca88b427bb87909368 0.22156356989481085 308 NIV compbiomed-unito_T1a_M0_survDSM
0xe9552678c63ee3b6c313766e97753dbc 0.2179838627673701 309 DEATH compbiomed-unito_T1a_M0_survDSM
0xdd97a1c26fa0eb26748f253bbd060287 0.21631271715861858 310 NIV compbiomed-unito_T1a_M0_survDSM
0xf5895fdb58c6d5fe6a2717d546c14764 0.21528495969116038 311 DEATH compbiomed-unito_T1a_M0_survDSM
0xe531418980aaa61c0b078360aa71b72e 0.21471478053878298 312 DEATH compbiomed-unito_T1a_M0_survDSM
0xd5f53f8c1c47ccaa895aaf51ced0e80a 0.21398349995495514 313 NIV compbiomed-unito_T1a_M0_survDSM
0xf2a2ce275115e111ae5a22ad3429026c 0.21171836007220748 314 DEATH compbiomed-unito_T1a_M0_survDSM
0xe2bcb1edb8f34ed00792515d9e8f45a4 0.20912378242888371 315 DEATH compbiomed-unito_T1a_M0_survDSM
0xe9eea3a099d373920d539f5c82a4a735 0.20855060727799055 316 DEATH compbiomed-unito_T1a_M0_survDSM
0xf467dbbc2c3f8b542b86b790c5b911a2 0.20805947099667085 317 DEATH compbiomed-unito_T1a_M0_survDSM
0xe9beee41d19d1df18d9dd63e46cb3639 0.20629709167369822 318 DEATH compbiomed-unito_T1a_M0_survDSM
0xd9ce87a4ce5b4b7068a7718a2b6d70a8 0.20422406566130127 319 NIV compbiomed-unito_T1a_M0_survDSM
0xd244a1f9c20c3f18776c0091e4a2f1 0.20071445918470365 320 NIV compbiomed-unito_T1a_M0_survDSM
0xdb6d154fab2869d12355606be2b1a0a5 0.20014995864193155 321 DEATH compbiomed-unito_T1a_M0_survDSM
0xda807cd4f873161d3d7e48c2af27764c 0.19971765037451697 322 NIV compbiomed-unito_T1a_M0_survDSM
0xe47392b2331f8663812fe4c0b3a1c2b5 0.19882584737237605 323 DEATH compbiomed-unito_T1a_M0_survDSM
0xebb8cde3b65772cb963be4146bf426e5 0.1987708815796837 324 DEATH compbiomed-unito_T1a_M0_survDSM
0xe8be87187b3a234913efaecbfd380340 0.19850851545439752 325 DEATH compbiomed-unito_T1a_M0_survDSM
0xf97f3c95956730a68e1fe95cd9e451a2 0.19516766592754173 326 DEATH compbiomed-unito_T1a_M0_survDSM
0xd73350f7d616cb803f96f4f17678fd8f 0.19509958103318814 327 DEATH compbiomed-unito_T1a_M0_survDSM
0xe01aad010bf5a1a693431e2394b35293 0.19376967664512745 328 DEATH compbiomed-unito_T1a_M0_survDSM
0xdcf3911b063dd9046757764fce68259d 0.19200863690931744 329 DEATH compbiomed-unito_T1a_M0_survDSM
0xf81866bdc8527ad3c31b8c3f120799a1 0.19197404085429315 330 DEATH compbiomed-unito_T1a_M0_survDSM
0xe6c9f4971f7d0be5178bcee41ec7ce40 0.19127266056599737 331 DEATH compbiomed-unito_T1a_M0_survDSM
0xdea07ddceb79e747808204611ef914e6 0.1905463361909241 332 DEATH compbiomed-unito_T1a_M0_survDSM
0xee673c7ae2e5429e5e7d7bb8021c1f97 0.19008876069274058 333 DEATH compbiomed-unito_T1a_M0_survDSM
0xde16308d1d1aa5d87038aa16043406e7 0.18772753991353108 334 DEATH compbiomed-unito_T1a_M0_survDSM
0xfecb8afae7771e7ae7d8df54b515c382 0.18748142557412492 335 DEATH compbiomed-unito_T1a_M0_survDSM
0xec30d4197a860e6d31f7a1336b256568 0.18722157326015587 336 DEATH compbiomed-unito_T1a_M0_survDSM
0xf766abd56d68ad3f98a669e428314623 0.1835616592018431 337 DEATH compbiomed-unito_T1a_M0_survDSM
0xe186efe19dcf7c7050a226f1d5f304ae 0.18347594758289362 338 NIV compbiomed-unito_T1a_M0_survDSM
0xe9b435a20f9284d389e1f4a19208016d 0.1810158664617877 339 DEATH compbiomed-unito_T1a_M0_survDSM
0xde976fcdacf209af454093bc0d008a50 0.18054883364006732 340 DEATH compbiomed-unito_T1a_M0_survDSM
0xd6e36dc40dc7f14d135558b882a20e01 0.17688021768496467 341 DEATH compbiomed-unito_T1a_M0_survDSM
0xed9f6346883b01b782874a9e1eba5cf3 0.17603413825565437 342 NIV compbiomed-unito_T1a_M0_survDSM
0xea8853b3ecfda6e662b26ae8814b3894 0.17141899583754994 343 NIV compbiomed-unito_T1a_M0_survDSM
0xea9b939a5421bff79ef3e8b003145a9a 0.17126042424990406 344 DEATH compbiomed-unito_T1a_M0_survDSM
0xf3f59173eebadd3eae124f69cbb33cfa 0.16940350301206886 345 DEATH compbiomed-unito_T1a_M0_survDSM
0xd54a2ea81d89a51632d04811cebeb8c3 0.1669127495559143 346 DEATH compbiomed-unito_T1a_M0_survDSM
0xe68dc2738e74844599b493a91d2aaa1b 0.16025090048368243 347 DEATH compbiomed-unito_T1a_M0_survDSM
0xdfd617655582234cf254aa4a1f8a54c2 0.1565045330594856 348 DEATH compbiomed-unito_T1a_M0_survDSM
0xfa81a092708523789aa2411a4cc59db8 0.1500853013789503 349 DEATH compbiomed-unito_T1a_M0_survDSM
