0xf0b475d1676561e20804f1194407e9b5 0.13378372140874858 0 DEATH compbiomed-unito_T1c_M6_ME-GBSA-269
0xcd148f06e8ec28a20a2f118fdf4adaea 0.09266645706483027 1 DEATH compbiomed-unito_T1c_M6_ME-GBSA-269
0xd31b65ca63d9b4aa65f7c18ab924189a 0.06456700661072717 2 DEATH compbiomed-unito_T1c_M6_ME-GBSA-269
0xf5eeae64002862bbbe0cb0d1667ffa56 0.06450101661764208 3 DEATH compbiomed-unito_T1c_M6_ME-GBSA-269
0xd0b78902dae8914c1fd91189043a86fa 0.0638947492151094 4 DEATH compbiomed-unito_T1c_M6_ME-GBSA-269
0xf103163cba9f07e058ce756b944886c1 0.06304508204904413 5 DEATH compbiomed-unito_T1c_M6_ME-GBSA-269
0xeae8c46d82b48cc87efccde5a796cc0 0.04977286695624081 6 DEATH compbiomed-unito_T1c_M6_ME-GBSA-269
0xf3db66d99e46915816ef68277c518c7b 0.04576433756284133 7 DEATH compbiomed-unito_T1c_M6_ME-GBSA-269
0xdab5b4c5bf823ca40ccf04b019db8012 0.045706463993729324 8 DEATH compbiomed-unito_T1c_M6_ME-GBSA-269
0xd2a42221873cdea520585a5d5c88969f 0.04232660268171031 9 DEATH compbiomed-unito_T1c_M6_ME-GBSA-269
0xe9fba3e3fd2846481470a98032acd466 0.03858313375602736 10 DEATH compbiomed-unito_T1c_M6_ME-GBSA-269
0xf69395f0e9f8d7696c20d803a23345bd 0.03765124016260407 11 DEATH compbiomed-unito_T1c_M6_ME-GBSA-269
0xeab860b4b293424189f429e7d089d61a 0.037584391612106 12 DEATH compbiomed-unito_T1c_M6_ME-GBSA-269
0xdb5a760520e0194350467f91b656a4a4 0.03590508446789925 13 DEATH compbiomed-unito_T1c_M6_ME-GBSA-269
0xefdf46113860766941eca0395f5f5a78 0.03587069416490928 14 DEATH compbiomed-unito_T1c_M6_ME-GBSA-269
0xd3ee37821226aa86382711f993370ef8 0.03384293265189461 15 DEATH compbiomed-unito_T1c_M6_ME-GBSA-269
0xe2d33655c094ef8a373c0039122d9a7e 0.031707977598395644 16 DEATH compbiomed-unito_T1c_M6_ME-GBSA-269
0xeec173e09e95045435808ae11ef6a5f5 0.0295235173450372 17 DEATH compbiomed-unito_T1c_M6_ME-GBSA-269
0xfd0b34dab06d3ffbac27187fdf686edb 0.029134327285036187 18 DEATH compbiomed-unito_T1c_M6_ME-GBSA-269
0xf529bd25b4480431bfbba5d6f2e28a74 0.02749920239035687 19 DEATH compbiomed-unito_T1c_M6_ME-GBSA-269
0xe1243501dccecd29c201b7a93e1c3785 0.02653988740347732 20 DEATH compbiomed-unito_T1c_M6_ME-GBSA-269
0xffea07026ee4819bc346649ddad2d740 0.025083395922054285 21 DEATH compbiomed-unito_T1c_M6_ME-GBSA-269
0xfb403b2eeb639d2539f1cb7e3a3bfa49 0.022633791702910747 22 DEATH compbiomed-unito_T1c_M6_ME-GBSA-269
0xe13591723f3dd735ab755d1c7b9b7299 0.02259394092646625 23 DEATH compbiomed-unito_T1c_M6_ME-GBSA-269
0xd9322524393a875d28f0c966d84d8293 0.02200509548174328 24 DEATH compbiomed-unito_T1c_M6_ME-GBSA-269
0xf85acc7de3bbd88ce48d27e53a99e9e0 0.02060852299629349 25 DEATH compbiomed-unito_T1c_M6_ME-GBSA-269
0xe3fe42b609b1deda32fdd589e8bc3f4d 0.0181522592305263 26 DEATH compbiomed-unito_T1c_M6_ME-GBSA-269
0xf9cf1b69a3cac1563c0cb355d7df83c7 0.017830545764371313 27 DEATH compbiomed-unito_T1c_M6_ME-GBSA-269
0xff800da9a7a2fc4a01db45e4e8bb9b63 0.017204529573822156 28 DEATH compbiomed-unito_T1c_M6_ME-GBSA-269
0xeb7bf54305340d3d8e4f280abeb7473 0.01587109472813285 29 DEATH compbiomed-unito_T1c_M6_ME-GBSA-269
0xcc2bf10495d5468c0d7ecc410eed5218 0.012917696841821544 30 DEATH compbiomed-unito_T1c_M6_ME-GBSA-269
0xdc44a5f974cd0e0be3a4afa4e5934e17 0.01245123070948057 31 DEATH compbiomed-unito_T1c_M6_ME-GBSA-269
0xfb46f742b267f2c6067298fce3e870cb 0.012167197553711578 32 DEATH compbiomed-unito_T1c_M6_ME-GBSA-269
0xf7bf2541be8877afdf8a7b3b3438fc52 0.011891243431236752 33 DEATH compbiomed-unito_T1c_M6_ME-GBSA-269
0xe548fbdf7a480b6c172700c24266db93 0.011231887120590442 34 DEATH compbiomed-unito_T1c_M6_ME-GBSA-269
0xe1861d1a19780afbf6e583e164e31737 0.010672072179784163 35 DEATH compbiomed-unito_T1c_M6_ME-GBSA-269
0xce18e04b85953352c9b6c3552b883014 0.010308410255231189 36 DEATH compbiomed-unito_T1c_M6_ME-GBSA-269
0xd83e16c58a38a6710258d51ef5e55c2b 0.010285386287549035 37 DEATH compbiomed-unito_T1c_M6_ME-GBSA-269
0xd26d82e70be8a467872b4b23cd851c3a 0.010041885354259372 38 DEATH compbiomed-unito_T1c_M6_ME-GBSA-269
0xd707b3b19e95bb3390bbca43a3c84861 0.009869373667367606 39 DEATH compbiomed-unito_T1c_M6_ME-GBSA-269
0xf7364a4981e0237889814677a80f28c7 0.008644247262619163 40 DEATH compbiomed-unito_T1c_M6_ME-GBSA-269
0xdfd6ff34ba7f6abb38fa7ae9894d4d06 0.007044460136666792 41 DEATH compbiomed-unito_T1c_M6_ME-GBSA-269
0xe68286b6e6394818e23e42eeebb6b5e2 0.006918129308211173 42 DEATH compbiomed-unito_T1c_M6_ME-GBSA-269
0xf58a2c4705910147789b87305c44acef 0.006239996750285271 43 DEATH compbiomed-unito_T1c_M6_ME-GBSA-269
0xe05df002506b4e86e045cc51a915e10 0.006168423870037144 44 DEATH compbiomed-unito_T1c_M6_ME-GBSA-269
0xe52cf316e1e3097536676407e4e031a0 0.00608070057228352 45 DEATH compbiomed-unito_T1c_M6_ME-GBSA-269
0xca761a6a52244f763576347260b34a59 0.005895562775154774 46 DEATH compbiomed-unito_T1c_M6_ME-GBSA-269
0xf06146e45ec0cc14307c87efa6207d46 0.005496154001952187 47 DEATH compbiomed-unito_T1c_M6_ME-GBSA-269
0xffb2d295bf7d88afcf7738b39ff9503d 0.005442777860684232 48 DEATH compbiomed-unito_T1c_M6_ME-GBSA-269
0xf688e66f6457a8d658ff91c39e74fded 0.005141708010655211 49 DEATH compbiomed-unito_T1c_M6_ME-GBSA-269
0xcab332227cf293abb3b500a15d0ff270 0.004620669831704999 50 DEATH compbiomed-unito_T1c_M6_ME-GBSA-269
0xfd7364d0c76517b4939aed94bf9558d 0.004607851679059215 51 DEATH compbiomed-unito_T1c_M6_ME-GBSA-269
0xe03eb5db3bd06ad4f2e316136029276e 0.00456900876737362 52 DEATH compbiomed-unito_T1c_M6_ME-GBSA-269
0xf4fa7bd79c7b95cb9e90f1e80687dc56 0.004429107702508022 53 DEATH compbiomed-unito_T1c_M6_ME-GBSA-269
0xf6bc8bd3fbd838638e0f8515ec26c07a 0.004318807006752026 54 DEATH compbiomed-unito_T1c_M6_ME-GBSA-269
0xe87724de950aa61be595c8805ea7baeb 0.004271122846419699 55 DEATH compbiomed-unito_T1c_M6_ME-GBSA-269
0xd32d8b8316d08d4c934e0db5b4cbbbab 0.004077620157123537 56 DEATH compbiomed-unito_T1c_M6_ME-GBSA-269
0xcbf54e3665fbe4736d191381358aa7d7 0.004043090430690677 57 DEATH compbiomed-unito_T1c_M6_ME-GBSA-269
0xf00d4ed29db7deec9288516fdb87da9c 0.003913300511944307 58 DEATH compbiomed-unito_T1c_M6_ME-GBSA-269
0xd317b8d1717b6cde303ef3732e3cfb71 0.003875408344916703 59 DEATH compbiomed-unito_T1c_M6_ME-GBSA-269
0xd56863a27c027e278d4ff20e932056e3 0.0037876053014465646 60 DEATH compbiomed-unito_T1c_M6_ME-GBSA-269
0xeb41451dd6d05415b2e95bec7d70425c 0.0036237202595804686 61 DEATH compbiomed-unito_T1c_M6_ME-GBSA-269
0xe087e13516f034108a913abd7a34b28 0.0032710030180667007 62 DEATH compbiomed-unito_T1c_M6_ME-GBSA-269
0xf34134b9e4d84f0747e1b671e7ffc77f 0.002860689818207329 63 DEATH compbiomed-unito_T1c_M6_ME-GBSA-269
0xfe669ba1f416c40fe313e7c67b2acf26 0.0027364792071428935 64 DEATH compbiomed-unito_T1c_M6_ME-GBSA-269
0xe7a85df03166d972a57667b88a86f8c 0.002671030628447126 65 DEATH compbiomed-unito_T1c_M6_ME-GBSA-269
0xd7717aa6288c4cf6ffab22bf25544fd7 0.002532314642940005 66 DEATH compbiomed-unito_T1c_M6_ME-GBSA-269
0xfd82b366738c82f8a704f1cac062c88b 0.002530207295319734 67 DEATH compbiomed-unito_T1c_M6_ME-GBSA-269
0xff0dc46026c4c7377acc0612dd14888d 0.0025210491152838944 68 DEATH compbiomed-unito_T1c_M6_ME-GBSA-269
0xfbdb5a662aec0ca496557ec37f20d219 0.002477543566352296 69 DEATH compbiomed-unito_T1c_M6_ME-GBSA-269
0xf9831b68aa9f7240975f3297c7ff7161 0.0024227164376828293 70 DEATH compbiomed-unito_T1c_M6_ME-GBSA-269
0xfa1fc7c435f2de6bdb7ed4fc644e5aa6 0.0023958559403736584 71 DEATH compbiomed-unito_T1c_M6_ME-GBSA-269
0xedbd9bc377e62cb50bf2d3357144ea5c 0.0023263870445923724 72 DEATH compbiomed-unito_T1c_M6_ME-GBSA-269
0xf27bededb6f7fb7d23de734413cc8da2 0.0021111912976402797 73 DEATH compbiomed-unito_T1c_M6_ME-GBSA-269
0xcefea2d935a9883363305f711db5fa4e 0.002074869064988051 74 DEATH compbiomed-unito_T1c_M6_ME-GBSA-269
0xd5638c7f81b87b1b60eb380abb81ba6b 0.0020321788128246318 75 DEATH compbiomed-unito_T1c_M6_ME-GBSA-269
0xd4ea23e326cd8074d2a8e19560589a3f 0.001996149895221047 76 DEATH compbiomed-unito_T1c_M6_ME-GBSA-269
0xf09904ece3ec254d120d8e20d2a9b8d4 0.0019266524716793636 77 DEATH compbiomed-unito_T1c_M6_ME-GBSA-269
0xed99d8ce85b98ac336bfe40b81f2e926 0.0017035891932270437 78 DEATH compbiomed-unito_T1c_M6_ME-GBSA-269
0xd60c2abd7d42886e8a351fe84fa94a4 0.0015981280606411133 79 DEATH compbiomed-unito_T1c_M6_ME-GBSA-269
0xf48e752b802c35028d8fb7308b1e948b 0.0015721046983725962 80 DEATH compbiomed-unito_T1c_M6_ME-GBSA-269
0xee3f8a31ebc825766c6f42a32f3d806a 0.001571785112540483 81 DEATH compbiomed-unito_T1c_M6_ME-GBSA-269
0xcca971bb438338084e8bafff27b6770e 0.0012944655976239567 82 DEATH compbiomed-unito_T1c_M6_ME-GBSA-269
0xec56393484e50dc13f3e687c3537517d 0.001246399196751139 83 DEATH compbiomed-unito_T1c_M6_ME-GBSA-269
0xeecc0a28a6ea86c50224dcb2530f4706 0.0011789537325251744 84 DEATH compbiomed-unito_T1c_M6_ME-GBSA-269
0xcbf7accfa3bcf16c3807619ccc352295 0.0011642684529990922 85 DEATH compbiomed-unito_T1c_M6_ME-GBSA-269
0xced2ec7559814380ba33ff0bab89b93a 0.0011590599940623644 86 DEATH compbiomed-unito_T1c_M6_ME-GBSA-269
0xf7e5cdefcee841d2b6cc6c1e60f488a1 0.0011397834348627406 87 DEATH compbiomed-unito_T1c_M6_ME-GBSA-269
0xcb6ac5dbfc05f8f0974601ca5fd5030f 0.0011126563542262356 88 DEATH compbiomed-unito_T1c_M6_ME-GBSA-269
0xf0d0a2f0ca020f23ae90fd5ff6dd2c8e 0.0011103013103778217 89 DEATH compbiomed-unito_T1c_M6_ME-GBSA-269
0xcf9644601c67a22a9c27ccfa1abdedf1 0.0010803847700067836 90 DEATH compbiomed-unito_T1c_M6_ME-GBSA-269
0xfa14498bd96bd8a6aa15cf75f9a3fb85 0.0010735983705620138 91 DEATH compbiomed-unito_T1c_M6_ME-GBSA-269
0xd091879593136949b2a475202c5e04fa 0.0010414843786383126 92 DEATH compbiomed-unito_T1c_M6_ME-GBSA-269
0xe95317d9ab2f9930a73d4bbc86c4c13a 0.0009994270526472956 93 DEATH compbiomed-unito_T1c_M6_ME-GBSA-269
0xeeaef2090e6697ea49cd4754c1e7fc52 0.000994108062719295 94 DEATH compbiomed-unito_T1c_M6_ME-GBSA-269
0xdb1d15b66373bf1bcac246947ff2a5c 0.0009625790357304588 95 DEATH compbiomed-unito_T1c_M6_ME-GBSA-269
0xd1096bee9a6c72e45237d987dc77672f 0.0009439152048146805 96 DEATH compbiomed-unito_T1c_M6_ME-GBSA-269
0xde0743f85184390d3bc39c19bf2ea2ae 0.0009153880862200265 97 DEATH compbiomed-unito_T1c_M6_ME-GBSA-269
0xf1a0c725e956c72ee92590d8dcfefb58 0.0008544139987037946 98 DEATH compbiomed-unito_T1c_M6_ME-GBSA-269
0xdd9bf04b864ca70e3747743c75fd5d15 0.0007735358158146817 99 DEATH compbiomed-unito_T1c_M6_ME-GBSA-269
0xfb6b88603cbfdcdccde6955a98e1f80f 0.0007304580197170711 100 DEATH compbiomed-unito_T1c_M6_ME-GBSA-269
0xf71142822940f1367d768de7f2c82c00 0.0007219290543783899 101 DEATH compbiomed-unito_T1c_M6_ME-GBSA-269
0xe011d3b8d1d2afa89a4f3ad809e82f61 0.0007148449270489605 102 DEATH compbiomed-unito_T1c_M6_ME-GBSA-269
0xfd7f1867f3e74ffe8d920958df8e11e8 0.0006942838531166865 103 DEATH compbiomed-unito_T1c_M6_ME-GBSA-269
0xea09e79af31bf049776f88fb4dd6cfe2 0.0006742992175686842 104 DEATH compbiomed-unito_T1c_M6_ME-GBSA-269
0xd382daa6df0dca40fa815237180121d8 0.000644399111735826 105 DEATH compbiomed-unito_T1c_M6_ME-GBSA-269
0xf26833e0957ae6825fc358ac4201c535 0.0006362219378802803 106 DEATH compbiomed-unito_T1c_M6_ME-GBSA-269
0xfadd704d172ee3faaca14a6aecebe5db 0.0005859699820909335 107 DEATH compbiomed-unito_T1c_M6_ME-GBSA-269
0xd1f3a8b31288234dcb941265851400ba 0.000553059077946792 108 DEATH compbiomed-unito_T1c_M6_ME-GBSA-269
0xcac6a961f66514dd979095db19a0869d 0.000538304830771073 109 DEATH compbiomed-unito_T1c_M6_ME-GBSA-269
0xde16308d1d1aa5d87038aa16043406e7 0.0005168316616633644 110 DEATH compbiomed-unito_T1c_M6_ME-GBSA-269
0xfd6f2c6acb64a6e8b22b761c7058f8b1 0.0005134052501793656 111 DEATH compbiomed-unito_T1c_M6_ME-GBSA-269
0xce338efc32da3c66c47085a9e8c4f21 0.0004974938174100498 112 DEATH compbiomed-unito_T1c_M6_ME-GBSA-269
0xd7321cbd985268c4141bcc4485f73e54 0.0004957540850593024 113 DEATH compbiomed-unito_T1c_M6_ME-GBSA-269
0xd12aa4465a4d66275552160183f389d3 0.0004625355728998434 114 DEATH compbiomed-unito_T1c_M6_ME-GBSA-269
0xca4d387aa324dd98b0a004cf51cc470f 0.00043651272314567166 115 DEATH compbiomed-unito_T1c_M6_ME-GBSA-269
0xfd70e2ffdac9d7227f1870f3b2e11fa6 0.00042678985490316444 116 DEATH compbiomed-unito_T1c_M6_ME-GBSA-269
0xe63ca32211ba0ee710209b055926cc9f 0.0004201759993515413 117 DEATH compbiomed-unito_T1c_M6_ME-GBSA-269
0xee3a19f52a50ecd49188235eb57b1d72 0.00040561618848013994 118 DEATH compbiomed-unito_T1c_M6_ME-GBSA-269
0xf302dc063ff300d32a6ee2efab28b92d 0.0003907997356027194 119 DEATH compbiomed-unito_T1c_M6_ME-GBSA-269
0xda8ab807ad39891ba8d380eae28d7301 0.0003834355095252907 120 DEATH compbiomed-unito_T1c_M6_ME-GBSA-269
0xff9195ae018b73c7b70024c9dbf7c8d8 0.0003712674424541707 121 DEATH compbiomed-unito_T1c_M6_ME-GBSA-269
0xd0e71a1c656557fd7856d9e3c6b15faf 0.00036209070654311066 122 DEATH compbiomed-unito_T1c_M6_ME-GBSA-269
0xf4f2553c05bed4c3641960d1326ae10b 0.00035633936368902644 123 DEATH compbiomed-unito_T1c_M6_ME-GBSA-269
0xd790f990b440716f8ddbd961e5881a42 0.000346085194104201 124 DEATH compbiomed-unito_T1c_M6_ME-GBSA-269
0xea31d04befc74fc9e2fcd95610257670 0.0003318789385713456 125 DEATH compbiomed-unito_T1c_M6_ME-GBSA-269
0xd5b544c682f3ff066e5c84bbb8ad6b79 0.0003208813590299396 126 DEATH compbiomed-unito_T1c_M6_ME-GBSA-269
0xdb5dc80f29a179038e60bbffd2c97e64 0.00031154666771907415 127 DEATH compbiomed-unito_T1c_M6_ME-GBSA-269
0xd5043ae62b88bbb0e6f5fde21a8a65a2 0.000300315559288459 128 DEATH compbiomed-unito_T1c_M6_ME-GBSA-269
0xe09643fdfa382af3b615067ba53e3ec9 0.0002773799054932111 129 DEATH compbiomed-unito_T1c_M6_ME-GBSA-269
0xfe6e4b0c7e68f9f149150293ea9423a9 0.00026302644382017134 130 DEATH compbiomed-unito_T1c_M6_ME-GBSA-269
0xdc56995bc7b7f90c80986aabdbc5ada1 0.00025866508024036854 131 DEATH compbiomed-unito_T1c_M6_ME-GBSA-269
0xd7d862d8832214c47e56f7bf814a80ab 0.00025369217386590287 132 DEATH compbiomed-unito_T1c_M6_ME-GBSA-269
0xeea35f2d789b18b2869b6be01a6d016b 0.00024411083537112575 133 DEATH compbiomed-unito_T1c_M6_ME-GBSA-269
0xd53604e8a14246f6ac13809f369bc9fe 0.0002356921394477908 134 DEATH compbiomed-unito_T1c_M6_ME-GBSA-269
0xf4223f279969356614e148096f0ff626 0.00022194871534551278 135 DEATH compbiomed-unito_T1c_M6_ME-GBSA-269
0xd1e37b682a43d315c4fd71ba43c0b8f9 0.00021316853697993514 136 DEATH compbiomed-unito_T1c_M6_ME-GBSA-269
0xd7b06c10449c68e86de95bec01aab1ff 0.00020528378156575358 137 DEATH compbiomed-unito_T1c_M6_ME-GBSA-269
0xd1c7d3ccbb99ca71b975d1e0ec5b8f1a 0.00020278897053388955 138 DEATH compbiomed-unito_T1c_M6_ME-GBSA-269
0xf4fe5de72a7b60434995feb9f494f3a8 0.00018689850243843806 139 DEATH compbiomed-unito_T1c_M6_ME-GBSA-269
0xe725515e589333a0e47d8fecb13d0e19 0.00018074850644137454 140 DEATH compbiomed-unito_T1c_M6_ME-GBSA-269
0xe922d2f4df2427f8372559c67f9558ff 0.00017291226837602466 141 DEATH compbiomed-unito_T1c_M6_ME-GBSA-269
0xe7414527e960338f49cb82d3cd44bf58 0.00017266372808513245 142 DEATH compbiomed-unito_T1c_M6_ME-GBSA-269
0xeb5be1e7fd6b7b2b20b9fef2b9701c76 0.00016246817164799798 143 DEATH compbiomed-unito_T1c_M6_ME-GBSA-269
0xf8755572377a8aec60f0daf413ccbb4b 0.00015419128489715844 144 DEATH compbiomed-unito_T1c_M6_ME-GBSA-269
0xcf9844d5d100e482d188e39e0031c174 0.0001526574291943152 145 DEATH compbiomed-unito_T1c_M6_ME-GBSA-269
0xe28164b3703a515d07431e9a0cd7e326 0.00014582074325644666 146 DEATH compbiomed-unito_T1c_M6_ME-GBSA-269
0xcdc2424b773830758b504e7e2d8f4e78 0.0001454685932332627 147 DEATH compbiomed-unito_T1c_M6_ME-GBSA-269
0xff2a4d24028b93bb9f199542657cafce 0.00014394833986503797 148 DEATH compbiomed-unito_T1c_M6_ME-GBSA-269
0xfd2274eb15b71024039d32eb1edefe55 0.00013983136118604693 149 DEATH compbiomed-unito_T1c_M6_ME-GBSA-269
0xdab201c23fc655b741604ffff04fb576 0.0001397558896448333 150 DEATH compbiomed-unito_T1c_M6_ME-GBSA-269
0xf8989307a3cc4e26889fd3e10f022ed5 0.00013814469044457113 151 DEATH compbiomed-unito_T1c_M6_ME-GBSA-269
0xfa54e05f1e04e2ed49738336f4c3a84f 0.00013712542402112093 152 DEATH compbiomed-unito_T1c_M6_ME-GBSA-269
0xe34b5e762bb7ce57ec0aa9eda499b7d7 0.00013631101757398878 153 DEATH compbiomed-unito_T1c_M6_ME-GBSA-269
0xec30d4197a860e6d31f7a1336b256568 0.00013429909306023267 154 DEATH compbiomed-unito_T1c_M6_ME-GBSA-269
0xcf467518a0b8918ab7df44c6f51d1235 0.00013248675979599114 155 DEATH compbiomed-unito_T1c_M6_ME-GBSA-269
0xdab7039de7c92f9467307883d56c0151 0.00013162765407679578 156 DEATH compbiomed-unito_T1c_M6_ME-GBSA-269
0xfa239063a630e9e5929acf1f91f9a3da 0.0001312974101715594 157 DEATH compbiomed-unito_T1c_M6_ME-GBSA-269
0xcb15df0f7755ee99f8a82390ab14f3f6 0.0001168453949480355 158 DEATH compbiomed-unito_T1c_M6_ME-GBSA-269
0xd88837402c4e93085d4cc6f7a9c24cc1 0.00011314135347468235 159 DEATH compbiomed-unito_T1c_M6_ME-GBSA-269
0xfb313a896f03bab8c319262f69eb0cc 0.00011302151562576198 160 DEATH compbiomed-unito_T1c_M6_ME-GBSA-269
0xf44f6c6ed032569f224aca85ed0cbfec 0.00011237194492061992 161 DEATH compbiomed-unito_T1c_M6_ME-GBSA-269
0xfed064f01a1708aac1ea3caca9e7aebc 0.00011208077505066725 162 DEATH compbiomed-unito_T1c_M6_ME-GBSA-269
0xd97fec54dc54fa1b60a32665993d16c4 0.00011112027998041843 163 DEATH compbiomed-unito_T1c_M6_ME-GBSA-269
0xd7bf8d698833b47c11ab207cc04b89c9 0.00011078674584142937 164 DEATH compbiomed-unito_T1c_M6_ME-GBSA-269
0xf82230e4bcd875a07dc1bf0771cee5a2 0.00010692642605958735 165 DEATH compbiomed-unito_T1c_M6_ME-GBSA-269
0xd01e14bab20896317481dfeaf5a802b0 0.00010575683507865031 166 DEATH compbiomed-unito_T1c_M6_ME-GBSA-269
0xcdec55e04e79ad795159801260b62787 0.00010151205255099329 167 DEATH compbiomed-unito_T1c_M6_ME-GBSA-269
0xf56f03896712bce7df54fcc6c4d4e317 0.00010043700022597736 168 DEATH compbiomed-unito_T1c_M6_ME-GBSA-269
0xd5426d42d32f8b8fde9d9c98d48db81f 9.887880725705742e-05 169 DEATH compbiomed-unito_T1c_M6_ME-GBSA-269
0xe611e0187ce0a2383d06e8b7c4bdd82d 9.533167958420621e-05 170 DEATH compbiomed-unito_T1c_M6_ME-GBSA-269
0xcbace36a71da30e112149f1e03c3ec14 8.508915342115326e-05 171 DEATH compbiomed-unito_T1c_M6_ME-GBSA-269
0xf710c42ea82b240dd90161a9fef83287 8.285505633348352e-05 172 DEATH compbiomed-unito_T1c_M6_ME-GBSA-269
0xfb8d03bebaba360a9a6086d80513029a 8.157005580041723e-05 173 DEATH compbiomed-unito_T1c_M6_ME-GBSA-269
0xd99207a82b9ebf093a36d905b4104fb5 7.426093595936205e-05 174 DEATH compbiomed-unito_T1c_M6_ME-GBSA-269
0xe5144e8e0dc88e7e42acc50fa0a3bd5e 7.283926833711239e-05 175 DEATH compbiomed-unito_T1c_M6_ME-GBSA-269
0xf78ead80e7859b6ad13d1a038a7db8f8 6.81542088489981e-05 176 DEATH compbiomed-unito_T1c_M6_ME-GBSA-269
0xee9c235ba68778d06fb84e7e709fa6e7 6.771781199396165e-05 177 DEATH compbiomed-unito_T1c_M6_ME-GBSA-269
0xe1911c880481ae1c7ceea1c15ee76b7a 6.753432203310773e-05 178 DEATH compbiomed-unito_T1c_M6_ME-GBSA-269
0xe279e335141f1938c4902e0542794860 6.66712257516097e-05 179 DEATH compbiomed-unito_T1c_M6_ME-GBSA-269
0xf77ccf65b349a2464fc80d0b3f6ea85d 6.543885772969481e-05 180 DEATH compbiomed-unito_T1c_M6_ME-GBSA-269
0xe9a50e135fe75c3fddfdc1abfc798b17 6.228964596777509e-05 181 DEATH compbiomed-unito_T1c_M6_ME-GBSA-269
0xea6e9e8593e17577e3160c2a1946d1f6 6.193868748018068e-05 182 DEATH compbiomed-unito_T1c_M6_ME-GBSA-269
0xccebb4fbed5700851b1983686589cd2d 6.014072179189419e-05 183 DEATH compbiomed-unito_T1c_M6_ME-GBSA-269
0xeceb727a34f8dde7f27bbdcc70559e3c 5.801864846176073e-05 184 DEATH compbiomed-unito_T1c_M6_ME-GBSA-269
0xdf43cfb79350350b0b0b4f4e9e8cc141 5.625010244427079e-05 185 DEATH compbiomed-unito_T1c_M6_ME-GBSA-269
0xcacac569f2346df060fe5fa58e2d4440 5.624187778749931e-05 186 DEATH compbiomed-unito_T1c_M6_ME-GBSA-269
0xd11d7c25b92a35bb6263f1862fc4ce50 5.605588555362174e-05 187 DEATH compbiomed-unito_T1c_M6_ME-GBSA-269
0xfc75a58392a25eac28f8eabd1693466b 5.568859624593317e-05 188 DEATH compbiomed-unito_T1c_M6_ME-GBSA-269
0xf7800c3c145eb89a00eec9394dbf9aa0 5.45338009175883e-05 189 DEATH compbiomed-unito_T1c_M6_ME-GBSA-269
0xec1b1fb1dcc7b585296d94f07743df75 5.444610904181803e-05 190 DEATH compbiomed-unito_T1c_M6_ME-GBSA-269
0xffa9b0a3542580ba135d03f977b3e739 5.443295568154417e-05 191 DEATH compbiomed-unito_T1c_M6_ME-GBSA-269
0xd5ec6e9cb0c8457b75773d5c896c97e2 5.3382147244442786e-05 192 DEATH compbiomed-unito_T1c_M6_ME-GBSA-269
0xe71b3e912d71806b02f8dc57534c7e5c 5.09999768658438e-05 193 DEATH compbiomed-unito_T1c_M6_ME-GBSA-269
0xf216cafbe04caffbd7664cc23a2db83d 5.062821633215216e-05 194 DEATH compbiomed-unito_T1c_M6_ME-GBSA-269
0xd417279bb6053beedd7777f2c6f35582 4.962899114519583e-05 195 DEATH compbiomed-unito_T1c_M6_ME-GBSA-269
0xf1c610f643e2254e1e6bcd9f9fbb788f 4.679764448521058e-05 196 DEATH compbiomed-unito_T1c_M6_ME-GBSA-269
0xca4775cc1195fd2a25426c36a4a1f85c 4.660055485909756e-05 197 DEATH compbiomed-unito_T1c_M6_ME-GBSA-269
0xcc1e99442c5e67e860b2b7a69cbde924 4.563528867491724e-05 198 DEATH compbiomed-unito_T1c_M6_ME-GBSA-269
0xf5b897d01df647df2ae8611b87206c69 4.425695020782439e-05 199 DEATH compbiomed-unito_T1c_M6_ME-GBSA-269
0xd947420e9d8d72f2cc88d9aa94d716de 4.282035799235482e-05 200 DEATH compbiomed-unito_T1c_M6_ME-GBSA-269
0xfb08439610a68a0e85a6eb06d412e34c 4.2461305029069784e-05 201 DEATH compbiomed-unito_T1c_M6_ME-GBSA-269
0xfe0a4f8776ac746a638672323b26970f 4.2397226214504323e-05 202 DEATH compbiomed-unito_T1c_M6_ME-GBSA-269
0xec4bcb0a1930afa5232d2f6dc86b9177 4.10645396124439e-05 203 DEATH compbiomed-unito_T1c_M6_ME-GBSA-269
0xe131e2e69ff731d99b83a026c9fe5580 4.060108147798656e-05 204 DEATH compbiomed-unito_T1c_M6_ME-GBSA-269
0xe03c0e77caeee1175d806396ea7f394f 4.0511746199610056e-05 205 DEATH compbiomed-unito_T1c_M6_ME-GBSA-269
0xfd2e06a25a21d1558c6bd8fdfa1d5b6f 3.73356454495447e-05 206 DEATH compbiomed-unito_T1c_M6_ME-GBSA-269
0xd27138ac1133341363af73b557e744f5 3.655610558078637e-05 207 DEATH compbiomed-unito_T1c_M6_ME-GBSA-269
0xf188774bc59c58292edda7342dde3a3a 3.5070893438356556e-05 208 DEATH compbiomed-unito_T1c_M6_ME-GBSA-269
0xef1713560b9daaa3e34cb59dd8037f2f 3.479623650305232e-05 209 DEATH compbiomed-unito_T1c_M6_ME-GBSA-269
0xe1f9255fd859bedca208a17db00b5737 3.409847554296817e-05 210 DEATH compbiomed-unito_T1c_M6_ME-GBSA-269
0xfe575fd2cf4dc619ebd32287145eea83 3.393105581911694e-05 211 DEATH compbiomed-unito_T1c_M6_ME-GBSA-269
0xca70bebf5900a008bd4c269f73786bb9 3.188417505692504e-05 212 DEATH compbiomed-unito_T1c_M6_ME-GBSA-269
0xd74b09cba6eae315293ad458e6bcc9f2 3.1544999048550696e-05 213 DEATH compbiomed-unito_T1c_M6_ME-GBSA-269
0xe5a7736524fb5fcf98c1aef549cab227 3.0569210440393374e-05 214 DEATH compbiomed-unito_T1c_M6_ME-GBSA-269
0xea0eff4909b5dd55afbef60ffb4e3101 2.9502382970886242e-05 215 DEATH compbiomed-unito_T1c_M6_ME-GBSA-269
0xd41a3ee089ce64b7aab7b3f5ff2b08a6 2.767243016544111e-05 216 DEATH compbiomed-unito_T1c_M6_ME-GBSA-269
0xfbac1c67b95ce1057128c431a2cdee75 2.59269606701298e-05 217 DEATH compbiomed-unito_T1c_M6_ME-GBSA-269
0xf99cf8d8fb1425bd6599947341f2c0a3 2.5862613665256022e-05 218 DEATH compbiomed-unito_T1c_M6_ME-GBSA-269
0xe97dee51285e88b33b4c0761066df1e 2.5804528983531704e-05 219 DEATH compbiomed-unito_T1c_M6_ME-GBSA-269
0xdb66fea36c893712201bde1649b162fe 2.333470643712947e-05 220 DEATH compbiomed-unito_T1c_M6_ME-GBSA-269
0xd987b922e81f9eaeebb9a09c2bfa0e30 2.3135588193885096e-05 221 DEATH compbiomed-unito_T1c_M6_ME-GBSA-269
0xf833a171c98fd18777becac7328377e5 2.158470515924963e-05 222 DEATH compbiomed-unito_T1c_M6_ME-GBSA-269
0xd6f42694625c79b8219804527461c42 2.157725391264896e-05 223 DEATH compbiomed-unito_T1c_M6_ME-GBSA-269
0xf94bb7a20ca8cb7706f518420785d5e0 2.0429135902554523e-05 224 DEATH compbiomed-unito_T1c_M6_ME-GBSA-269
0xf3f096ee783aa5fd0723a87fb8bc12be 1.9892234832183818e-05 225 DEATH compbiomed-unito_T1c_M6_ME-GBSA-269
0xd5c337472199810ecb872821d9788346 1.9704524486384655e-05 226 DEATH compbiomed-unito_T1c_M6_ME-GBSA-269
0xeb98c8fbd6d496d367e7e63250ff829 1.9182790432325777e-05 227 DEATH compbiomed-unito_T1c_M6_ME-GBSA-269
0xd27701d9404e65f294879671f8969a3a 1.8469071687381426e-05 228 DEATH compbiomed-unito_T1c_M6_ME-GBSA-269
0xff276b491e7bb2978e2c140930ef3fce 1.8350371117635157e-05 229 DEATH compbiomed-unito_T1c_M6_ME-GBSA-269
0xce895e32981f982d9e5aba4ace424836 1.7073344022023275e-05 230 DEATH compbiomed-unito_T1c_M6_ME-GBSA-269
0xdddf585b28242c749d927d5be4bc1301 1.6434620468072468e-05 231 DEATH compbiomed-unito_T1c_M6_ME-GBSA-269
0xd47e5fd14b1f26a916ed2808c6cb0dc2 1.6411723202399848e-05 232 DEATH compbiomed-unito_T1c_M6_ME-GBSA-269
0xd36c161f1116c89d7b96cd22a3c72459 1.5721039215076523e-05 233 DEATH compbiomed-unito_T1c_M6_ME-GBSA-269
0xcb92d5403ec72f39bd2452d25cb19656 1.5646644799180106e-05 234 DEATH compbiomed-unito_T1c_M6_ME-GBSA-269
0xdf77d399fe527cf039cdaf28269c5aa5 1.5633426265529328e-05 235 DEATH compbiomed-unito_T1c_M6_ME-GBSA-269
0xf280278b67e8710e087249dad21da735 1.4849848333923625e-05 236 DEATH compbiomed-unito_T1c_M6_ME-GBSA-269
0xda3cd952705fe75d00d50ca811b8db7 1.3669001875914679e-05 237 DEATH compbiomed-unito_T1c_M6_ME-GBSA-269
0xcddf70765fbf01a610028e885ff0ed57 1.324772553577614e-05 238 DEATH compbiomed-unito_T1c_M6_ME-GBSA-269
0xd918b145d162d1179dd34d36f51be722 1.2873197223131547e-05 239 DEATH compbiomed-unito_T1c_M6_ME-GBSA-269
0xe0020cb9777c4cfa55a538a0b30bb4fb 1.2528313226510258e-05 240 DEATH compbiomed-unito_T1c_M6_ME-GBSA-269
0xebae5bb4a98b834864213f16f917dc69 1.2495750900786054e-05 241 DEATH compbiomed-unito_T1c_M6_ME-GBSA-269
0xdca93142c5222da1fe22972387e81d8d 1.1893781655169416e-05 242 DEATH compbiomed-unito_T1c_M6_ME-GBSA-269
0xd39cb0c000c1454b265e9d35eff7b351 1.174130005676227e-05 243 DEATH compbiomed-unito_T1c_M6_ME-GBSA-269
0xeca63b2021a883ab075f46cf5d0c0c4c 1.133176330486494e-05 244 DEATH compbiomed-unito_T1c_M6_ME-GBSA-269
0xdf89ee61d738c89777ac8917091d7b5f 1.0350478375039238e-05 245 DEATH compbiomed-unito_T1c_M6_ME-GBSA-269
0xfdeac27ee0e72aca88b427bb87909368 9.468240571423105e-06 246 DEATH compbiomed-unito_T1c_M6_ME-GBSA-269
0xfdc48e7bc026e1057eac3f2461cdccdc 9.423835373957931e-06 247 DEATH compbiomed-unito_T1c_M6_ME-GBSA-269
0xd0c0c32aac515e84075e95bc5cf59b0f 9.158835027922672e-06 248 DEATH compbiomed-unito_T1c_M6_ME-GBSA-269
0xf9a50982020767a3819aef62ef7cf85a 8.929757179722319e-06 249 DEATH compbiomed-unito_T1c_M6_ME-GBSA-269
0xea6ee484c00cfac85c2b41b32ec3945b 8.741765664563938e-06 250 DEATH compbiomed-unito_T1c_M6_ME-GBSA-269
0xef2d65a03b94ad521ce01a01902cddbc 8.678677308680196e-06 251 DEATH compbiomed-unito_T1c_M6_ME-GBSA-269
0xdaac19ce7fb25ca7da5241ef8e13a995 8.631158006266385e-06 252 DEATH compbiomed-unito_T1c_M6_ME-GBSA-269
0xe18c99ff5b5c6cab7d196a80b58cac43 8.422289962335259e-06 253 DEATH compbiomed-unito_T1c_M6_ME-GBSA-269
0xeb8326312cceeb12d9960732cf4f5155 8.163154176091346e-06 254 DEATH compbiomed-unito_T1c_M6_ME-GBSA-269
0xcae2a45cf7fbe6869c270a4a98ffdd7f 7.752319467705306e-06 255 DEATH compbiomed-unito_T1c_M6_ME-GBSA-269
0xcbe5c397bc559de15654725ce6f473fd 7.668817347963015e-06 256 DEATH compbiomed-unito_T1c_M6_ME-GBSA-269
0xfeee1b962c83164cd24885a790f8f1cf 7.66778352621607e-06 257 DEATH compbiomed-unito_T1c_M6_ME-GBSA-269
0xe24abba1dbd4bf308cc5c3edd30f3aaf 7.497954299934661e-06 258 DEATH compbiomed-unito_T1c_M6_ME-GBSA-269
0xfbc694fefaa0cd13396b8dc271863e35 7.227128835761557e-06 259 DEATH compbiomed-unito_T1c_M6_ME-GBSA-269
0xd756384a94be6177659d1c36c1096aa4 7.215038379255185e-06 260 DEATH compbiomed-unito_T1c_M6_ME-GBSA-269
0xd333c66f71dcbce577612ecbfdaac2a8 6.920080539701066e-06 261 DEATH compbiomed-unito_T1c_M6_ME-GBSA-269
0xf213112adb4999d5a440d900a689fb5b 6.865653011173032e-06 262 DEATH compbiomed-unito_T1c_M6_ME-GBSA-269
0xf2e4385cd98a2ef4b84b251b38f66b36 6.8079016716705285e-06 263 DEATH compbiomed-unito_T1c_M6_ME-GBSA-269
0xced4fcea0fec8a743c479bce1bce3ca6 6.7638776594591115e-06 264 DEATH compbiomed-unito_T1c_M6_ME-GBSA-269
0xce9ae81fe0bd49bcaa96eb67d3715455 6.647685397588926e-06 265 DEATH compbiomed-unito_T1c_M6_ME-GBSA-269
0xf8240b7302429c49504a9230ce6a5428 6.474176779799984e-06 266 DEATH compbiomed-unito_T1c_M6_ME-GBSA-269
0xd6ceb97d4ad0065684a61fa954b61398 6.2133893612609695e-06 267 DEATH compbiomed-unito_T1c_M6_ME-GBSA-269
0xd2117522df5b7e50c1495e661a655df1 6.146358864709512e-06 268 DEATH compbiomed-unito_T1c_M6_ME-GBSA-269
0xf38fdc686f3ccffbeb4d8cf31d935f5d 5.668849525331306e-06 269 DEATH compbiomed-unito_T1c_M6_ME-GBSA-269
0xd718fbf5e5448b16ffb18ccaf30f844a 4.916631592926522e-06 270 DEATH compbiomed-unito_T1c_M6_ME-GBSA-269
0xccc6a0bdee2c8e1c6f6ca2e0e9fee8ed 4.736565842861998e-06 271 DEATH compbiomed-unito_T1c_M6_ME-GBSA-269
0xca23e24556475bbc742f37df9b4dacfc 4.631603602672635e-06 272 DEATH compbiomed-unito_T1c_M6_ME-GBSA-269
0xff0634b3f2b17fafdea8696089231df 4.343436811728013e-06 273 DEATH compbiomed-unito_T1c_M6_ME-GBSA-269
0xe4fdcdd2a4c1d58debdf622a8b7c786 4.171606895618493e-06 274 DEATH compbiomed-unito_T1c_M6_ME-GBSA-269
0xed33bc879bc2074ac2e72632e9505f81 4.110813074598881e-06 275 DEATH compbiomed-unito_T1c_M6_ME-GBSA-269
0xe561d548069a6f943e73d3242b6ad1e 4.0850457211261994e-06 276 DEATH compbiomed-unito_T1c_M6_ME-GBSA-269
0xe2da7898817d9475a66b89d99b0a6e12 4.052431692226178e-06 277 DEATH compbiomed-unito_T1c_M6_ME-GBSA-269
0xfd1d5c688d32c592344c0b477526d572 3.6369028363050407e-06 278 DEATH compbiomed-unito_T1c_M6_ME-GBSA-269
0xf10d4ea92d3f8bd97a8e97335420ec9d 3.596401483521176e-06 279 DEATH compbiomed-unito_T1c_M6_ME-GBSA-269
0xdd0862a04c30e83bb0603190b7f66f4e 3.34903327688734e-06 280 DEATH compbiomed-unito_T1c_M6_ME-GBSA-269
0xee954eee6763a75b49356fd60400df96 3.3049466745520254e-06 281 DEATH compbiomed-unito_T1c_M6_ME-GBSA-269
0xee8bfccacb125b541b17fdc2464757cc 3.15747011896197e-06 282 DEATH compbiomed-unito_T1c_M6_ME-GBSA-269
0xd3e2b55ee0fd70cac3252cd2c6bce690 2.9112962025928976e-06 283 DEATH compbiomed-unito_T1c_M6_ME-GBSA-269
0xe936c1effb682d71174c5873419f7029 2.7840808553419377e-06 284 DEATH compbiomed-unito_T1c_M6_ME-GBSA-269
0xccc8903f7f9f34d9df438d36b205cdc4 2.621659621645651e-06 285 DEATH compbiomed-unito_T1c_M6_ME-GBSA-269
0xde3ebb711c6d4dd2fc6aaed819e56904 2.4694761274279157e-06 286 DEATH compbiomed-unito_T1c_M6_ME-GBSA-269
0xec869599b2d2828d526ab101d0aca22 2.3256635805832784e-06 287 DEATH compbiomed-unito_T1c_M6_ME-GBSA-269
0xd675843b3b012885484e0637ea0333f8 2.1978707609955093e-06 288 DEATH compbiomed-unito_T1c_M6_ME-GBSA-269
0xda6be9a63492d9182cb0e1ba803a99f3 2.1584237318618964e-06 289 DEATH compbiomed-unito_T1c_M6_ME-GBSA-269
0xe7bbea70b46ca3563c52cf93d7f77e6e 2.0319399467743688e-06 290 DEATH compbiomed-unito_T1c_M6_ME-GBSA-269
0xe75b0b6e1f9037b4c31a1752618e81b5 2.00490471727447e-06 291 DEATH compbiomed-unito_T1c_M6_ME-GBSA-269
0xd5ffba53ba5ea58fbb117bc716014e12 1.9824178602102364e-06 292 DEATH compbiomed-unito_T1c_M6_ME-GBSA-269
0xed10665bf8c36beb50f95ea6199c0017 1.9732012370202324e-06 293 DEATH compbiomed-unito_T1c_M6_ME-GBSA-269
0xeac9347ec35cb5dc7bb8c79a03b92c33 1.9702651679955928e-06 294 DEATH compbiomed-unito_T1c_M6_ME-GBSA-269
0xdebc17bef1084afcb99a1e691bc29ae 1.96804642999445e-06 295 DEATH compbiomed-unito_T1c_M6_ME-GBSA-269
0xdb5f9c198ddfc05cebd57e05ce1f65b0 1.9083025594180888e-06 296 DEATH compbiomed-unito_T1c_M6_ME-GBSA-269
0xde3661c7ed3dc0a21a37fc693b75b963 1.7875472384064056e-06 297 DEATH compbiomed-unito_T1c_M6_ME-GBSA-269
0xd4b363ca424fcb5495c55e256d228dcf 1.785539113762636e-06 298 DEATH compbiomed-unito_T1c_M6_ME-GBSA-269
0xfffd8c023601dac0ce9b21ab226b8a3d 1.785539113762636e-06 299 DEATH compbiomed-unito_T1c_M6_ME-GBSA-269
0xd944807f0027bf43b7786e4bd9b8e9ef 1.744934224086652e-06 300 DEATH compbiomed-unito_T1c_M6_ME-GBSA-269
0xfb6b11f879e8c94bc40e422f9219b39a 1.682843133286881e-06 301 DEATH compbiomed-unito_T1c_M6_ME-GBSA-269
0xf5f92fa359184bb3bc4128daa09ad096 1.6823714897275124e-06 302 DEATH compbiomed-unito_T1c_M6_ME-GBSA-269
0xe1b521e5c1ba0a32f7c946d8e6e45785 1.6111904782585237e-06 303 DEATH compbiomed-unito_T1c_M6_ME-GBSA-269
0xfaf00e55746069b29728118912287df5 1.5998103833640575e-06 304 DEATH compbiomed-unito_T1c_M6_ME-GBSA-269
0xe5503eff502e4079eeb7b70a8e81624f 1.4625754257864443e-06 305 DEATH compbiomed-unito_T1c_M6_ME-GBSA-269
0xcea28218baea20cfc121f8055282113f 1.4150541084816428e-06 306 DEATH compbiomed-unito_T1c_M6_ME-GBSA-269
0xefbd105005fbd4c913e67f1e04cea00b 1.3153185757270286e-06 307 DEATH compbiomed-unito_T1c_M6_ME-GBSA-269
0xff7def9ae79d9c965bf2ab55a63ab030 1.301247128821454e-06 308 DEATH compbiomed-unito_T1c_M6_ME-GBSA-269
0xec8f4f8e33c61d083b87631e1fc49471 1.2468201206789492e-06 309 DEATH compbiomed-unito_T1c_M6_ME-GBSA-269
0xf4ad456ae4633925638b9d86775112eb 1.1788915002614826e-06 310 DEATH compbiomed-unito_T1c_M6_ME-GBSA-269
0xfa9882c168e02e5b6a87757e6b6b9b22 1.0895214728402038e-06 311 DEATH compbiomed-unito_T1c_M6_ME-GBSA-269
0xd08ed43907ef30124fcdce84155aecff 9.727405259935016e-07 312 DEATH compbiomed-unito_T1c_M6_ME-GBSA-269
0xd3690d7f264d59ee3b2ebc6169757913 8.483684490624708e-07 313 DEATH compbiomed-unito_T1c_M6_ME-GBSA-269
0xdf69e78176d39a97097368c5a5ab0aba 8.3865673831878e-07 314 DEATH compbiomed-unito_T1c_M6_ME-GBSA-269
0xd5f53f8c1c47ccaa895aaf51ced0e80a 8.176310088022557e-07 315 DEATH compbiomed-unito_T1c_M6_ME-GBSA-269
0xe2459ee8b4c7c07a0c3186049b3e1d43 8.095514320190687e-07 316 DEATH compbiomed-unito_T1c_M6_ME-GBSA-269
0xf2a2ce275115e111ae5a22ad3429026c 7.891337788897697e-07 317 DEATH compbiomed-unito_T1c_M6_ME-GBSA-269
0xdc103e9d0b714bbf9039509839a33d58 7.821199838865546e-07 318 DEATH compbiomed-unito_T1c_M6_ME-GBSA-269
0xed67617d0fa4e6715aeb4bb060397e9a 7.777690800051209e-07 319 DEATH compbiomed-unito_T1c_M6_ME-GBSA-269
0xcf55f54f88796ec3794c9ff00efb027b 7.376849334276299e-07 320 DEATH compbiomed-unito_T1c_M6_ME-GBSA-269
0xd31520068ec294753fb4be6f9fb8ae35 7.236050197763558e-07 321 DEATH compbiomed-unito_T1c_M6_ME-GBSA-269
0xfdb6f07f84bc999d042f37dc3450856e 7.100589046046461e-07 322 DEATH compbiomed-unito_T1c_M6_ME-GBSA-269
0xea7bc1be9d79fce7043d34eee9eb3fb 7.0594862598947e-07 323 DEATH compbiomed-unito_T1c_M6_ME-GBSA-269
0xef586cf6bff28e51a5fa24ecfd7ddf76 6.959932838839297e-07 324 DEATH compbiomed-unito_T1c_M6_ME-GBSA-269
0xd6863d328e70d290894ca386305b1b0a 6.634498187939652e-07 325 DEATH compbiomed-unito_T1c_M6_ME-GBSA-269
0xca872759930080e621030d72b91eaa3a 6.412565144252841e-07 326 DEATH compbiomed-unito_T1c_M6_ME-GBSA-269
0xfd393a5687cc418359d4af8ce52fb04 6.166974413848966e-07 327 DEATH compbiomed-unito_T1c_M6_ME-GBSA-269
0xfd1b9d000bab595412ab90d849c98927 5.776877427661424e-07 328 DEATH compbiomed-unito_T1c_M6_ME-GBSA-269
0xe3741364e8202994126d8ec536af456 5.766909547320339e-07 329 DEATH compbiomed-unito_T1c_M6_ME-GBSA-269
0xcb1cddfe56f7600981762572ef3a5160 5.610538928832833e-07 330 DEATH compbiomed-unito_T1c_M6_ME-GBSA-269
0xca54158bee84393d9cb9b564c247c280 5.460032779075313e-07 331 DEATH compbiomed-unito_T1c_M6_ME-GBSA-269
0xf37c5fe1faef6a4d71371899ffeb72a8 4.5648729643084375e-07 332 DEATH compbiomed-unito_T1c_M6_ME-GBSA-269
0xe5c549844deda60cee96d67026b28ca7 4.416023555981397e-07 333 DEATH compbiomed-unito_T1c_M6_ME-GBSA-269
0xec78b838a78beb8f98adeacf43c3d646 4.088457208365394e-07 334 DEATH compbiomed-unito_T1c_M6_ME-GBSA-269
0xcfc44323cbf71cf449d6fd693663bc9b 4.0593379201794596e-07 335 DEATH compbiomed-unito_T1c_M6_ME-GBSA-269
0xf82812ebdea85ea1aa475f6a802c819b 3.949778290330106e-07 336 DEATH compbiomed-unito_T1c_M6_ME-GBSA-269
0xf44e148c018f050d4bb41962d37da746 3.619967886438805e-07 337 DEATH compbiomed-unito_T1c_M6_ME-GBSA-269
0xf9079405694f19b4849f68c05e06e474 3.537702301367457e-07 338 DEATH compbiomed-unito_T1c_M6_ME-GBSA-269
0xe60673d48d2ab455e24ddd8782f542 3.450064872355879e-07 339 DEATH compbiomed-unito_T1c_M6_ME-GBSA-269
0xe9198c51686e6b6214bdb714eaf10a2e 3.303269067856113e-07 340 DEATH compbiomed-unito_T1c_M6_ME-GBSA-269
0xf9bbabe811e269d8cf2be964e07594bc 3.2986044261687105e-07 341 DEATH compbiomed-unito_T1c_M6_ME-GBSA-269
0xdea18430383df9271f5f954a1d7aa89f 3.259850589430302e-07 342 DEATH compbiomed-unito_T1c_M6_ME-GBSA-269
0xf61e73ba8eb74ccfd07eee98cc7a8a55 3.2069779656630167e-07 343 DEATH compbiomed-unito_T1c_M6_ME-GBSA-269
0xec63a43004d49655727a77cf1907da9b 3.2003547508072086e-07 344 DEATH compbiomed-unito_T1c_M6_ME-GBSA-269
0xd3b7c5fb0c510b91174df4e6ba01f066 2.969478480990538e-07 345 DEATH compbiomed-unito_T1c_M6_ME-GBSA-269
0xf9520b99fe784fd0a89627834db4ac60 2.8614187415447e-07 346 DEATH compbiomed-unito_T1c_M6_ME-GBSA-269
0xd5792dfdb345bdca74578a5dd7e9c0fc 2.859284529010483e-07 347 DEATH compbiomed-unito_T1c_M6_ME-GBSA-269
0xd4d10cf490061439735b63ce33997c14 2.846527964056323e-07 348 DEATH compbiomed-unito_T1c_M6_ME-GBSA-269
0xe2bcb1edb8f34ed00792515d9e8f45a4 2.8336893603063346e-07 349 DEATH compbiomed-unito_T1c_M6_ME-GBSA-269
0xce7ac190b444a9100c60b9f00b6737d 2.615997366117323e-07 350 DEATH compbiomed-unito_T1c_M6_ME-GBSA-269
0xd244a1f9c20c3f18776c0091e4a2f1 2.574147611386122e-07 351 DEATH compbiomed-unito_T1c_M6_ME-GBSA-269
0xf8dc68d9a1c5c169583ca3d4dfa5c214 2.496135335651838e-07 352 DEATH compbiomed-unito_T1c_M6_ME-GBSA-269
0xfba93d2e1f10b9e61d390fd5859a056a 2.2737444453056228e-07 353 DEATH compbiomed-unito_T1c_M6_ME-GBSA-269
0xce2e410507d55ec95d2103150428015f 2.233832745365368e-07 354 DEATH compbiomed-unito_T1c_M6_ME-GBSA-269
0xebe2c7d10de4b1f1a07007d80a59fece 2.2107835371140593e-07 355 DEATH compbiomed-unito_T1c_M6_ME-GBSA-269
0xf53b3ecfaf3cf0310b8679cb9332c1d 2.2060299319631646e-07 356 DEATH compbiomed-unito_T1c_M6_ME-GBSA-269
0xde517225b56631a6ed23488cfb0d4a54 2.1034444355090656e-07 357 DEATH compbiomed-unito_T1c_M6_ME-GBSA-269
0xe75da17b210d09562c2494dbe0146b54 2.051267295745691e-07 358 DEATH compbiomed-unito_T1c_M6_ME-GBSA-269
0xef030f43e22e752a9a0e914582eaa50e 2.0453483687635361e-07 359 DEATH compbiomed-unito_T1c_M6_ME-GBSA-269
0xf0cce8b217b6cece44d7c415dcc41fb0 2.005494546809822e-07 360 DEATH compbiomed-unito_T1c_M6_ME-GBSA-269
0xe6c9f4971f7d0be5178bcee41ec7ce40 1.757447978705925e-07 361 DEATH compbiomed-unito_T1c_M6_ME-GBSA-269
0xf6e75b250207b024bc7a27acf84e2ea1 1.7101334124999456e-07 362 DEATH compbiomed-unito_T1c_M6_ME-GBSA-269
0xda5c46fe14bcc02dd330b6f33d4d2b69 1.6801860452489484e-07 363 DEATH compbiomed-unito_T1c_M6_ME-GBSA-269
0xe7e58da752f329f4c502a1e99da9163e 1.6769558514173452e-07 364 DEATH compbiomed-unito_T1c_M6_ME-GBSA-269
0xf45f2136fc41ad2a85fd11aa40df27c5 1.6597192660398354e-07 365 DEATH compbiomed-unito_T1c_M6_ME-GBSA-269
0xf648b61ecd9ef2453a2e443d2ba184b3 1.5346803596862522e-07 366 DEATH compbiomed-unito_T1c_M6_ME-GBSA-269
0xfca94c4f6ab5f79eaf0b7651c88e810b 1.3810571123715222e-07 367 DEATH compbiomed-unito_T1c_M6_ME-GBSA-269
0xe9e31c6c3df4f0fb15ebe7c24b555e85 1.2595328946072674e-07 368 DEATH compbiomed-unito_T1c_M6_ME-GBSA-269
0xdc95cdc9b3e1d6708a767449fa13ae6e 1.2483501290581442e-07 369 DEATH compbiomed-unito_T1c_M6_ME-GBSA-269
0xe98b50fd5e1b71343db2db67b7e4b499 1.1816317741417905e-07 370 DEATH compbiomed-unito_T1c_M6_ME-GBSA-269
0xf0f77e6f043c61c37cf0e7c3d0e3c754 1.0818413973419165e-07 371 DEATH compbiomed-unito_T1c_M6_ME-GBSA-269
0xeaed8517edbbb934b65bb5ada72c4326 1.0523158534920441e-07 372 DEATH compbiomed-unito_T1c_M6_ME-GBSA-269
0xd3eeae39e8592e4bc68736b593804ae0 1.0423211804732058e-07 373 DEATH compbiomed-unito_T1c_M6_ME-GBSA-269
0xe9232b72bd6ea6c9e228c57744a7fc39 1.0340446463410253e-07 374 DEATH compbiomed-unito_T1c_M6_ME-GBSA-269
0xd812ab30e47bb673fca4238f569e43fc 9.524580637099236e-08 375 DEATH compbiomed-unito_T1c_M6_ME-GBSA-269
0xef8a3804eb6d65718f090a1fd1cb1cfb 8.996178743141814e-08 376 DEATH compbiomed-unito_T1c_M6_ME-GBSA-269
0xf739a7606c240c989e91c7f80684264d 8.922132990636619e-08 377 DEATH compbiomed-unito_T1c_M6_ME-GBSA-269
0xd699c91c0883d77bc456636836f4757c 8.773053740618426e-08 378 DEATH compbiomed-unito_T1c_M6_ME-GBSA-269
0xcd3583d156c165ef5eb313099f58965d 8.687555381437658e-08 379 DEATH compbiomed-unito_T1c_M6_ME-GBSA-269
0xcca053eb67d949b9e81f731aea923a97 8.622008727973006e-08 380 DEATH compbiomed-unito_T1c_M6_ME-GBSA-269
0xf2d107e07b799de2b3691edc490fcdee 8.129954824057421e-08 381 DEATH compbiomed-unito_T1c_M6_ME-GBSA-269
0xfd825cb486e59a2700e5da7ce967f6a4 7.912708198453794e-08 382 DEATH compbiomed-unito_T1c_M6_ME-GBSA-269
0xd2b30a43f8fb2fdf2541ce2b52411751 7.731850990910187e-08 383 DEATH compbiomed-unito_T1c_M6_ME-GBSA-269
0xd19afb26224fd08b3397eda11712295c 7.704574744714906e-08 384 DEATH compbiomed-unito_T1c_M6_ME-GBSA-269
0xd5eb540595f0135ed7b2c9c3d36f4940 7.619187737954932e-08 385 DEATH compbiomed-unito_T1c_M6_ME-GBSA-269
0xf8f2dec4be3bc8d3dc2a48831dd912be 6.679291272525344e-08 386 DEATH compbiomed-unito_T1c_M6_ME-GBSA-269
0xca65054cf38c80ad985fedf1060d34da 5.552537199833191e-08 387 DEATH compbiomed-unito_T1c_M6_ME-GBSA-269
0xcc2e997f6e56c86b5f5738abb6fd9176 5.4806729594989174e-08 388 DEATH compbiomed-unito_T1c_M6_ME-GBSA-269
0xd73f9466b0c710dde7c345775f14b3be 5.1369368755876797e-08 389 DEATH compbiomed-unito_T1c_M6_ME-GBSA-269
0xd5edb5ec1169f1a5c865ae83f0af14e8 4.682708509685406e-08 390 DEATH compbiomed-unito_T1c_M6_ME-GBSA-269
0xd112ebf7115150f9fef4fef8d491b40a 4.4254041197265434e-08 391 DEATH compbiomed-unito_T1c_M6_ME-GBSA-269
0xd82e2ab264accdedf1746f2fff6aa04e 4.4130600427251814e-08 392 DEATH compbiomed-unito_T1c_M6_ME-GBSA-269
0xf4b4830578cde5e21fefe4f6af242ac7 4.305026079732338e-08 393 DEATH compbiomed-unito_T1c_M6_ME-GBSA-269
0xf018ff02e490ebf136e0462351c9995a 4.0482291514915625e-08 394 DEATH compbiomed-unito_T1c_M6_ME-GBSA-269
0xfdd6cfa13f857bca9b30dd309aa93b2d 3.688441972901832e-08 395 DEATH compbiomed-unito_T1c_M6_ME-GBSA-269
0xfd045973a91ea294e06a6e4cfb4e2266 3.6606902030713104e-08 396 DEATH compbiomed-unito_T1c_M6_ME-GBSA-269
0xca2a048cc828f5ebd2000a554301d13f 3.487262081053003e-08 397 DEATH compbiomed-unito_T1c_M6_ME-GBSA-269
0xcb30b2e0562dacba4b296226944f2c4b 3.120797335839698e-08 398 DEATH compbiomed-unito_T1c_M6_ME-GBSA-269
0xe8885be345a04b02b8a8086f9859e0ba 3.061552138296676e-08 399 DEATH compbiomed-unito_T1c_M6_ME-GBSA-269
0xeb9c9a12516b2404f03664d4ff99a05 2.562963775417709e-08 400 DEATH compbiomed-unito_T1c_M6_ME-GBSA-269
0xedaa4967a674ca7d995883be598a1a5c 2.5050623774599417e-08 401 DEATH compbiomed-unito_T1c_M6_ME-GBSA-269
0xdd5e2c8f8a84304f9f8357bff5b5d42e 2.0593602579113886e-08 402 DEATH compbiomed-unito_T1c_M6_ME-GBSA-269
0xd49caf56339d1ef045ea7e03950039d4 1.999276217190681e-08 403 DEATH compbiomed-unito_T1c_M6_ME-GBSA-269
0xfe68d3eaaab39e7ec05260e9f6f3b594 1.9519881196561245e-08 404 DEATH compbiomed-unito_T1c_M6_ME-GBSA-269
0xcdb71c2bc002940b26e821531346fea6 1.8123346758071906e-08 405 DEATH compbiomed-unito_T1c_M6_ME-GBSA-269
0xf2487b792a8cb59a0f5c7db06196110c 1.7893052902333422e-08 406 DEATH compbiomed-unito_T1c_M6_ME-GBSA-269
0xd09c40ceeeb040913893df79e296559 1.7773614971275727e-08 407 DEATH compbiomed-unito_T1c_M6_ME-GBSA-269
0xfe27d56439d608304d62e96402d693ad 1.677599747067524e-08 408 DEATH compbiomed-unito_T1c_M6_ME-GBSA-269
0xd581144148304667e66df70e8913f154 1.664847825159495e-08 409 DEATH compbiomed-unito_T1c_M6_ME-GBSA-269
0xcca82b41a632f3e9a4388950162a75cd 1.6586979225190573e-08 410 DEATH compbiomed-unito_T1c_M6_ME-GBSA-269
0xe3571e398dc254de7638a7937035be70 1.4138079590669622e-08 411 DEATH compbiomed-unito_T1c_M6_ME-GBSA-269
0xfcd62abf3423c170425d2a1c3c2eeb9 1.4053928129407334e-08 412 DEATH compbiomed-unito_T1c_M6_ME-GBSA-269
0xfbc8eb23a6ec1008a7c9d1ffebdf5f58 1.3963327124380597e-08 413 DEATH compbiomed-unito_T1c_M6_ME-GBSA-269
0xda04f2d9de35c2c9ede44c4d0b936626 1.1429190344132032e-08 414 DEATH compbiomed-unito_T1c_M6_ME-GBSA-269
0xec0916bb33028ec2d073de8f7d9b72c9 1.1238689331676558e-08 415 DEATH compbiomed-unito_T1c_M6_ME-GBSA-269
0xf09ebd675a83f3afcaaf4e64977c3b1a 1.1107815579874221e-08 416 DEATH compbiomed-unito_T1c_M6_ME-GBSA-269
0xebb8cde3b65772cb963be4146bf426e5 1.0226758297529974e-08 417 DEATH compbiomed-unito_T1c_M6_ME-GBSA-269
0xde5560cc3800f3797a36528b728b9b6f 1.0179787622754502e-08 418 DEATH compbiomed-unito_T1c_M6_ME-GBSA-269
0xd9f5dd90d4a81a83ecea564806ce241b 9.921804591835848e-09 419 DEATH compbiomed-unito_T1c_M6_ME-GBSA-269
0xfd6cee8f40454120ee09c9fed24bcee1 9.456435322363546e-09 420 DEATH compbiomed-unito_T1c_M6_ME-GBSA-269
0xfc4fc92c9512e0a9fd0658b0ae42c093 6.224108538602907e-09 421 DEATH compbiomed-unito_T1c_M6_ME-GBSA-269
0xf25577a5c837f2571b84329ad66e0141 5.387176169526057e-09 422 DEATH compbiomed-unito_T1c_M6_ME-GBSA-269
0xe22e327df9138504c3ee7484a3f1dd9d 5.272845406096752e-09 423 DEATH compbiomed-unito_T1c_M6_ME-GBSA-269
0xf81866bdc8527ad3c31b8c3f120799a1 4.9516830419828515e-09 424 DEATH compbiomed-unito_T1c_M6_ME-GBSA-269
0xd066b9335c8265ae4ca035e11e6c53d5 4.8310807793093795e-09 425 DEATH compbiomed-unito_T1c_M6_ME-GBSA-269
0xf842e0468ca5476e1ba6c4045602bff4 4.658979497691748e-09 426 DEATH compbiomed-unito_T1c_M6_ME-GBSA-269
0xd935049213ea4ab7213df4ba9d0011bc 4.566480827005721e-09 427 DEATH compbiomed-unito_T1c_M6_ME-GBSA-269
0xf1857c0071ce51fa75db9c0ccd92b34a 4.5372116222569e-09 428 DEATH compbiomed-unito_T1c_M6_ME-GBSA-269
0xd9ce87a4ce5b4b7068a7718a2b6d70a8 4.511890167167725e-09 429 DEATH compbiomed-unito_T1c_M6_ME-GBSA-269
0xcf1c0a3f75991383513ef134ef40d961 4.334298466365765e-09 430 DEATH compbiomed-unito_T1c_M6_ME-GBSA-269
0xdeb42eb3e20ddcab47803195d2e8dd9 4.269772081585153e-09 431 DEATH compbiomed-unito_T1c_M6_ME-GBSA-269
0xe50e1671eae00837186f48081823f6a 3.850718457899607e-09 432 DEATH compbiomed-unito_T1c_M6_ME-GBSA-269
0xfb9b007e9edd75c26a83395469cff112 3.842335571633388e-09 433 DEATH compbiomed-unito_T1c_M6_ME-GBSA-269
0xe6aaabecc286c2da050879aacc52273 3.4760588114107958e-09 434 DEATH compbiomed-unito_T1c_M6_ME-GBSA-269
0xf950685edb82c4ec4f7a08666017a011 3.3616367584675222e-09 435 DEATH compbiomed-unito_T1c_M6_ME-GBSA-269
0xe47aab7184db16d2565593d71df14757 3.0621904506005715e-09 436 DEATH compbiomed-unito_T1c_M6_ME-GBSA-269
0xd5bd3c39db0ea9ec7fe864c579a8564a 3.017637903557297e-09 437 DEATH compbiomed-unito_T1c_M6_ME-GBSA-269
0xda807cd4f873161d3d7e48c2af27764c 2.7747639344246887e-09 438 DEATH compbiomed-unito_T1c_M6_ME-GBSA-269
0xdd97a1c26fa0eb26748f253bbd060287 2.629234522753559e-09 439 DEATH compbiomed-unito_T1c_M6_ME-GBSA-269
0xf9a0baa40a5828cc4eb1e2c2e2381da2 2.5182633308244403e-09 440 DEATH compbiomed-unito_T1c_M6_ME-GBSA-269
0xfcaf34ef7b81ea5ab2a3ab42a06f57b8 2.4723351087177614e-09 441 DEATH compbiomed-unito_T1c_M6_ME-GBSA-269
0xfbfc24fa1e8e50a389841a14774debee 2.0962507736404847e-09 442 DEATH compbiomed-unito_T1c_M6_ME-GBSA-269
0xd027b421b5e34a676855471f7f017fe 1.847306574976198e-09 443 DEATH compbiomed-unito_T1c_M6_ME-GBSA-269
0xfed3fdca580330c527c11e25d1bfff5 1.8472413017965003e-09 444 DEATH compbiomed-unito_T1c_M6_ME-GBSA-269
0xf22dbd73e845b2d27907e07de22d7c29 1.822114752761322e-09 445 DEATH compbiomed-unito_T1c_M6_ME-GBSA-269
0xe0b8838933d9689cf370722b5475b6b2 1.8139718945042452e-09 446 DEATH compbiomed-unito_T1c_M6_ME-GBSA-269
0xdfd617655582234cf254aa4a1f8a54c2 1.8015931911525926e-09 447 DEATH compbiomed-unito_T1c_M6_ME-GBSA-269
0xed0929b7fd7230de56f15b1497383e77 1.7460360530264064e-09 448 DEATH compbiomed-unito_T1c_M6_ME-GBSA-269
0xf97f3c95956730a68e1fe95cd9e451a2 1.5521889288492383e-09 449 DEATH compbiomed-unito_T1c_M6_ME-GBSA-269
0xd6619d152577d2686281f82eeb8dd69d 1.5321200159891073e-09 450 DEATH compbiomed-unito_T1c_M6_ME-GBSA-269
0xe9552678c63ee3b6c313766e97753dbc 1.1593460721215311e-09 451 DEATH compbiomed-unito_T1c_M6_ME-GBSA-269
0xe059f63a710ae8a31beab3c6eb897775 9.794911278304527e-10 452 DEATH compbiomed-unito_T1c_M6_ME-GBSA-269
0xf766abd56d68ad3f98a669e428314623 8.355354248009938e-10 453 DEATH compbiomed-unito_T1c_M6_ME-GBSA-269
0xe6899e5673718dd10ace49ea67eb434b 8.085853893045611e-10 454 DEATH compbiomed-unito_T1c_M6_ME-GBSA-269
0xe427d2e116a2eb36221ba20ae7d44e4b 7.907660799802877e-10 455 DEATH compbiomed-unito_T1c_M6_ME-GBSA-269
0xfecb6f4ce1d71a01be44131645701abb 7.634987753091085e-10 456 DEATH compbiomed-unito_T1c_M6_ME-GBSA-269
0xca4c63706241452e87804f29621c5f01 5.644728987768471e-10 457 DEATH compbiomed-unito_T1c_M6_ME-GBSA-269
0xdcf3911b063dd9046757764fce68259d 5.534036846726709e-10 458 DEATH compbiomed-unito_T1c_M6_ME-GBSA-269
0xf50bc52bad1fb3ab9d255d2b22ef09a1 4.860804216613399e-10 459 DEATH compbiomed-unito_T1c_M6_ME-GBSA-269
0xe9beee41d19d1df18d9dd63e46cb3639 3.8073275132952133e-10 460 DEATH compbiomed-unito_T1c_M6_ME-GBSA-269
0xe754c66fac138eda1909d340c552150f 3.6737280822706373e-10 461 DEATH compbiomed-unito_T1c_M6_ME-GBSA-269
0xed9f6346883b01b782874a9e1eba5cf3 3.6100517149935173e-10 462 DEATH compbiomed-unito_T1c_M6_ME-GBSA-269
0xd36718c707a259c6cad88c5b0f12bef9 2.9387024489922375e-10 463 DEATH compbiomed-unito_T1c_M6_ME-GBSA-269
0xea9b939a5421bff79ef3e8b003145a9a 2.828289657866348e-10 464 DEATH compbiomed-unito_T1c_M6_ME-GBSA-269
0xe186efe19dcf7c7050a226f1d5f304ae 1.4560316081277207e-10 465 DEATH compbiomed-unito_T1c_M6_ME-GBSA-269
0xd73350f7d616cb803f96f4f17678fd8f 1.1779132253849415e-10 466 DEATH compbiomed-unito_T1c_M6_ME-GBSA-269
0xfecb8afae7771e7ae7d8df54b515c382 9.882895260624628e-11 467 DEATH compbiomed-unito_T1c_M6_ME-GBSA-269
0xf5895fdb58c6d5fe6a2717d546c14764 9.762350417148531e-11 468 DEATH compbiomed-unito_T1c_M6_ME-GBSA-269
0xdb6d154fab2869d12355606be2b1a0a5 6.509144702421267e-11 469 DEATH compbiomed-unito_T1c_M6_ME-GBSA-269
0xdfb76e5655be6ec4c62c2cb98276aaa3 4.351435432360484e-11 470 DEATH compbiomed-unito_T1c_M6_ME-GBSA-269
0xe531418980aaa61c0b078360aa71b72e 2.819295185931066e-11 471 DEATH compbiomed-unito_T1c_M6_ME-GBSA-269
0xe47392b2331f8663812fe4c0b3a1c2b5 2.650978885390964e-11 472 DEATH compbiomed-unito_T1c_M6_ME-GBSA-269
0xdc20584b36f70c4819c9b9e7ac9b2e25 1.761113729576839e-11 473 DEATH compbiomed-unito_T1c_M6_ME-GBSA-269
0xd3761335574bf2556048bb99f96c4012 1.274012273932768e-11 474 DEATH compbiomed-unito_T1c_M6_ME-GBSA-269
0xf467dbbc2c3f8b542b86b790c5b911a2 1.173926705392851e-11 475 DEATH compbiomed-unito_T1c_M6_ME-GBSA-269
0xd1fe1f605f01206d6536e16ae78773e4 1.0988610750686148e-11 476 DEATH compbiomed-unito_T1c_M6_ME-GBSA-269
0xe68dc2738e74844599b493a91d2aaa1b 1.022037286141695e-11 477 DEATH compbiomed-unito_T1c_M6_ME-GBSA-269
0xcdf90b1c396233a6505dda507cbcd62 7.253151754507048e-12 478 DEATH compbiomed-unito_T1c_M6_ME-GBSA-269
0xfa81a092708523789aa2411a4cc59db8 6.694752150413368e-12 479 DEATH compbiomed-unito_T1c_M6_ME-GBSA-269
0xe8be87187b3a234913efaecbfd380340 5.4642788991655755e-12 480 DEATH compbiomed-unito_T1c_M6_ME-GBSA-269
0xee673c7ae2e5429e5e7d7bb8021c1f97 3.652811484922208e-12 481 DEATH compbiomed-unito_T1c_M6_ME-GBSA-269
0xde976fcdacf209af454093bc0d008a50 2.6128509189418437e-12 482 DEATH compbiomed-unito_T1c_M6_ME-GBSA-269
0xcee0d011ee4d68ba5f89822601827575 2.483625341546647e-12 483 DEATH compbiomed-unito_T1c_M6_ME-GBSA-269
0xe9eea3a099d373920d539f5c82a4a735 1.0541081841748981e-12 484 DEATH compbiomed-unito_T1c_M6_ME-GBSA-269
0xdea07ddceb79e747808204611ef914e6 4.517579527930454e-13 485 DEATH compbiomed-unito_T1c_M6_ME-GBSA-269
0xe9b435a20f9284d389e1f4a19208016d 2.879432832865349e-13 486 DEATH compbiomed-unito_T1c_M6_ME-GBSA-269
0xd54a2ea81d89a51632d04811cebeb8c3 1.5379350911688118e-13 487 DEATH compbiomed-unito_T1c_M6_ME-GBSA-269
0xd6e36dc40dc7f14d135558b882a20e01 8.871391394028397e-14 488 DEATH compbiomed-unito_T1c_M6_ME-GBSA-269
0xd0f564004cb3a9534a60631b5599c236 5.658379083703392e-14 489 DEATH compbiomed-unito_T1c_M6_ME-GBSA-269
0xe01aad010bf5a1a693431e2394b35293 5.759682332499142e-15 490 DEATH compbiomed-unito_T1c_M6_ME-GBSA-269
0xea8853b3ecfda6e662b26ae8814b3894 2.007545574795696e-15 491 DEATH compbiomed-unito_T1c_M6_ME-GBSA-269
0xf3f59173eebadd3eae124f69cbb33cfa 5.532771104842231e-16 492 DEATH compbiomed-unito_T1c_M6_ME-GBSA-269
0xe261d744e25db88b07b0a0702f5843a1 1.0779114702036188e-17 493 DEATH compbiomed-unito_T1c_M6_ME-GBSA-269
