0xd32d8b8316d08d4c934e0db5b4cbbbab 0.9316220581008743 0 DEATH compbiomed-unito_T1c_M6_survDSM
0xf5eeae64002862bbbe0cb0d1667ffa56 0.9270605641751059 1 DEATH compbiomed-unito_T1c_M6_survDSM
0xe9fba3e3fd2846481470a98032acd466 0.9105990271124981 2 DEATH compbiomed-unito_T1c_M6_survDSM
0xf0b475d1676561e20804f1194407e9b5 0.9081419342237981 3 DEATH compbiomed-unito_T1c_M6_survDSM
0xeec173e09e95045435808ae11ef6a5f5 0.9064313011519536 4 DEATH compbiomed-unito_T1c_M6_survDSM
0xefdf46113860766941eca0395f5f5a78 0.900934048883696 5 DEATH compbiomed-unito_T1c_M6_survDSM
0xf103163cba9f07e058ce756b944886c1 0.8899690852458152 6 DEATH compbiomed-unito_T1c_M6_survDSM
0xce18e04b85953352c9b6c3552b883014 0.8896323873140087 7 DEATH compbiomed-unito_T1c_M6_survDSM
0xf00d4ed29db7deec9288516fdb87da9c 0.8819297129074787 8 DEATH compbiomed-unito_T1c_M6_survDSM
0xfb46f742b267f2c6067298fce3e870cb 0.8816397100858726 9 DEATH compbiomed-unito_T1c_M6_survDSM
0xd26d82e70be8a467872b4b23cd851c3a 0.8812637494637242 10 DEATH compbiomed-unito_T1c_M6_survDSM
0xdb5a760520e0194350467f91b656a4a4 0.8801003936623496 11 DEATH compbiomed-unito_T1c_M6_survDSM
0xd0b78902dae8914c1fd91189043a86fa 0.8798762511099317 12 DEATH compbiomed-unito_T1c_M6_survDSM
0xeb7bf54305340d3d8e4f280abeb7473 0.8793183896367669 13 DEATH compbiomed-unito_T1c_M6_survDSM
0xf9cf1b69a3cac1563c0cb355d7df83c7 0.8771433996152492 14 DEATH compbiomed-unito_T1c_M6_survDSM
0xd83e16c58a38a6710258d51ef5e55c2b 0.8723758155316794 15 DEATH compbiomed-unito_T1c_M6_survDSM
0xd9322524393a875d28f0c966d84d8293 0.8693406936953028 16 DEATH compbiomed-unito_T1c_M6_survDSM
0xff800da9a7a2fc4a01db45e4e8bb9b63 0.8692824914733969 17 DEATH compbiomed-unito_T1c_M6_survDSM
0xf3db66d99e46915816ef68277c518c7b 0.8661559416318257 18 DEATH compbiomed-unito_T1c_M6_survDSM
0xcd148f06e8ec28a20a2f118fdf4adaea 0.863717175390835 19 DEATH compbiomed-unito_T1c_M6_survDSM
0xcefea2d935a9883363305f711db5fa4e 0.8558629597428941 20 DEATH compbiomed-unito_T1c_M6_survDSM
0xf58a2c4705910147789b87305c44acef 0.8557593094950781 21 DEATH compbiomed-unito_T1c_M6_survDSM
0xdc44a5f974cd0e0be3a4afa4e5934e17 0.8553733425475248 22 DEATH compbiomed-unito_T1c_M6_survDSM
0xf69395f0e9f8d7696c20d803a23345bd 0.8539990882618901 23 DEATH compbiomed-unito_T1c_M6_survDSM
0xda8ab807ad39891ba8d380eae28d7301 0.8529932308052605 24 DEATH compbiomed-unito_T1c_M6_survDSM
0xf7e5cdefcee841d2b6cc6c1e60f488a1 0.8451340002008242 25 DEATH compbiomed-unito_T1c_M6_survDSM
0xcbf7accfa3bcf16c3807619ccc352295 0.8373740525163625 26 DEATH compbiomed-unito_T1c_M6_survDSM
0xdfd6ff34ba7f6abb38fa7ae9894d4d06 0.8348176587338744 27 DEATH compbiomed-unito_T1c_M6_survDSM
0xd2a42221873cdea520585a5d5c88969f 0.8340652502661107 28 DEATH compbiomed-unito_T1c_M6_survDSM
0xf688e66f6457a8d658ff91c39e74fded 0.8315825397185307 29 DEATH compbiomed-unito_T1c_M6_survDSM
0xea09e79af31bf049776f88fb4dd6cfe2 0.8302229123466297 30 DEATH compbiomed-unito_T1c_M6_survDSM
0xd31b65ca63d9b4aa65f7c18ab924189a 0.824987662758408 31 DEATH compbiomed-unito_T1c_M6_survDSM
0xff9195ae018b73c7b70024c9dbf7c8d8 0.8195772144570483 32 DEATH compbiomed-unito_T1c_M6_survDSM
0xd5426d42d32f8b8fde9d9c98d48db81f 0.8143664895482168 33 DEATH compbiomed-unito_T1c_M6_survDSM
0xe3fe42b609b1deda32fdd589e8bc3f4d 0.8133082876308982 34 DEATH compbiomed-unito_T1c_M6_survDSM
0xfd82b366738c82f8a704f1cac062c88b 0.8108327729151815 35 DEATH compbiomed-unito_T1c_M6_survDSM
0xcbf54e3665fbe4736d191381358aa7d7 0.8103681993010979 36 DEATH compbiomed-unito_T1c_M6_survDSM
0xf34134b9e4d84f0747e1b671e7ffc77f 0.8084944003981506 37 DEATH compbiomed-unito_T1c_M6_survDSM
0xeab860b4b293424189f429e7d089d61a 0.8071985363710291 38 DEATH compbiomed-unito_T1c_M6_survDSM
0xeae8c46d82b48cc87efccde5a796cc0 0.7984861834207065 39 DEATH compbiomed-unito_T1c_M6_survDSM
0xf4fa7bd79c7b95cb9e90f1e80687dc56 0.7980209684858677 40 DEATH compbiomed-unito_T1c_M6_survDSM
0xe03eb5db3bd06ad4f2e316136029276e 0.7974838395169418 41 DEATH compbiomed-unito_T1c_M6_survDSM
0xd317b8d1717b6cde303ef3732e3cfb71 0.7913862967350251 42 DEATH compbiomed-unito_T1c_M6_survDSM
0xfbdb5a662aec0ca496557ec37f20d219 0.7899325808866918 43 DEATH compbiomed-unito_T1c_M6_survDSM
0xd56863a27c027e278d4ff20e932056e3 0.7899307114910394 44 DEATH compbiomed-unito_T1c_M6_survDSM
0xcac6a961f66514dd979095db19a0869d 0.7881907906968126 45 DEATH compbiomed-unito_T1c_M6_survDSM
0xe87724de950aa61be595c8805ea7baeb 0.785710424675773 46 DEATH compbiomed-unito_T1c_M6_survDSM
0xfd7364d0c76517b4939aed94bf9558d 0.7819426751433314 47 DEATH compbiomed-unito_T1c_M6_survDSM
0xfd6f2c6acb64a6e8b22b761c7058f8b1 0.7817463827587674 48 DEATH compbiomed-unito_T1c_M6_survDSM
0xd88837402c4e93085d4cc6f7a9c24cc1 0.7812607917081161 49 DEATH compbiomed-unito_T1c_M6_survDSM
0xf4223f279969356614e148096f0ff626 0.7791089004343134 50 DEATH compbiomed-unito_T1c_M6_survDSM
0xd99207a82b9ebf093a36d905b4104fb5 0.7765936134918311 51 DEATH compbiomed-unito_T1c_M6_survDSM
0xcc2bf10495d5468c0d7ecc410eed5218 0.7668789501555864 52 DEATH compbiomed-unito_T1c_M6_survDSM
0xced2ec7559814380ba33ff0bab89b93a 0.7650768037600368 53 DEATH compbiomed-unito_T1c_M6_survDSM
0xfd0b34dab06d3ffbac27187fdf686edb 0.7604523071067947 54 DEATH compbiomed-unito_T1c_M6_survDSM
0xca761a6a52244f763576347260b34a59 0.7596475011602103 55 DEATH compbiomed-unito_T1c_M6_survDSM
0xf302dc063ff300d32a6ee2efab28b92d 0.7542657531307474 56 DEATH compbiomed-unito_T1c_M6_survDSM
0xf06146e45ec0cc14307c87efa6207d46 0.7537362221311344 57 DEATH compbiomed-unito_T1c_M6_survDSM
0xff0dc46026c4c7377acc0612dd14888d 0.750923746991524 58 DEATH compbiomed-unito_T1c_M6_survDSM
0xdd9bf04b864ca70e3747743c75fd5d15 0.7502870434381975 59 DEATH compbiomed-unito_T1c_M6_survDSM
0xe52cf316e1e3097536676407e4e031a0 0.7493612309268419 60 DEATH compbiomed-unito_T1c_M6_survDSM
0xd7717aa6288c4cf6ffab22bf25544fd7 0.7464585815566022 61 DEATH compbiomed-unito_T1c_M6_survDSM
0xe05df002506b4e86e045cc51a915e10 0.7457591771820004 62 DEATH compbiomed-unito_T1c_M6_survDSM
0xe95317d9ab2f9930a73d4bbc86c4c13a 0.7455261150928939 63 DEATH compbiomed-unito_T1c_M6_survDSM
0xce338efc32da3c66c47085a9e8c4f21 0.7451459702199837 64 DEATH compbiomed-unito_T1c_M6_survDSM
0xf7bf2541be8877afdf8a7b3b3438fc52 0.7447364283326333 65 DEATH compbiomed-unito_T1c_M6_survDSM
0xf7800c3c145eb89a00eec9394dbf9aa0 0.7436960722315806 66 DEATH compbiomed-unito_T1c_M6_survDSM
0xfe669ba1f416c40fe313e7c67b2acf26 0.7429739218721104 67 DEATH compbiomed-unito_T1c_M6_survDSM
0xcdc2424b773830758b504e7e2d8f4e78 0.7420185607167341 68 DEATH compbiomed-unito_T1c_M6_survDSM
0xd1f3a8b31288234dcb941265851400ba 0.7417265245264714 69 DEATH compbiomed-unito_T1c_M6_survDSM
0xd12aa4465a4d66275552160183f389d3 0.7415703634891401 70 DEATH compbiomed-unito_T1c_M6_survDSM
0xe9a50e135fe75c3fddfdc1abfc798b17 0.7405173141998049 71 DEATH compbiomed-unito_T1c_M6_survDSM
0xffb2d295bf7d88afcf7738b39ff9503d 0.7390623812684396 72 DEATH compbiomed-unito_T1c_M6_survDSM
0xe011d3b8d1d2afa89a4f3ad809e82f61 0.7381832218112393 73 DEATH compbiomed-unito_T1c_M6_survDSM
0xfe6e4b0c7e68f9f149150293ea9423a9 0.7342828150422974 74 DEATH compbiomed-unito_T1c_M6_survDSM
0xfa239063a630e9e5929acf1f91f9a3da 0.7311017910796433 75 DEATH compbiomed-unito_T1c_M6_survDSM
0xd7d862d8832214c47e56f7bf814a80ab 0.7298094063198701 76 DEATH compbiomed-unito_T1c_M6_survDSM
0xf6bc8bd3fbd838638e0f8515ec26c07a 0.7297530183365742 77 DEATH compbiomed-unito_T1c_M6_survDSM
0xf4fe5de72a7b60434995feb9f494f3a8 0.7287181846074886 78 DEATH compbiomed-unito_T1c_M6_survDSM
0xf1a0c725e956c72ee92590d8dcfefb58 0.7278330184251239 79 DEATH compbiomed-unito_T1c_M6_survDSM
0xca23e24556475bbc742f37df9b4dacfc 0.7277456672277212 80 DEATH compbiomed-unito_T1c_M6_survDSM
0xf26833e0957ae6825fc358ac4201c535 0.7240199276525264 81 DEATH compbiomed-unito_T1c_M6_survDSM
0xfd2274eb15b71024039d32eb1edefe55 0.7185185659665477 82 DEATH compbiomed-unito_T1c_M6_survDSM
0xec4bcb0a1930afa5232d2f6dc86b9177 0.7163024673259738 83 DEATH compbiomed-unito_T1c_M6_survDSM
0xf529bd25b4480431bfbba5d6f2e28a74 0.714421587718141 84 DEATH compbiomed-unito_T1c_M6_survDSM
0xcca971bb438338084e8bafff27b6770e 0.7112893429833825 85 DEATH compbiomed-unito_T1c_M6_survDSM
0xfe0a4f8776ac746a638672323b26970f 0.7074087116373793 86 DEATH compbiomed-unito_T1c_M6_survDSM
0xedbd9bc377e62cb50bf2d3357144ea5c 0.7051471435919524 87 DEATH compbiomed-unito_T1c_M6_survDSM
0xe922d2f4df2427f8372559c67f9558ff 0.7004222144432894 88 DEATH compbiomed-unito_T1c_M6_survDSM
0xf8f2dec4be3bc8d3dc2a48831dd912be 0.6934582366998757 89 DEATH compbiomed-unito_T1c_M6_survDSM
0xe68286b6e6394818e23e42eeebb6b5e2 0.6926458946915909 90 DEATH compbiomed-unito_T1c_M6_survDSM
0xea0eff4909b5dd55afbef60ffb4e3101 0.6906273798655143 91 DEATH compbiomed-unito_T1c_M6_survDSM
0xfa1fc7c435f2de6bdb7ed4fc644e5aa6 0.6857712942524875 92 DEATH compbiomed-unito_T1c_M6_survDSM
0xed10665bf8c36beb50f95ea6199c0017 0.6852397150700064 93 DEATH compbiomed-unito_T1c_M6_survDSM
0xe611e0187ce0a2383d06e8b7c4bdd82d 0.6848070141077341 94 DEATH compbiomed-unito_T1c_M6_survDSM
0xdc56995bc7b7f90c80986aabdbc5ada1 0.680332959315495 95 DEATH compbiomed-unito_T1c_M6_survDSM
0xdab5b4c5bf823ca40ccf04b019db8012 0.6795923084346503 96 DEATH compbiomed-unito_T1c_M6_survDSM
0xfadd704d172ee3faaca14a6aecebe5db 0.678545174127327 97 DEATH compbiomed-unito_T1c_M6_survDSM
0xeb5be1e7fd6b7b2b20b9fef2b9701c76 0.6784973205552446 98 DEATH compbiomed-unito_T1c_M6_survDSM
0xebae5bb4a98b834864213f16f917dc69 0.6781190873374946 99 DEATH compbiomed-unito_T1c_M6_survDSM
0xd01e14bab20896317481dfeaf5a802b0 0.6779516309213224 100 DEATH compbiomed-unito_T1c_M6_survDSM
0xcb6ac5dbfc05f8f0974601ca5fd5030f 0.6757109523076134 101 DEATH compbiomed-unito_T1c_M6_survDSM
0xd3ee37821226aa86382711f993370ef8 0.6721908616595561 102 DEATH compbiomed-unito_T1c_M6_survDSM
0xf77ccf65b349a2464fc80d0b3f6ea85d 0.6707570594806488 103 DEATH compbiomed-unito_T1c_M6_survDSM
0xcab332227cf293abb3b500a15d0ff270 0.67001831030399 104 DEATH compbiomed-unito_T1c_M6_survDSM
0xe2d33655c094ef8a373c0039122d9a7e 0.6685193639213116 105 DEATH compbiomed-unito_T1c_M6_survDSM
0xdb1d15b66373bf1bcac246947ff2a5c 0.6684208649077359 106 DEATH compbiomed-unito_T1c_M6_survDSM
0xec56393484e50dc13f3e687c3537517d 0.6675509594541903 107 DEATH compbiomed-unito_T1c_M6_survDSM
0xf56f03896712bce7df54fcc6c4d4e317 0.66495398329628 108 DEATH compbiomed-unito_T1c_M6_survDSM
0xdab7039de7c92f9467307883d56c0151 0.6643929639400978 109 DEATH compbiomed-unito_T1c_M6_survDSM
0xf0d0a2f0ca020f23ae90fd5ff6dd2c8e 0.6627981868393312 110 DEATH compbiomed-unito_T1c_M6_survDSM
0xe548fbdf7a480b6c172700c24266db93 0.662766527176864 111 DEATH compbiomed-unito_T1c_M6_survDSM
0xd7321cbd985268c4141bcc4485f73e54 0.6623874438572713 112 DEATH compbiomed-unito_T1c_M6_survDSM
0xd1096bee9a6c72e45237d987dc77672f 0.6623791753482716 113 DEATH compbiomed-unito_T1c_M6_survDSM
0xfd70e2ffdac9d7227f1870f3b2e11fa6 0.6580192086210088 114 DEATH compbiomed-unito_T1c_M6_survDSM
0xe1f9255fd859bedca208a17db00b5737 0.6566334747167413 115 DEATH compbiomed-unito_T1c_M6_survDSM
0xeeaef2090e6697ea49cd4754c1e7fc52 0.6522839436025026 116 DEATH compbiomed-unito_T1c_M6_survDSM
0xd0e71a1c656557fd7856d9e3c6b15faf 0.6508012013637258 117 DEATH compbiomed-unito_T1c_M6_survDSM
0xcf9644601c67a22a9c27ccfa1abdedf1 0.6496270102844294 118 DEATH compbiomed-unito_T1c_M6_survDSM
0xf2e4385cd98a2ef4b84b251b38f66b36 0.6492470408421475 119 DEATH compbiomed-unito_T1c_M6_survDSM
0xe7a85df03166d972a57667b88a86f8c 0.6403495154658642 120 DEATH compbiomed-unito_T1c_M6_survDSM
0xffa9b0a3542580ba135d03f977b3e739 0.63266296582616 121 DEATH compbiomed-unito_T1c_M6_survDSM
0xeea35f2d789b18b2869b6be01a6d016b 0.6307359341311168 122 DEATH compbiomed-unito_T1c_M6_survDSM
0xee3f8a31ebc825766c6f42a32f3d806a 0.6305724319461973 123 DEATH compbiomed-unito_T1c_M6_survDSM
0xec78b838a78beb8f98adeacf43c3d646 0.6298270372425353 124 DEATH compbiomed-unito_T1c_M6_survDSM
0xe24abba1dbd4bf308cc5c3edd30f3aaf 0.6280122433027552 125 DEATH compbiomed-unito_T1c_M6_survDSM
0xfb6b88603cbfdcdccde6955a98e1f80f 0.621791419269114 126 DEATH compbiomed-unito_T1c_M6_survDSM
0xee9c235ba68778d06fb84e7e709fa6e7 0.6207510095228909 127 DEATH compbiomed-unito_T1c_M6_survDSM
0xd74b09cba6eae315293ad458e6bcc9f2 0.6185196406046768 128 DEATH compbiomed-unito_T1c_M6_survDSM
0xcc1e99442c5e67e860b2b7a69cbde924 0.61602199526783 129 DEATH compbiomed-unito_T1c_M6_survDSM
0xe561d548069a6f943e73d3242b6ad1e 0.615419659368701 130 DEATH compbiomed-unito_T1c_M6_survDSM
0xd5043ae62b88bbb0e6f5fde21a8a65a2 0.6128156425123493 131 DEATH compbiomed-unito_T1c_M6_survDSM
0xf7364a4981e0237889814677a80f28c7 0.6120117993390987 132 DEATH compbiomed-unito_T1c_M6_survDSM
0xfb313a896f03bab8c319262f69eb0cc 0.6101997932892772 133 DEATH compbiomed-unito_T1c_M6_survDSM
0xf4f2553c05bed4c3641960d1326ae10b 0.6093971880384937 134 DEATH compbiomed-unito_T1c_M6_survDSM
0xe13591723f3dd735ab755d1c7b9b7299 0.608399583014232 135 DEATH compbiomed-unito_T1c_M6_survDSM
0xd6f42694625c79b8219804527461c42 0.6083448936683258 136 DEATH compbiomed-unito_T1c_M6_survDSM
0xd60c2abd7d42886e8a351fe84fa94a4 0.6069262736772121 137 DEATH compbiomed-unito_T1c_M6_survDSM
0xeb8326312cceeb12d9960732cf4f5155 0.6050669599847892 138 DEATH compbiomed-unito_T1c_M6_survDSM
0xf5b897d01df647df2ae8611b87206c69 0.6041733337876606 139 DEATH compbiomed-unito_T1c_M6_survDSM
0xd7b06c10449c68e86de95bec01aab1ff 0.6039431947156331 140 DEATH compbiomed-unito_T1c_M6_survDSM
0xe1911c880481ae1c7ceea1c15ee76b7a 0.6030440142588785 141 DEATH compbiomed-unito_T1c_M6_survDSM
0xe71b3e912d71806b02f8dc57534c7e5c 0.6013598398180365 142 DEATH compbiomed-unito_T1c_M6_survDSM
0xf8989307a3cc4e26889fd3e10f022ed5 0.6008347897897488 143 DEATH compbiomed-unito_T1c_M6_survDSM
0xdf43cfb79350350b0b0b4f4e9e8cc141 0.5972133392136317 144 DEATH compbiomed-unito_T1c_M6_survDSM
0xdab201c23fc655b741604ffff04fb576 0.596536684358771 145 DEATH compbiomed-unito_T1c_M6_survDSM
0xe725515e589333a0e47d8fecb13d0e19 0.593542464225587 146 DEATH compbiomed-unito_T1c_M6_survDSM
0xde0743f85184390d3bc39c19bf2ea2ae 0.5934487994411016 147 DEATH compbiomed-unito_T1c_M6_survDSM
0xea6ee484c00cfac85c2b41b32ec3945b 0.5931954866472808 148 DEATH compbiomed-unito_T1c_M6_survDSM
0xfb8d03bebaba360a9a6086d80513029a 0.5930203657555279 149 DEATH compbiomed-unito_T1c_M6_survDSM
0xda3cd952705fe75d00d50ca811b8db7 0.5925863163631656 150 DEATH compbiomed-unito_T1c_M6_survDSM
0xe97dee51285e88b33b4c0761066df1e 0.590776533093912 151 DEATH compbiomed-unito_T1c_M6_survDSM
0xd7bf8d698833b47c11ab207cc04b89c9 0.5897780796145861 152 DEATH compbiomed-unito_T1c_M6_survDSM
0xfe575fd2cf4dc619ebd32287145eea83 0.5897209168986762 153 DEATH compbiomed-unito_T1c_M6_survDSM
0xff276b491e7bb2978e2c140930ef3fce 0.5881482552206033 154 DEATH compbiomed-unito_T1c_M6_survDSM
0xfd1b9d000bab595412ab90d849c98927 0.5842598239303465 155 DEATH compbiomed-unito_T1c_M6_survDSM
0xf48e752b802c35028d8fb7308b1e948b 0.5837082268845571 156 DEATH compbiomed-unito_T1c_M6_survDSM
0xe7414527e960338f49cb82d3cd44bf58 0.5820476042205118 157 DEATH compbiomed-unito_T1c_M6_survDSM
0xd27138ac1133341363af73b557e744f5 0.5808583461654265 158 DEATH compbiomed-unito_T1c_M6_survDSM
0xcbace36a71da30e112149f1e03c3ec14 0.5805376818560404 159 DEATH compbiomed-unito_T1c_M6_survDSM
0xe09643fdfa382af3b615067ba53e3ec9 0.5798865392264384 160 DEATH compbiomed-unito_T1c_M6_survDSM
0xf1c610f643e2254e1e6bcd9f9fbb788f 0.5779699097231913 161 DEATH compbiomed-unito_T1c_M6_survDSM
0xe1243501dccecd29c201b7a93e1c3785 0.5773355839259496 162 DEATH compbiomed-unito_T1c_M6_survDSM
0xf82230e4bcd875a07dc1bf0771cee5a2 0.5771870095574124 163 DEATH compbiomed-unito_T1c_M6_survDSM
0xdb66fea36c893712201bde1649b162fe 0.5765632841151139 164 DEATH compbiomed-unito_T1c_M6_survDSM
0xef2d65a03b94ad521ce01a01902cddbc 0.57544002224903 165 DEATH compbiomed-unito_T1c_M6_survDSM
0xd987b922e81f9eaeebb9a09c2bfa0e30 0.5746729795623772 166 DEATH compbiomed-unito_T1c_M6_survDSM
0xe34b5e762bb7ce57ec0aa9eda499b7d7 0.5740939100051978 167 DEATH compbiomed-unito_T1c_M6_survDSM
0xdf77d399fe527cf039cdaf28269c5aa5 0.5702685092407137 168 DEATH compbiomed-unito_T1c_M6_survDSM
0xfa14498bd96bd8a6aa15cf75f9a3fb85 0.5701499707307676 169 DEATH compbiomed-unito_T1c_M6_survDSM
0xfed064f01a1708aac1ea3caca9e7aebc 0.5684774455896879 170 DEATH compbiomed-unito_T1c_M6_survDSM
0xd41a3ee089ce64b7aab7b3f5ff2b08a6 0.5680706909141843 171 DEATH compbiomed-unito_T1c_M6_survDSM
0xf71142822940f1367d768de7f2c82c00 0.5671703783397235 172 DEATH compbiomed-unito_T1c_M6_survDSM
0xf27bededb6f7fb7d23de734413cc8da2 0.564607077653272 173 DEATH compbiomed-unito_T1c_M6_survDSM
0xf85acc7de3bbd88ce48d27e53a99e9e0 0.5604817988400326 174 DEATH compbiomed-unito_T1c_M6_survDSM
0xec1b1fb1dcc7b585296d94f07743df75 0.5595387416521791 175 DEATH compbiomed-unito_T1c_M6_survDSM
0xcacac569f2346df060fe5fa58e2d4440 0.5593021618751368 176 DEATH compbiomed-unito_T1c_M6_survDSM
0xeb98c8fbd6d496d367e7e63250ff829 0.558945303075599 177 DEATH compbiomed-unito_T1c_M6_survDSM
0xe8885be345a04b02b8a8086f9859e0ba 0.5585257703930263 178 DEATH compbiomed-unito_T1c_M6_survDSM
0xca4775cc1195fd2a25426c36a4a1f85c 0.5570656136342088 179 DEATH compbiomed-unito_T1c_M6_survDSM
0xcf9844d5d100e482d188e39e0031c174 0.5568196077894471 180 DEATH compbiomed-unito_T1c_M6_survDSM
0xd790f990b440716f8ddbd961e5881a42 0.5544170968975419 181 DEATH compbiomed-unito_T1c_M6_survDSM
0xe087e13516f034108a913abd7a34b28 0.5535349083073907 182 DEATH compbiomed-unito_T1c_M6_survDSM
0xd718fbf5e5448b16ffb18ccaf30f844a 0.5535127104469139 183 DEATH compbiomed-unito_T1c_M6_survDSM
0xeca63b2021a883ab075f46cf5d0c0c4c 0.5533241637562062 184 DEATH compbiomed-unito_T1c_M6_survDSM
0xd3b7c5fb0c510b91174df4e6ba01f066 0.5527363906824306 185 DEATH compbiomed-unito_T1c_M6_survDSM
0xfa9882c168e02e5b6a87757e6b6b9b22 0.5526331618577953 186 DEATH compbiomed-unito_T1c_M6_survDSM
0xff2a4d24028b93bb9f199542657cafce 0.552028511478177 187 DEATH compbiomed-unito_T1c_M6_survDSM
0xd3e2b55ee0fd70cac3252cd2c6bce690 0.5509924352040172 188 DEATH compbiomed-unito_T1c_M6_survDSM
0xeceb727a34f8dde7f27bbdcc70559e3c 0.5501929884703305 189 DEATH compbiomed-unito_T1c_M6_survDSM
0xd1e37b682a43d315c4fd71ba43c0b8f9 0.5490783305095533 190 DEATH compbiomed-unito_T1c_M6_survDSM
0xf9bbabe811e269d8cf2be964e07594bc 0.5463874363265712 191 DEATH compbiomed-unito_T1c_M6_survDSM
0xcf467518a0b8918ab7df44c6f51d1235 0.5440285994408283 192 DEATH compbiomed-unito_T1c_M6_survDSM
0xfa54e05f1e04e2ed49738336f4c3a84f 0.5419013953390105 193 DEATH compbiomed-unito_T1c_M6_survDSM
0xe9198c51686e6b6214bdb714eaf10a2e 0.5409203744967171 194 DEATH compbiomed-unito_T1c_M6_survDSM
0xd947420e9d8d72f2cc88d9aa94d716de 0.5406314604792458 195 DEATH compbiomed-unito_T1c_M6_survDSM
0xe4fdcdd2a4c1d58debdf622a8b7c786 0.5400632020094905 196 DEATH compbiomed-unito_T1c_M6_survDSM
0xccc6a0bdee2c8e1c6f6ca2e0e9fee8ed 0.5367043487179424 197 DEATH compbiomed-unito_T1c_M6_survDSM
0xf44f6c6ed032569f224aca85ed0cbfec 0.5354261758187726 198 DEATH compbiomed-unito_T1c_M6_survDSM
0xee3a19f52a50ecd49188235eb57b1d72 0.5346013008960666 199 DEATH compbiomed-unito_T1c_M6_survDSM
0xd417279bb6053beedd7777f2c6f35582 0.5326533175417048 200 DEATH compbiomed-unito_T1c_M6_survDSM
0xef586cf6bff28e51a5fa24ecfd7ddf76 0.5324477090795562 201 DEATH compbiomed-unito_T1c_M6_survDSM
0xd5ec6e9cb0c8457b75773d5c896c97e2 0.5314604572459545 202 DEATH compbiomed-unito_T1c_M6_survDSM
0xdb5dc80f29a179038e60bbffd2c97e64 0.5297393685373677 203 DEATH compbiomed-unito_T1c_M6_survDSM
0xd08ed43907ef30124fcdce84155aecff 0.5296355132841531 204 DEATH compbiomed-unito_T1c_M6_survDSM
0xdf89ee61d738c89777ac8917091d7b5f 0.529469450831092 205 DEATH compbiomed-unito_T1c_M6_survDSM
0xf280278b67e8710e087249dad21da735 0.5285234269819196 206 DEATH compbiomed-unito_T1c_M6_survDSM
0xfbac1c67b95ce1057128c431a2cdee75 0.5274766886679209 207 DEATH compbiomed-unito_T1c_M6_survDSM
0xfd2e06a25a21d1558c6bd8fdfa1d5b6f 0.5273304411849644 208 DEATH compbiomed-unito_T1c_M6_survDSM
0xd5c337472199810ecb872821d9788346 0.5265230836817768 209 DEATH compbiomed-unito_T1c_M6_survDSM
0xca70bebf5900a008bd4c269f73786bb9 0.5246390233013648 210 DEATH compbiomed-unito_T1c_M6_survDSM
0xccc8903f7f9f34d9df438d36b205cdc4 0.5233765449528285 211 DEATH compbiomed-unito_T1c_M6_survDSM
0xf216cafbe04caffbd7664cc23a2db83d 0.5232059312300504 212 DEATH compbiomed-unito_T1c_M6_survDSM
0xd4ea23e326cd8074d2a8e19560589a3f 0.5225544052817862 213 DEATH compbiomed-unito_T1c_M6_survDSM
0xe5144e8e0dc88e7e42acc50fa0a3bd5e 0.520437156663167 214 DEATH compbiomed-unito_T1c_M6_survDSM
0xf99cf8d8fb1425bd6599947341f2c0a3 0.5192277908161991 215 DEATH compbiomed-unito_T1c_M6_survDSM
0xfb08439610a68a0e85a6eb06d412e34c 0.5179377586242587 216 DEATH compbiomed-unito_T1c_M6_survDSM
0xd918b145d162d1179dd34d36f51be722 0.5165629672532438 217 DEATH compbiomed-unito_T1c_M6_survDSM
0xf8755572377a8aec60f0daf413ccbb4b 0.5165216851870521 218 DEATH compbiomed-unito_T1c_M6_survDSM
0xee8bfccacb125b541b17fdc2464757cc 0.5145808558514386 219 DEATH compbiomed-unito_T1c_M6_survDSM
0xf78ead80e7859b6ad13d1a038a7db8f8 0.5143533839555622 220 DEATH compbiomed-unito_T1c_M6_survDSM
0xec8f4f8e33c61d083b87631e1fc49471 0.5099284038000379 221 DEATH compbiomed-unito_T1c_M6_survDSM
0xcdec55e04e79ad795159801260b62787 0.5096090216259401 222 DEATH compbiomed-unito_T1c_M6_survDSM
0xef030f43e22e752a9a0e914582eaa50e 0.5094817924143397 223 DEATH compbiomed-unito_T1c_M6_survDSM
0xfd7f1867f3e74ffe8d920958df8e11e8 0.5076266755885149 224 DEATH compbiomed-unito_T1c_M6_survDSM
0xd382daa6df0dca40fa815237180121d8 0.5073900902187863 225 DEATH compbiomed-unito_T1c_M6_survDSM
0xffea07026ee4819bc346649ddad2d740 0.5071323033687544 226 DEATH compbiomed-unito_T1c_M6_survDSM
0xd11d7c25b92a35bb6263f1862fc4ce50 0.5069100374044172 227 DEATH compbiomed-unito_T1c_M6_survDSM
0xf38fdc686f3ccffbeb4d8cf31d935f5d 0.5036551133204002 228 DEATH compbiomed-unito_T1c_M6_survDSM
0xe131e2e69ff731d99b83a026c9fe5580 0.5021706507803037 229 DEATH compbiomed-unito_T1c_M6_survDSM
0xea31d04befc74fc9e2fcd95610257670 0.502004835377771 230 DEATH compbiomed-unito_T1c_M6_survDSM
0xdddf585b28242c749d927d5be4bc1301 0.5015011966844453 231 DEATH compbiomed-unito_T1c_M6_survDSM
0xf8240b7302429c49504a9230ce6a5428 0.5014458649234295 232 DEATH compbiomed-unito_T1c_M6_survDSM
0xd5ffba53ba5ea58fbb117bc716014e12 0.4984741647850135 233 DEATH compbiomed-unito_T1c_M6_survDSM
0xf188774bc59c58292edda7342dde3a3a 0.4970495555823527 234 DEATH compbiomed-unito_T1c_M6_survDSM
0xccebb4fbed5700851b1983686589cd2d 0.49671829067468637 235 DEATH compbiomed-unito_T1c_M6_survDSM
0xd0c0c32aac515e84075e95bc5cf59b0f 0.4952598975782438 236 DEATH compbiomed-unito_T1c_M6_survDSM
0xf22dbd73e845b2d27907e07de22d7c29 0.4926604215845141 237 DEATH compbiomed-unito_T1c_M6_survDSM
0xd333c66f71dcbce577612ecbfdaac2a8 0.49193309272616603 238 DEATH compbiomed-unito_T1c_M6_survDSM
0xe3741364e8202994126d8ec536af456 0.49122734790118044 239 DEATH compbiomed-unito_T1c_M6_survDSM
0xea6e9e8593e17577e3160c2a1946d1f6 0.4896173805600286 240 DEATH compbiomed-unito_T1c_M6_survDSM
0xe18c99ff5b5c6cab7d196a80b58cac43 0.4889146088232234 241 DEATH compbiomed-unito_T1c_M6_survDSM
0xdb5f9c198ddfc05cebd57e05ce1f65b0 0.4876357873681994 242 DEATH compbiomed-unito_T1c_M6_survDSM
0xd756384a94be6177659d1c36c1096aa4 0.4867259359674798 243 DEATH compbiomed-unito_T1c_M6_survDSM
0xfbc694fefaa0cd13396b8dc271863e35 0.4856465986283653 244 DEATH compbiomed-unito_T1c_M6_survDSM
0xd73f9466b0c710dde7c345775f14b3be 0.48541091005541803 245 DEATH compbiomed-unito_T1c_M6_survDSM
0xe7bbea70b46ca3563c52cf93d7f77e6e 0.484308405638503 246 DEATH compbiomed-unito_T1c_M6_survDSM
0xcea28218baea20cfc121f8055282113f 0.48377603871355584 247 DEATH compbiomed-unito_T1c_M6_survDSM
0xe03c0e77caeee1175d806396ea7f394f 0.483267200703515 248 DEATH compbiomed-unito_T1c_M6_survDSM
0xcddf70765fbf01a610028e885ff0ed57 0.4820192397345835 249 DEATH compbiomed-unito_T1c_M6_survDSM
0xe0020cb9777c4cfa55a538a0b30bb4fb 0.48155321566022535 250 DEATH compbiomed-unito_T1c_M6_survDSM
0xca65054cf38c80ad985fedf1060d34da 0.4814783508442071 251 DEATH compbiomed-unito_T1c_M6_survDSM
0xd675843b3b012885484e0637ea0333f8 0.48070986410722716 252 DEATH compbiomed-unito_T1c_M6_survDSM
0xf213112adb4999d5a440d900a689fb5b 0.4797718800837272 253 DEATH compbiomed-unito_T1c_M6_survDSM
0xd4b363ca424fcb5495c55e256d228dcf 0.47805841378564 254 DEATH compbiomed-unito_T1c_M6_survDSM
0xfb6b11f879e8c94bc40e422f9219b39a 0.4779780089458437 255 DEATH compbiomed-unito_T1c_M6_survDSM
0xde3ebb711c6d4dd2fc6aaed819e56904 0.47716086213423975 256 DEATH compbiomed-unito_T1c_M6_survDSM
0xf9520b99fe784fd0a89627834db4ac60 0.4765371281223861 257 DEATH compbiomed-unito_T1c_M6_survDSM
0xd812ab30e47bb673fca4238f569e43fc 0.4753656883850881 258 DEATH compbiomed-unito_T1c_M6_survDSM
0xf09904ece3ec254d120d8e20d2a9b8d4 0.4738922549252944 259 DEATH compbiomed-unito_T1c_M6_survDSM
0xcae2a45cf7fbe6869c270a4a98ffdd7f 0.47341599444704974 260 DEATH compbiomed-unito_T1c_M6_survDSM
0xeb9c9a12516b2404f03664d4ff99a05 0.47288232799234936 261 DEATH compbiomed-unito_T1c_M6_survDSM
0xca872759930080e621030d72b91eaa3a 0.4707613760588328 262 DEATH compbiomed-unito_T1c_M6_survDSM
0xf2487b792a8cb59a0f5c7db06196110c 0.47046761890418054 263 DEATH compbiomed-unito_T1c_M6_survDSM
0xea7bc1be9d79fce7043d34eee9eb3fb 0.4692853644055414 264 DEATH compbiomed-unito_T1c_M6_survDSM
0xff0634b3f2b17fafdea8696089231df 0.4686667244473215 265 DEATH compbiomed-unito_T1c_M6_survDSM
0xd6863d328e70d290894ca386305b1b0a 0.46837100446349106 266 DEATH compbiomed-unito_T1c_M6_survDSM
0xe5503eff502e4079eeb7b70a8e81624f 0.467385673270828 267 DEATH compbiomed-unito_T1c_M6_survDSM
0xce895e32981f982d9e5aba4ace424836 0.4670697710553257 268 DEATH compbiomed-unito_T1c_M6_survDSM
0xf94bb7a20ca8cb7706f518420785d5e0 0.4648359440548968 269 DEATH compbiomed-unito_T1c_M6_survDSM
0xce9ae81fe0bd49bcaa96eb67d3715455 0.46390319962329224 270 DEATH compbiomed-unito_T1c_M6_survDSM
0xfaf00e55746069b29728118912287df5 0.4638407497499292 271 DEATH compbiomed-unito_T1c_M6_survDSM
0xd5792dfdb345bdca74578a5dd7e9c0fc 0.4633162277833502 272 DEATH compbiomed-unito_T1c_M6_survDSM
0xef1713560b9daaa3e34cb59dd8037f2f 0.4619022715862025 273 DEATH compbiomed-unito_T1c_M6_survDSM
0xd31520068ec294753fb4be6f9fb8ae35 0.4608151924839902 274 DEATH compbiomed-unito_T1c_M6_survDSM
0xe63ca32211ba0ee710209b055926cc9f 0.4594094886654454 275 DEATH compbiomed-unito_T1c_M6_survDSM
0xf6e75b250207b024bc7a27acf84e2ea1 0.4590335143703695 276 DEATH compbiomed-unito_T1c_M6_survDSM
0xebe2c7d10de4b1f1a07007d80a59fece 0.4567493083997458 277 DEATH compbiomed-unito_T1c_M6_survDSM
0xf9079405694f19b4849f68c05e06e474 0.45490583317015143 278 DEATH compbiomed-unito_T1c_M6_survDSM
0xd36c161f1116c89d7b96cd22a3c72459 0.4543842883582254 279 DEATH compbiomed-unito_T1c_M6_survDSM
0xd36718c707a259c6cad88c5b0f12bef9 0.45309967980157273 280 DEATH compbiomed-unito_T1c_M6_survDSM
0xe98b50fd5e1b71343db2db67b7e4b499 0.4526899616725634 281 DEATH compbiomed-unito_T1c_M6_survDSM
0xdd0862a04c30e83bb0603190b7f66f4e 0.4524202661249046 282 DEATH compbiomed-unito_T1c_M6_survDSM
0xd6ceb97d4ad0065684a61fa954b61398 0.45221590425834157 283 DEATH compbiomed-unito_T1c_M6_survDSM
0xfd1d5c688d32c592344c0b477526d572 0.4504736394225544 284 DEATH compbiomed-unito_T1c_M6_survDSM
0xe1b521e5c1ba0a32f7c946d8e6e45785 0.450269523114158 285 DEATH compbiomed-unito_T1c_M6_survDSM
0xe5a7736524fb5fcf98c1aef549cab227 0.44954212042498104 286 DEATH compbiomed-unito_T1c_M6_survDSM
0xfffd8c023601dac0ce9b21ab226b8a3d 0.4486904135733667 287 DEATH compbiomed-unito_T1c_M6_survDSM
0xfd825cb486e59a2700e5da7ce967f6a4 0.44802372838030063 288 DEATH compbiomed-unito_T1c_M6_survDSM
0xee954eee6763a75b49356fd60400df96 0.4467843713202087 289 DEATH compbiomed-unito_T1c_M6_survDSM
0xe936c1effb682d71174c5873419f7029 0.444381506503489 290 DEATH compbiomed-unito_T1c_M6_survDSM
0xf833a171c98fd18777becac7328377e5 0.4437459725273604 291 DEATH compbiomed-unito_T1c_M6_survDSM
0xcb15df0f7755ee99f8a82390ab14f3f6 0.4436471111698312 292 DEATH compbiomed-unito_T1c_M6_survDSM
0xfdb6f07f84bc999d042f37dc3450856e 0.44359593266437614 293 DEATH compbiomed-unito_T1c_M6_survDSM
0xd066b9335c8265ae4ca035e11e6c53d5 0.4423652519793844 294 DEATH compbiomed-unito_T1c_M6_survDSM
0xd39cb0c000c1454b265e9d35eff7b351 0.44137592298583916 295 DEATH compbiomed-unito_T1c_M6_survDSM
0xf4ad456ae4633925638b9d86775112eb 0.4402627962951227 296 DEATH compbiomed-unito_T1c_M6_survDSM
0xd112ebf7115150f9fef4fef8d491b40a 0.44009348017594035 297 DEATH compbiomed-unito_T1c_M6_survDSM
0xdebc17bef1084afcb99a1e691bc29ae 0.4386320811211298 298 DEATH compbiomed-unito_T1c_M6_survDSM
0xd2117522df5b7e50c1495e661a655df1 0.43752863339133624 299 DEATH compbiomed-unito_T1c_M6_survDSM
0xf3f096ee783aa5fd0723a87fb8bc12be 0.4372232887410843 300 DEATH compbiomed-unito_T1c_M6_survDSM
0xed33bc879bc2074ac2e72632e9505f81 0.43635474041431827 301 DEATH compbiomed-unito_T1c_M6_survDSM
0xe279e335141f1938c4902e0542794860 0.4353556353910002 302 DEATH compbiomed-unito_T1c_M6_survDSM
0xf10d4ea92d3f8bd97a8e97335420ec9d 0.42949069506227633 303 DEATH compbiomed-unito_T1c_M6_survDSM
0xd47e5fd14b1f26a916ed2808c6cb0dc2 0.4293200650529225 304 DEATH compbiomed-unito_T1c_M6_survDSM
0xe60673d48d2ab455e24ddd8782f542 0.4293178600090532 305 DEATH compbiomed-unito_T1c_M6_survDSM
0xff7def9ae79d9c965bf2ab55a63ab030 0.42892950200268487 306 DEATH compbiomed-unito_T1c_M6_survDSM
0xcb92d5403ec72f39bd2452d25cb19656 0.42781507945586644 307 DEATH compbiomed-unito_T1c_M6_survDSM
0xf648b61ecd9ef2453a2e443d2ba184b3 0.4268448674048581 308 DEATH compbiomed-unito_T1c_M6_survDSM
0xfd393a5687cc418359d4af8ce52fb04 0.4253417638800414 309 DEATH compbiomed-unito_T1c_M6_survDSM
0xced4fcea0fec8a743c479bce1bce3ca6 0.4252270204451453 310 DEATH compbiomed-unito_T1c_M6_survDSM
0xe9e31c6c3df4f0fb15ebe7c24b555e85 0.4239063871394296 311 DEATH compbiomed-unito_T1c_M6_survDSM
0xf9831b68aa9f7240975f3297c7ff7161 0.4238018311363489 312 DEATH compbiomed-unito_T1c_M6_survDSM
0xdc95cdc9b3e1d6708a767449fa13ae6e 0.4227504440456782 313 DEATH compbiomed-unito_T1c_M6_survDSM
0xd5638c7f81b87b1b60eb380abb81ba6b 0.42239615242420636 314 DEATH compbiomed-unito_T1c_M6_survDSM
0xd5b544c682f3ff066e5c84bbb8ad6b79 0.42106214426673033 315 DEATH compbiomed-unito_T1c_M6_survDSM
0xedaa4967a674ca7d995883be598a1a5c 0.4176834694243711 316 DEATH compbiomed-unito_T1c_M6_survDSM
0xfbc8eb23a6ec1008a7c9d1ffebdf5f58 0.4170399347511233 317 DEATH compbiomed-unito_T1c_M6_survDSM
0xcdb71c2bc002940b26e821531346fea6 0.4157975021285811 318 DEATH compbiomed-unito_T1c_M6_survDSM
0xed67617d0fa4e6715aeb4bb060397e9a 0.41567013682644927 319 DEATH compbiomed-unito_T1c_M6_survDSM
0xe2459ee8b4c7c07a0c3186049b3e1d43 0.4152801026606138 320 DEATH compbiomed-unito_T1c_M6_survDSM
0xfeee1b962c83164cd24885a790f8f1cf 0.4136511786895696 321 DEATH compbiomed-unito_T1c_M6_survDSM
0xcbe5c397bc559de15654725ce6f473fd 0.4129244704636578 322 DEATH compbiomed-unito_T1c_M6_survDSM
0xe5c549844deda60cee96d67026b28ca7 0.4117818146779532 323 DEATH compbiomed-unito_T1c_M6_survDSM
0xf0f77e6f043c61c37cf0e7c3d0e3c754 0.40996684554629886 324 DEATH compbiomed-unito_T1c_M6_survDSM
0xdf69e78176d39a97097368c5a5ab0aba 0.4093572156972172 325 DEATH compbiomed-unito_T1c_M6_survDSM
0xcb1cddfe56f7600981762572ef3a5160 0.4073162012492652 326 DEATH compbiomed-unito_T1c_M6_survDSM
0xf61e73ba8eb74ccfd07eee98cc7a8a55 0.406993868520596 327 DEATH compbiomed-unito_T1c_M6_survDSM
0xd09c40ceeeb040913893df79e296559 0.40688869226303215 328 DEATH compbiomed-unito_T1c_M6_survDSM
0xec869599b2d2828d526ab101d0aca22 0.40611145543474453 329 DEATH compbiomed-unito_T1c_M6_survDSM
0xde3661c7ed3dc0a21a37fc693b75b963 0.40588688219201363 330 DEATH compbiomed-unito_T1c_M6_survDSM
0xec0916bb33028ec2d073de8f7d9b72c9 0.40407772318953095 331 DEATH compbiomed-unito_T1c_M6_survDSM
0xca54158bee84393d9cb9b564c247c280 0.40385046774690975 332 DEATH compbiomed-unito_T1c_M6_survDSM
0xfc75a58392a25eac28f8eabd1693466b 0.4036113868135662 333 DEATH compbiomed-unito_T1c_M6_survDSM
0xe2da7898817d9475a66b89d99b0a6e12 0.4018795637927182 334 DEATH compbiomed-unito_T1c_M6_survDSM
0xe427d2e116a2eb36221ba20ae7d44e4b 0.4012681465799928 335 DEATH compbiomed-unito_T1c_M6_survDSM
0xde517225b56631a6ed23488cfb0d4a54 0.40125900470605586 336 DEATH compbiomed-unito_T1c_M6_survDSM
0xe75b0b6e1f9037b4c31a1752618e81b5 0.3990464227996946 337 DEATH compbiomed-unito_T1c_M6_survDSM
0xda6be9a63492d9182cb0e1ba803a99f3 0.3968056885386028 338 DEATH compbiomed-unito_T1c_M6_survDSM
0xd4d10cf490061439735b63ce33997c14 0.39640948094678324 339 DEATH compbiomed-unito_T1c_M6_survDSM
0xd82e2ab264accdedf1746f2fff6aa04e 0.3954075160817858 340 DEATH compbiomed-unito_T1c_M6_survDSM
0xd944807f0027bf43b7786e4bd9b8e9ef 0.39504737600003964 341 DEATH compbiomed-unito_T1c_M6_survDSM
0xd27701d9404e65f294879671f8969a3a 0.39385684147607924 342 DEATH compbiomed-unito_T1c_M6_survDSM
0xec63a43004d49655727a77cf1907da9b 0.39363810967920293 343 DEATH compbiomed-unito_T1c_M6_survDSM
0xde5560cc3800f3797a36528b728b9b6f 0.39358109818746767 344 DEATH compbiomed-unito_T1c_M6_survDSM
0xcd3583d156c165ef5eb313099f58965d 0.3931311187988728 345 DEATH compbiomed-unito_T1c_M6_survDSM
0xf45f2136fc41ad2a85fd11aa40df27c5 0.3918892173559046 346 DEATH compbiomed-unito_T1c_M6_survDSM
0xdea18430383df9271f5f954a1d7aa89f 0.38814767933173416 347 DEATH compbiomed-unito_T1c_M6_survDSM
0xf4b4830578cde5e21fefe4f6af242ac7 0.3809470036585201 348 DEATH compbiomed-unito_T1c_M6_survDSM
0xce2e410507d55ec95d2103150428015f 0.3806642498343867 349 DEATH compbiomed-unito_T1c_M6_survDSM
0xd699c91c0883d77bc456636836f4757c 0.37499177219530355 350 DEATH compbiomed-unito_T1c_M6_survDSM
0xe059f63a710ae8a31beab3c6eb897775 0.37192674311707635 351 DEATH compbiomed-unito_T1c_M6_survDSM
0xcfc44323cbf71cf449d6fd693663bc9b 0.37033483404169915 352 DEATH compbiomed-unito_T1c_M6_survDSM
0xd5eb540595f0135ed7b2c9c3d36f4940 0.3686860332409642 353 DEATH compbiomed-unito_T1c_M6_survDSM
0xca2a048cc828f5ebd2000a554301d13f 0.368576775401624 354 DEATH compbiomed-unito_T1c_M6_survDSM
0xfba93d2e1f10b9e61d390fd5859a056a 0.36759931856810685 355 DEATH compbiomed-unito_T1c_M6_survDSM
0xda5c46fe14bcc02dd330b6f33d4d2b69 0.36422017955779884 356 DEATH compbiomed-unito_T1c_M6_survDSM
0xdeb42eb3e20ddcab47803195d2e8dd9 0.362725691433095 357 DEATH compbiomed-unito_T1c_M6_survDSM
0xefbd105005fbd4c913e67f1e04cea00b 0.36155466493392435 358 DEATH compbiomed-unito_T1c_M6_survDSM
0xf37c5fe1faef6a4d71371899ffeb72a8 0.36115224115731986 359 DEATH compbiomed-unito_T1c_M6_survDSM
0xf9a50982020767a3819aef62ef7cf85a 0.3554666535479372 360 DEATH compbiomed-unito_T1c_M6_survDSM
0xf842e0468ca5476e1ba6c4045602bff4 0.3488936488671333 361 DEATH compbiomed-unito_T1c_M6_survDSM
0xcb30b2e0562dacba4b296226944f2c4b 0.3478664350446395 362 DEATH compbiomed-unito_T1c_M6_survDSM
0xd5edb5ec1169f1a5c865ae83f0af14e8 0.34769478491015576 363 DEATH compbiomed-unito_T1c_M6_survDSM
0xe75da17b210d09562c2494dbe0146b54 0.34648446550254963 364 DEATH compbiomed-unito_T1c_M6_survDSM
0xef8a3804eb6d65718f090a1fd1cb1cfb 0.3279456534542247 365 DEATH compbiomed-unito_T1c_M6_survDSM
0xeac9347ec35cb5dc7bb8c79a03b92c33 0.32771299536065085 366 DEATH compbiomed-unito_T1c_M6_survDSM
0xe7e58da752f329f4c502a1e99da9163e 0.32634997479847266 367 DEATH compbiomed-unito_T1c_M6_survDSM
0xfc4fc92c9512e0a9fd0658b0ae42c093 0.3238709382449368 368 DEATH compbiomed-unito_T1c_M6_survDSM
0xf950685edb82c4ec4f7a08666017a011 0.32281174624676306 369 DEATH compbiomed-unito_T1c_M6_survDSM
0xd581144148304667e66df70e8913f154 0.3227397826567662 370 DEATH compbiomed-unito_T1c_M6_survDSM
0xf44e148c018f050d4bb41962d37da746 0.3176796932450313 371 DEATH compbiomed-unito_T1c_M6_survDSM
0xd3eeae39e8592e4bc68736b593804ae0 0.31369802339532205 372 DEATH compbiomed-unito_T1c_M6_survDSM
0xfdd6cfa13f857bca9b30dd309aa93b2d 0.31097800201316084 373 DEATH compbiomed-unito_T1c_M6_survDSM
0xe1861d1a19780afbf6e583e164e31737 0.30500082937222134 374 DEATH compbiomed-unito_T1c_M6_survDSM
0xfe27d56439d608304d62e96402d693ad 0.30353409662090336 375 DEATH compbiomed-unito_T1c_M6_survDSM
0xcca053eb67d949b9e81f731aea923a97 0.3005475834038673 376 DEATH compbiomed-unito_T1c_M6_survDSM
0xfb403b2eeb639d2539f1cb7e3a3bfa49 0.2965114833902209 377 DEATH compbiomed-unito_T1c_M6_survDSM
0xcf55f54f88796ec3794c9ff00efb027b 0.29588151950095193 378 DEATH compbiomed-unito_T1c_M6_survDSM
0xfca94c4f6ab5f79eaf0b7651c88e810b 0.2933134596482035 379 DEATH compbiomed-unito_T1c_M6_survDSM
0xf09ebd675a83f3afcaaf4e64977c3b1a 0.2922835633083187 380 DEATH compbiomed-unito_T1c_M6_survDSM
0xd49caf56339d1ef045ea7e03950039d4 0.2895089862141633 381 DEATH compbiomed-unito_T1c_M6_survDSM
0xe47aab7184db16d2565593d71df14757 0.2872360017486543 382 DEATH compbiomed-unito_T1c_M6_survDSM
0xe9232b72bd6ea6c9e228c57744a7fc39 0.27863367417751944 383 DEATH compbiomed-unito_T1c_M6_survDSM
0xfecb6f4ce1d71a01be44131645701abb 0.2782876291340058 384 DEATH compbiomed-unito_T1c_M6_survDSM
0xd53604e8a14246f6ac13809f369bc9fe 0.2758637361158692 385 DEATH compbiomed-unito_T1c_M6_survDSM
0xe6899e5673718dd10ace49ea67eb434b 0.27161773437857645 386 DEATH compbiomed-unito_T1c_M6_survDSM
0xf53b3ecfaf3cf0310b8679cb9332c1d 0.2702914615487791 387 DEATH compbiomed-unito_T1c_M6_survDSM
0xd97fec54dc54fa1b60a32665993d16c4 0.2685483029682662 388 DEATH compbiomed-unito_T1c_M6_survDSM
0xd2b30a43f8fb2fdf2541ce2b52411751 0.26810795268923526 389 DEATH compbiomed-unito_T1c_M6_survDSM
0xe6aaabecc286c2da050879aacc52273 0.26674388036027213 390 DEATH compbiomed-unito_T1c_M6_survDSM
0xfcd62abf3423c170425d2a1c3c2eeb9 0.2666850895269605 391 DEATH compbiomed-unito_T1c_M6_survDSM
0xf8dc68d9a1c5c169583ca3d4dfa5c214 0.2649081389160527 392 DEATH compbiomed-unito_T1c_M6_survDSM
0xf739a7606c240c989e91c7f80684264d 0.26437103837598486 393 DEATH compbiomed-unito_T1c_M6_survDSM
0xf018ff02e490ebf136e0462351c9995a 0.26037307676986304 394 DEATH compbiomed-unito_T1c_M6_survDSM
0xe50e1671eae00837186f48081823f6a 0.2586160370778609 395 DEATH compbiomed-unito_T1c_M6_survDSM
0xdca93142c5222da1fe22972387e81d8d 0.2554973862122305 396 DEATH compbiomed-unito_T1c_M6_survDSM
0xd707b3b19e95bb3390bbca43a3c84861 0.25460243322020243 397 DEATH compbiomed-unito_T1c_M6_survDSM
0xdfb76e5655be6ec4c62c2cb98276aaa3 0.2545327714568813 398 DEATH compbiomed-unito_T1c_M6_survDSM
0xdd5e2c8f8a84304f9f8357bff5b5d42e 0.25434412710906146 399 DEATH compbiomed-unito_T1c_M6_survDSM
0xd935049213ea4ab7213df4ba9d0011bc 0.2482596038956468 400 DEATH compbiomed-unito_T1c_M6_survDSM
0xd19afb26224fd08b3397eda11712295c 0.24677429029107764 401 DEATH compbiomed-unito_T1c_M6_survDSM
0xe0b8838933d9689cf370722b5475b6b2 0.24253487979727395 402 DEATH compbiomed-unito_T1c_M6_survDSM
0xf0cce8b217b6cece44d7c415dcc41fb0 0.24184143483172757 403 DEATH compbiomed-unito_T1c_M6_survDSM
0xec30d4197a860e6d31f7a1336b256568 0.2390696429303761 404 DEATH compbiomed-unito_T1c_M6_survDSM
0xed99d8ce85b98ac336bfe40b81f2e926 0.23837482401256774 405 DEATH compbiomed-unito_T1c_M6_survDSM
0xe22e327df9138504c3ee7484a3f1dd9d 0.23413052119805564 406 DEATH compbiomed-unito_T1c_M6_survDSM
0xcca82b41a632f3e9a4388950162a75cd 0.23362204819276874 407 DEATH compbiomed-unito_T1c_M6_survDSM
0xf82812ebdea85ea1aa475f6a802c819b 0.22282021730868762 408 DEATH compbiomed-unito_T1c_M6_survDSM
0xeecc0a28a6ea86c50224dcb2530f4706 0.20455131563258575 409 DEATH compbiomed-unito_T1c_M6_survDSM
0xf9a0baa40a5828cc4eb1e2c2e2381da2 0.193556223097627 410 DEATH compbiomed-unito_T1c_M6_survDSM
0xfdeac27ee0e72aca88b427bb87909368 0.19145885221256473 411 DEATH compbiomed-unito_T1c_M6_survDSM
0xe3571e398dc254de7638a7937035be70 0.18732101811975344 412 DEATH compbiomed-unito_T1c_M6_survDSM
0xe261d744e25db88b07b0a0702f5843a1 0.18527614132528605 413 DEATH compbiomed-unito_T1c_M6_survDSM
0xeb41451dd6d05415b2e95bec7d70425c 0.18523384090087114 414 DEATH compbiomed-unito_T1c_M6_survDSM
0xeaed8517edbbb934b65bb5ada72c4326 0.18275639401123356 415 DEATH compbiomed-unito_T1c_M6_survDSM
0xd091879593136949b2a475202c5e04fa 0.17906131966198416 416 DEATH compbiomed-unito_T1c_M6_survDSM
0xed0929b7fd7230de56f15b1497383e77 0.17166240796466994 417 DEATH compbiomed-unito_T1c_M6_survDSM
0xde16308d1d1aa5d87038aa16043406e7 0.16839943627271758 418 DEATH compbiomed-unito_T1c_M6_survDSM
0xd5bd3c39db0ea9ec7fe864c579a8564a 0.1598274797046941 419 DEATH compbiomed-unito_T1c_M6_survDSM
0xca4d387aa324dd98b0a004cf51cc470f 0.15750036204561682 420 DEATH compbiomed-unito_T1c_M6_survDSM
0xfb9b007e9edd75c26a83395469cff112 0.1536063165928073 421 DEATH compbiomed-unito_T1c_M6_survDSM
0xd6619d152577d2686281f82eeb8dd69d 0.15284674746457594 422 DEATH compbiomed-unito_T1c_M6_survDSM
0xcf1c0a3f75991383513ef134ef40d961 0.14258459237428311 423 DEATH compbiomed-unito_T1c_M6_survDSM
0xda04f2d9de35c2c9ede44c4d0b936626 0.14186008914195572 424 DEATH compbiomed-unito_T1c_M6_survDSM
0xdd97a1c26fa0eb26748f253bbd060287 0.14156107413436902 425 DEATH compbiomed-unito_T1c_M6_survDSM
0xdb6d154fab2869d12355606be2b1a0a5 0.13572043297647754 426 DEATH compbiomed-unito_T1c_M6_survDSM
0xe6c9f4971f7d0be5178bcee41ec7ce40 0.1355990415483231 427 DEATH compbiomed-unito_T1c_M6_survDSM
0xd3761335574bf2556048bb99f96c4012 0.13473092056514757 428 DEATH compbiomed-unito_T1c_M6_survDSM
0xf97f3c95956730a68e1fe95cd9e451a2 0.1338676112395696 429 DEATH compbiomed-unito_T1c_M6_survDSM
0xfdc48e7bc026e1057eac3f2461cdccdc 0.13315418247363806 430 DEATH compbiomed-unito_T1c_M6_survDSM
0xdcf3911b063dd9046757764fce68259d 0.13270558237733598 431 DEATH compbiomed-unito_T1c_M6_survDSM
0xe9552678c63ee3b6c313766e97753dbc 0.1325396178140302 432 DEATH compbiomed-unito_T1c_M6_survDSM
0xd9f5dd90d4a81a83ecea564806ce241b 0.1319473870205182 433 DEATH compbiomed-unito_T1c_M6_survDSM
0xd1fe1f605f01206d6536e16ae78773e4 0.13186819719056062 434 DEATH compbiomed-unito_T1c_M6_survDSM
0xfbfc24fa1e8e50a389841a14774debee 0.1310797602695538 435 DEATH compbiomed-unito_T1c_M6_survDSM
0xd1c7d3ccbb99ca71b975d1e0ec5b8f1a 0.1292455865334956 436 DEATH compbiomed-unito_T1c_M6_survDSM
0xf5895fdb58c6d5fe6a2717d546c14764 0.12830617587483828 437 DEATH compbiomed-unito_T1c_M6_survDSM
0xda807cd4f873161d3d7e48c2af27764c 0.12734743596962728 438 DEATH compbiomed-unito_T1c_M6_survDSM
0xd3690d7f264d59ee3b2ebc6169757913 0.1264501936001363 439 DEATH compbiomed-unito_T1c_M6_survDSM
0xde976fcdacf209af454093bc0d008a50 0.12391418932631686 440 DEATH compbiomed-unito_T1c_M6_survDSM
0xf710c42ea82b240dd90161a9fef83287 0.12281125813289757 441 DEATH compbiomed-unito_T1c_M6_survDSM
0xebb8cde3b65772cb963be4146bf426e5 0.12239722385055522 442 DEATH compbiomed-unito_T1c_M6_survDSM
0xfd6cee8f40454120ee09c9fed24bcee1 0.12095270940884661 443 DEATH compbiomed-unito_T1c_M6_survDSM
0xdaac19ce7fb25ca7da5241ef8e13a995 0.12025647711175995 444 DEATH compbiomed-unito_T1c_M6_survDSM
0xe28164b3703a515d07431e9a0cd7e326 0.1181519150877242 445 DEATH compbiomed-unito_T1c_M6_survDSM
0xf81866bdc8527ad3c31b8c3f120799a1 0.11579421799673566 446 DEATH compbiomed-unito_T1c_M6_survDSM
0xf1857c0071ce51fa75db9c0ccd92b34a 0.11512282701084779 447 DEATH compbiomed-unito_T1c_M6_survDSM
0xfecb8afae7771e7ae7d8df54b515c382 0.11322015212481218 448 DEATH compbiomed-unito_T1c_M6_survDSM
0xe9b435a20f9284d389e1f4a19208016d 0.11190773716204572 449 DEATH compbiomed-unito_T1c_M6_survDSM
0xea8853b3ecfda6e662b26ae8814b3894 0.10661319662741524 450 DEATH compbiomed-unito_T1c_M6_survDSM
0xd54a2ea81d89a51632d04811cebeb8c3 0.09940087861922897 451 DEATH compbiomed-unito_T1c_M6_survDSM
0xcc2e997f6e56c86b5f5738abb6fd9176 0.09725092755328164 452 DEATH compbiomed-unito_T1c_M6_survDSM
0xdc103e9d0b714bbf9039509839a33d58 0.09718404970241583 453 DEATH compbiomed-unito_T1c_M6_survDSM
0xf3f59173eebadd3eae124f69cbb33cfa 0.09332271487426784 454 DEATH compbiomed-unito_T1c_M6_survDSM
0xfa81a092708523789aa2411a4cc59db8 0.09131879591568055 455 DEATH compbiomed-unito_T1c_M6_survDSM
0xea9b939a5421bff79ef3e8b003145a9a 0.08777924925760798 456 DEATH compbiomed-unito_T1c_M6_survDSM
0xd73350f7d616cb803f96f4f17678fd8f 0.08706329477856771 457 DEATH compbiomed-unito_T1c_M6_survDSM
0xf5f92fa359184bb3bc4128daa09ad096 0.08631096911489473 458 DEATH compbiomed-unito_T1c_M6_survDSM
0xe8be87187b3a234913efaecbfd380340 0.08551004291917852 459 DEATH compbiomed-unito_T1c_M6_survDSM
0xf2a2ce275115e111ae5a22ad3429026c 0.08083721366308916 460 DEATH compbiomed-unito_T1c_M6_survDSM
0xe754c66fac138eda1909d340c552150f 0.07945283417768505 461 DEATH compbiomed-unito_T1c_M6_survDSM
0xee673c7ae2e5429e5e7d7bb8021c1f97 0.07555686211068639 462 DEATH compbiomed-unito_T1c_M6_survDSM
0xf50bc52bad1fb3ab9d255d2b22ef09a1 0.07364545774855684 463 DEATH compbiomed-unito_T1c_M6_survDSM
0xdea07ddceb79e747808204611ef914e6 0.0736107102861329 464 DEATH compbiomed-unito_T1c_M6_survDSM
0xfed3fdca580330c527c11e25d1bfff5 0.07043356136041139 465 DEATH compbiomed-unito_T1c_M6_survDSM
0xd9ce87a4ce5b4b7068a7718a2b6d70a8 0.07008298188007323 466 DEATH compbiomed-unito_T1c_M6_survDSM
0xce7ac190b444a9100c60b9f00b6737d 0.07000890521298124 467 DEATH compbiomed-unito_T1c_M6_survDSM
0xfcaf34ef7b81ea5ab2a3ab42a06f57b8 0.06848579548977385 468 DEATH compbiomed-unito_T1c_M6_survDSM
0xe2bcb1edb8f34ed00792515d9e8f45a4 0.06826606359540328 469 DEATH compbiomed-unito_T1c_M6_survDSM
0xdc20584b36f70c4819c9b9e7ac9b2e25 0.06724549418731803 470 DEATH compbiomed-unito_T1c_M6_survDSM
0xf2d107e07b799de2b3691edc490fcdee 0.06673486302183092 471 DEATH compbiomed-unito_T1c_M6_survDSM
0xd244a1f9c20c3f18776c0091e4a2f1 0.06422821914915426 472 DEATH compbiomed-unito_T1c_M6_survDSM
0xd5f53f8c1c47ccaa895aaf51ced0e80a 0.06406265009990571 473 DEATH compbiomed-unito_T1c_M6_survDSM
0xf766abd56d68ad3f98a669e428314623 0.06271689475258631 474 DEATH compbiomed-unito_T1c_M6_survDSM
0xd027b421b5e34a676855471f7f017fe 0.06095835447684391 475 DEATH compbiomed-unito_T1c_M6_survDSM
0xf467dbbc2c3f8b542b86b790c5b911a2 0.06048677466171337 476 DEATH compbiomed-unito_T1c_M6_survDSM
0xf25577a5c837f2571b84329ad66e0141 0.0590353986300974 477 DEATH compbiomed-unito_T1c_M6_survDSM
0xfe68d3eaaab39e7ec05260e9f6f3b594 0.058340413080445276 478 DEATH compbiomed-unito_T1c_M6_survDSM
0xe531418980aaa61c0b078360aa71b72e 0.05791424622644933 479 DEATH compbiomed-unito_T1c_M6_survDSM
0xfd045973a91ea294e06a6e4cfb4e2266 0.05783719181405944 480 DEATH compbiomed-unito_T1c_M6_survDSM
0xe47392b2331f8663812fe4c0b3a1c2b5 0.05476252270707523 481 DEATH compbiomed-unito_T1c_M6_survDSM
0xd0f564004cb3a9534a60631b5599c236 0.05248438762746421 482 DEATH compbiomed-unito_T1c_M6_survDSM
0xe9eea3a099d373920d539f5c82a4a735 0.05140129517208447 483 DEATH compbiomed-unito_T1c_M6_survDSM
0xd6e36dc40dc7f14d135558b882a20e01 0.05106109506080814 484 DEATH compbiomed-unito_T1c_M6_survDSM
0xe9beee41d19d1df18d9dd63e46cb3639 0.05031523231590903 485 DEATH compbiomed-unito_T1c_M6_survDSM
0xe01aad010bf5a1a693431e2394b35293 0.04833621076797682 486 DEATH compbiomed-unito_T1c_M6_survDSM
0xcee0d011ee4d68ba5f89822601827575 0.04549308767523522 487 DEATH compbiomed-unito_T1c_M6_survDSM
0xed9f6346883b01b782874a9e1eba5cf3 0.04523461998972844 488 DEATH compbiomed-unito_T1c_M6_survDSM
0xcdf90b1c396233a6505dda507cbcd62 0.04379891866875881 489 DEATH compbiomed-unito_T1c_M6_survDSM
0xdfd617655582234cf254aa4a1f8a54c2 0.04105836038241254 490 DEATH compbiomed-unito_T1c_M6_survDSM
0xe186efe19dcf7c7050a226f1d5f304ae 0.03936707414584036 491 DEATH compbiomed-unito_T1c_M6_survDSM
0xca4c63706241452e87804f29621c5f01 0.0375322836642921 492 DEATH compbiomed-unito_T1c_M6_survDSM
0xe68dc2738e74844599b493a91d2aaa1b 0.03590992141252699 493 DEATH compbiomed-unito_T1c_M6_survDSM
