team specificity_interval_6_12 specificity_interval_12_18 specificity_interval_18_24 specificity_interval_24_30 specificity_interval_30_36 specificity_interval_36 recall_interval_6_12 recall_interval_12_18 recall_interval_18_24 recall_interval_24_30 recall_interval_30_36 recall_interval_36 mean_distance_abs
compbiomed-unito_T2c_M6_DSM_survival_time 0.965174129353234 0.823244552058111 0.728365384615385 0.845605700712589 0.946547884187082 0.887537993920973 0.25 0.36986301369863 0.314285714285714 0.261538461538462 0.0540540540540541 0.452229299363057 7.81294964028777
compbiomed-unito_T2c_M6_ME-GBSA-269 0.925373134328358 0.61501210653753 0.699519230769231 0.866983372921615 0.968819599109131 0.993920972644377 0.452380952380952 0.534246575342466 0.242857142857143 0.0153846153846154 0.027027027027027 0.0254777070063694 9.68345323741007
compbiomed-unito_T2c_M6_ME-GBSA-271 1 0.852300242130751 0.612980769230769 0.783847980997625 0.968819599109131 0.917933130699088 0 0.315068493150685 0.514285714285714 0.384615384615385 0.0540540540540541 0.292993630573248 8.2589928057554
