run_id CI95%L CI CI95%U censoring AUROC95%L AUROC AUROC95%U brier_score censoring AUROC95%L AUROC AUROC95%U brier_score censoring AUROC95%L AUROC AUROC95%U brier_score censoring AUROC95%L AUROC AUROC95%U brier_score censoring AUROC95%L AUROC AUROC95%U brier_score censoring AUROC95%L AUROC AUROC95%U brier_score censoring AUROC95%L AUROC AUROC95%U brier_score
compbiomed-unito_T1c_M0_ME-GBSA-223 0.686239660630676 0.713455537492759 0.740671414354843 12 0.718062272626474 0.767558312334432 0.81705435204239 0.160750381072272 18 0.706682364296859 0.751183756177243 0.795685148057627 0.308821281595216 24 0.728981954733622 0.770919727488152 0.812857500242681 0.451817227076474 30 0.719767913573921 0.764563292837159 0.809358672100398 0.580990451891106 36 0.743788074994821 0.788954739106593 0.834121403218364 0.657948786973984 48 0.805158681833996 0.852196197627987 0.899233713421979 0.791570745547444 60 0.81571770884054 0.865630920803335 0.915544132766129 0.843396860996849
compbiomed-unito_T1c_M0_ME-GBSA-232 0.684028681315042 0.710858231963675 0.737687782612308 12 0.738310149424303 0.787652645861601 0.836995142298899 0.160095001304125 18 0.713308234908977 0.758038169675165 0.802768104441353 0.307596314116927 24 0.725847215028532 0.768161285545024 0.810475356061516 0.450262038260056 30 0.722388555283186 0.766527421147434 0.810666287011682 0.579302261867694 36 0.740827422591729 0.785527481334627 0.830227540077525 0.656190430979283 48 0.795007346005491 0.842720066750104 0.890432787494717 0.78974096147879 60 0.814734132316349 0.862485790071997 0.910237447827645 0.841541399422717
compbiomed-unito_T1c_M0_survDSM 0.682448227101119 0.711063774127847 0.739679321154575 12 0.702495631515527 0.756348129482458 0.810200627449389 0.207710894490215 18 0.704863903131191 0.749974153795257 0.795084404459322 0.198950432613533 24 0.724237099208144 0.766328495260663 0.808419891313183 0.195652524034107 30 0.713973235692681 0.759399072548193 0.804824909403705 0.207169679473041 36 0.731037115137219 0.777681697388957 0.824326279640695 0.212561152182054 48 0.804872332307844 0.853417962929853 0.901963593551862 0.222148507065276 60 0.807678869306829 0.860894278135657 0.914109686964485 0.23766925268294
