run_id CI95%L CI CI95%U censoring AUROC95%L AUROC AUROC95%U brier_score censoring AUROC95%L AUROC AUROC95%U brier_score censoring AUROC95%L AUROC AUROC95%U brier_score censoring AUROC95%L AUROC AUROC95%U brier_score censoring AUROC95%L AUROC AUROC95%U brier_score censoring AUROC95%L AUROC AUROC95%U brier_score censoring AUROC95%L AUROC AUROC95%U brier_score
compbiomed-unito_T1a_M6_ME-GBSA-64 0.69813530541544 0.727023078141778 0.755910850868117 12 0.775045263634194 0.821901528013582 0.86875779239297 0.268844867441833 18 0.770462997015553 0.814766839378238 0.859070681740924 0.423573781952398 24 0.751624393671803 0.799006908462867 0.846389423253931 0.561561178389027 30 0.756979912144122 0.805587523314417 0.854195134484712 0.651785417179112 36 0.746139600664194 0.797829219960367 0.849518839256541 0.716262916279794 48 0.779745716635134 0.836229129903624 0.892712543172114 0.82749474628651 60 0.784490778238724 0.850694444444444 0.916898110650165 0.890214026246312
compbiomed-unito_T1a_M6_ME-GBSA-79 0.715887802724828 0.742540531976693 0.769193261228558 12 0.790022353326409 0.83338285229202 0.876743351257632 0.271285511526994 18 0.789223977961916 0.83160621761658 0.873988457271244 0.426049891840381 24 0.783092746534179 0.827144502014968 0.871196257495758 0.564454865346569 30 0.800578485362453 0.843962061986587 0.88734563861072 0.655205279254698 36 0.794103369078627 0.840028823635381 0.885954278192135 0.719839321616785 48 0.807286985799543 0.85984797068006 0.912408955560577 0.831214625413128 60 0.808415257645267 0.867003367003367 0.925591476361467 0.894017196945158
compbiomed-unito_T1a_M6_RFclf 0.685025796858749 0.714172549157674 0.743319301456599 12 0.73544119648339 0.786842105263158 0.838243014042926 0.283120219581023 18 0.751923757089718 0.798032488446996 0.844141219804274 0.235547189288764 24 0.749740489263543 0.797135866436385 0.844531243609226 0.203632639357094 30 0.740407021582724 0.791618715028374 0.842830408474024 0.187804376440642 36 0.734606846506605 0.788056206088993 0.841505565671381 0.178107599647976 48 0.768797160218625 0.827338129496403 0.88587909877418 0.160986972055853 60 0.770200465351484 0.839015151515151 0.907829837678819 0.156003547060624
compbiomed-unito_T1a_M6_survDSM 0.721822449330703 0.748499304663158 0.775176159995612 12 0.790226164065127 0.835229202037351 0.880232240009575 0.186269888937033 18 0.794022342075189 0.835317182467442 0.876612022859694 0.172815917517895 24 0.799355798459704 0.841609096142775 0.883862393825846 0.17780732975635 30 0.789049772354152 0.834517242747728 0.879984713141305 0.192856922573026 36 0.771001964478494 0.819627094217258 0.868252223956022 0.21060253906629 48 0.813421986064274 0.861476856250848 0.909531726437423 0.233593241926892 60 0.807648281789323 0.863846801346801 0.92004532090428 0.256224450876444
